(;AP[CGoban:3]BR[1k]C[ZaZu v0.7 - Automatic SGF review with Leela Zero


$$$ TOP MISTAKE FOR black

--- Top-1 mistake (most impact) ---
move 93, lost -18.650000000000006% winrate. winrate: 30.939999999999998
 play black F14
 Alternatives: 
  M5 N6 C14 B14 S10 S11 C15 B15 D13 C12 R11 Q12 S12 -> 51.09 (for black)
  G7 F7 M5 S10 N6 N7 O7 O6 N5 O8 -> 49.84 (for black)
  C14 M5 M4 B14 G7 F7 S10 -> 46.55 (for black)
  S10 M5 M4 L8 O9 J2 H2 -> 41.09 (for black)
  S11 M5 M4 P12 O12 -> 43.83 (for black)
  H15 M5 M4 -> 42.13 (for black)
  F14 M5 M4 -> 35.24 (for black)
--- Top-2 mistake (most impact) ---
move 53, lost -9.650000000000006% winrate. winrate: 29.799999999999997
 play black G16
 Alternatives: 
  G17 L12 Q10 O13 N13 O12 M11 P14 P13 -> 40.91 (for black)
  F18 H17 K17 C7 D7 D6 C8 B7 B6 -> 37.12 (for black)
  F16 E18 F18 K12 Q10 S10 C14 D13 -> 41.13 (for black)
  E16 D15 Q10 M5 S10 S11 P2 -> 37.63 (for black)
  E18 G17 E16 D15 G18 E15 F16 -> 34.92 (for black)
  Q10 G17 S10 S11 -> 32.01 (for black)
  G16 H17 J18 -> 28.63 (for black)
  G15 H17 G18 -> 32.0 (for black)
--- Top-3 mistake (most impact) ---
move 101, lost -8.380000000000003% winrate. winrate: 57.35
 play black O15
 Alternatives: 
  M16 N15 O15 M15 N17 S10 C14 B14 C15 B15 D13 C12 J11 L11 H10 K11 H8 K9 K8 -> 66.84 (for black)
  O15 M16 N17 S10 C14 B14 D13 C15 D14 C12 J11 -> 58.89 (for black)
--- Top-4 mistake (most impact) ---
move 71, lost -7.880000000000003% winrate. winrate: 39.58
 play black R3
 Alternatives: 
  R2 O2 P2 N3 M2 P1 Q2 L5 M5 M6 -> 49.0 (for black)
  Q2 P2 S3 R2 R3 Q1 S1 M5 L6 -> 44.43 (for black)
  R3 P2 Q2 O13 N13 O12 P14 N12 -> 38.78 (for black)
--- Top-5 mistake (most impact) ---
move 67, lost -7.160000000000004% winrate. winrate: 44.97
 play black H14
 Alternatives: 
  C14 B14 K11 J12 H10 M11 L9 D3 C7 D8 -> 51.89 (for black)
  K11 M12 M10 O13 N13 O12 N12 N11 N14 M11 O11 -> 54.33 (for black)
  L11 H11 C14 B14 Q10 M5 P2 -> 54.28 (for black)
  Q10 O13 N13 O12 P14 N12 N10 N14 N7 Q12 -> 51.22 (for black)
  J14 K12 C14 B14 Q10 O13 -> 52.5 (for black)
  Q2 L11 Q10 S10 C7 -> 52.75 (for black)
  P2 O2 Q2 N3 M2 M4 L4 L5 K4 M5 C14 B14 -> 50.58 (for black)
  C7 D8 C14 B14 C15 B15 D13 -> 49.58 (for black)
  D7 D3 C14 B14 C15 -> 46.83 (for black)

$$$ TOP MISTAKE FOR white

--- Top-1 mistake (most impact) ---
move 100, lost 20.300000000000004% winrate. winrate: 65.73
 play white N16
 Alternatives: 
  S10 C14 B14 C15 B15 D13 C12 J11 L11 H10 K11 H8 K9 K8 T6 S5 S2 -> 43.45 (for white)
  N8 C14 B14 D13 C15 D14 C12 S10 S11 R11 -> 46.03 (for white)
  O12 O13 Q11 P9 P12 N8 O11 P10 -> 48.95 (for white)
  K9 K8 O12 O13 Q11 P9 P12 -> 51.05 (for white)
  D13 S10 O12 P12 P14 -> 57.78 (for white)
  R10 R9 S10 P9 T6 -> 52.49 (for white)
  N9 N8 O8 N7 M9 -> 51.76 (for white)
  M14 O15 S10 C14 B14 -> 55.23 (for white)
  T6 S5 N8 S10 O12 -> 57.65 (for white)
  O10 C14 B14 -> 56.6 (for white)
  P14 P13 O12 -> 60.83 (for white)
--- Top-2 mistake (most impact) ---
move 104, lost 17.729999999999997% winrate. winrate: 72.96
 play white J9
 Alternatives: 
  M16 N17 S10 C14 C15 D14 B14 E12 H10 C12 B13 E11 D12 D11 D13 E13 -> 53.94 (for white)
  S10 C14 B14 C15 B15 D13 C12 M16 M15 H8 H10 G8 -> 60.08 (for white)
  R10 R9 S10 P9 T6 S5 -> 65.75999999999999 (for white)
  N8 S10 S11 R11 Q12 -> 69.08 (for white)
  D13 S10 S11 R11 T11 -> 71.93 (for white)
  T6 S5 R10 R9 S10 C14 -> 68.15 (for white)
  O12 C14 B14 N11 -> 69.78 (for white)
--- Top-3 mistake (most impact) ---
move 106, lost 15.5% winrate. winrate: 86.67
 play white G9
 Alternatives: 
  M16 N17 R10 R9 S10 C14 B14 C15 B15 D13 C12 P9 S9 -> 68.9 (for white)
  R10 R9 S10 P9 T6 S5 S2 S3 T4 T5 T3 T7 -> 70.51 (for white)
  S10 G8 G7 F8 F7 C14 B14 C15 B15 D13 C12 M16 M15 N7 M10 -> 69.55 (for white)
  T6 S5 S10 C14 C15 D14 B14 G8 -> 74.44 (for white)
  N8 G8 G7 F8 F7 C14 B14 -> 73.93 (for white)
  Q11 P9 R10 R9 S9 S10 R11 S8 T6 -> 75.19 (for white)
  D13 S10 S11 R11 T11 T10 S13 N7 -> 76.78999999999999 (for white)
  M10 C14 B14 C15 B15 D13 C12 -> 77.45 (for white)
  O12 N10 N12 M12 M11 M13 -> 77.15 (for white)
  L9 C14 C15 D14 B14 -> 77.25 (for white)
  S2 R5 S3 S4 T5 T6 S1 R1 -> 78.59 (for white)
  H9 G8 H2 -> 83.28 (for white)
--- Top-4 mistake (most impact) ---
move 92, lost 15.090000000000003% winrate. winrate: 49.59
 play white F13
 Alternatives: 
  M5 M4 L8 G7 F7 M11 D13 S10 S11 R11 Q12 S12 -> 33.709999999999994 (for white)
  T6 S5 M5 -> 43.23 (for white)
--- Top-5 mistake (most impact) ---
move 96, lost 13.450000000000003% winrate. winrate: 41.94
 play white H7
 Alternatives: 
  D13 S10 S11 R11 Q12 S12 P12 O11 O13 P8 L8 -> 27.519999999999996 (for white)
  O13 N13 O12 P14 N12 N10 Q12 P12 N14 P13 R10 R9 Q9 P9 -> 26.03 (for white)
  R10 C14 B14 D13 C15 D14 C12 R9 Q11 P9 O10 -> 27.989999999999995 (for white)
  L8 G7 F7 C14 B14 C15 B15 D13 C12 -> 29.47 (for white)
  T6 S5 L8 C14 B14 C15 -> 33.81999999999999 (for white)
  L9 C14 B14 D13 C15 -> 28.870000000000005 (for white)
  J4 H4 H3 H2 H5 G3 G4 -> 33.230000000000004 (for white)
  H3 H2 J4 H4 H5 G3 G4 H3 -> 35.08 (for white)
  Q11 P9 P12 O11 P14 M8 O8 -> 36.46 (for white)
  S10 C14 B14 D13 C15 -> 33.39 (for white)
  S2 R5 S3 -> 39.08 (for white)
  D14 S10 S11 R11 -> 43.21 (for white)
  N12  -> 44.6 (for white)
  O10  -> 46.35 (for white)]CA[UTF-8]DT[2018-08-10]FF[4]GM[1]KM[6.50]OT[5x10 byo-yomi]PB[Windfall]PC[The KGS Go Server at http://www.gokgs.com/]PW[kasuka]RE[B+Time]RU[Japanese]ST[2]SZ[19]TM[60]WR[1k];B[pc]BL[57.125]C[Winrate Black:  45.94%
|##############__________________|
];C[Winrate Black:  44.68%
|##############__________________|


 Leela's Suggestions: D4 C3 C4 D3 F3 E3 E4 F2 Q4 D16 R15 O16 C17 C16 D17


 Alternatives: 
 D4 -> 45.02 - D4 C3 C4 D3 F3 E3 E4 F2 Q4 D16 R15 O16 C17 C16 D17
 D16 -> 45.17 - D16 D4 Q4 C17 D17 C16 C14 C15 D15 B14 R15
 Q4 -> 45.16 - Q4 D4 D16 C17 D17 C16 C14 C15 D15 B14
 C4 -> 45.64 - C4 C16 Q4 R3 R4 Q3 O3 P3
 D3 -> 45.53 - D3 Q3 D16 C17 D17 C16 C14 C15
 R4 -> 45.61 - R4 D3 D16 P3 R15
 D17 -> 45.7 - D17 C4 Q4 R3 R4
 C16 -> 45.7 - C16 D4 Q4 E17 D14 R3
 Q3 -> 45.67 - Q3 D4 D16 R5 O4 C17 D17
]LB[dp:A][dd:B][pp:C][cp:D][dq:E][qp:F][dc:G][cd:H][pq:J]W[dp]WL[58.084];B[qp]BL[55.809]C[Winrate Black:  45.74%
|##############__________________|


 Leela's Suggestions: C3 C4 D3 F3 E3 E4 F2 Q4 D16 R15 O16 C17 C16 D17 F17 E17 E16 F18 B17 B18 E18 E19 G18 D18


 Alternatives: 
 C3 -> 44.88 - C3 C4 D3 F3 E3 E4 F2 Q4 D16 R15 O16 C17 C16 D17 F17 E17 E16 F18 B17 B18 E18 E19 G18 D18
 Q4 -> 45.76 - Q4 D16 Q14 R3 Q3 R4 R6 R5 Q5 S6 F17 R7 Q6 S8 C6 F3 D14 E14
 D16 -> 45.49 - D16 Q4 C3 C4 D3 F3 E3 E4 F2 R15 O16 C17 C16 D17 F17
 C16 -> 44.88 - C16 Q4 R3 R4 Q3 O3 P3 P4 O2 E17 D14 Q15
 Q3 -> 44.88 - Q3 D16 C3 D3 C4 C6 C5 D5 B6 R15 O16
 R4 -> 44.94 - R4 D16 O3 R15 O16 R12 C17 D17 C16 C14
 D17 -> 44.72 - D17 Q4 R3 R4 Q3 O3 P3 P4 O2 C15 C3
]LB[cq:A][pp:B][dd:C][cd:D][pq:E][qp:F][dc:G];C[Winrate Black:  44.86%
|##############__________________|


 Leela's Suggestions: D16 O3 R15 O16 R12 C17 D17 C16 C14 C15 D15 B14 C18 B18 B13 D18 D13 E14 D14 E18 C6 F3


 Alternatives: 
 D16 -> 45.09 - D16 O3 R15 O16 R12 C17 D17 C16 C14 C15 D15 B14 C18 B18 B13 D18 D13 E14 D14 E18 C6 F3
 D17 -> 44.97 - D17 C3 D3 C4 C6 C5 D5 B6 P3 C15 Q5 R5 Q6 R7 R15 E16 C16 B15 E17
 C16 -> 45.22 - C16 C3 D3 C4 C6 C5 D5 B6 P3 E17 D14 Q6 C2 B2
]LB[dd:A][dc:B][cd:C]W[dd]WL[56.121];B[iq]BL[54.887]C[Winrate Black:  43.35%
|#############___________________|


 Leela's Suggestions: O3 R15 O16 R12 C17 D17 C16 C14 C15 D15 B14 C18 B18 B13 D18 D13 E14 D14 E18 C6 F3 H3 D3 C3 C2


 Alternatives: 
 O3 -> 45.86 - O3 R15 O16 R12 C17 D17 C16 C14 C15 D15 B14 C18 B18 B13 D18 D13 E14 D14 E18 C6 F3 H3 D3 C3 C2
 C3 -> 44.61 - C3 D3 C4 C6 C5 D5 B6 R15 O16 P4 P3 O3 Q3 O4 R6 K4 F17 H17 C14 D14 D13 E14
 C17 -> 44.39 - C17 D17 C16 C14 C15 D15 B14 P3 Q6 R15 O16 C18 B18 B13 D18 D13 E14 D14 E18
 O4 -> 45.19 - O4 R15 O16 R12 C3 D3 C4 C6 C5 D5 B6 C2 B2 B7 D2 D7 E6
 Q14 -> 44.83 - Q14 P3 Q6 R12 C17 D17 C16 C14 C15 D15 B14 Q16
 P4 -> 45.23 - P4 R15 O16 R12 C3 D3 C4 C6 C5 D5 B6 C2 B2 B7 D2 D7 E6 D6 E2
 Q15 -> 44.99 - Q15 P4 P3 O3 Q3 O4 Q6 K4 F17 C14 K16
]LB[nq:A][cq:B][cc:C][np:D][pf:E][op:F][pe:G];C[Winrate Black:  42.30%
|#############___________________|


 Leela's Suggestions: R15 P4 P16 P17 O16 N17 F3 R11 N3 M4 N4 N5 O5 O4 M5 N6


 Alternatives: 
 R15 -> 42.5 - R15 P4 P16 P17 O16 N17 F3 R11 N3 M4 N4 N5 O5 O4 M5 N6
 P3 -> 42.92 - P3 Q14 Q5 R5 Q6 R7 G3 M3 Q7 R8 Q8 Q9 P9 P10 R6
]LB[qe:A][oq:B]W[pe]WL[54.381];B[nd]BL[53.245]C[Winrate Black:  41.45%
|#############___________________|


 Leela's Suggestions: R15 R14 R16 Q14 O17 P3 F3 R7 Q6 Q7 Q3 P4 R6 P6 P7 S7 P8 Q4 S6 R3 S3


 Alternatives: 
 R15 -> 42.9 - R15 R14 R16 Q14 O17 P3 F3 R7 Q6 Q7 Q3 P4 R6 P6 P7 S7 P8 Q4 S6 R3 S3
 P4 -> 42.64 - P4 P17 R16 Q18 P16 Q16 R17 O17 R14 Q14 R13 Q13 Q12 R15
 C17 -> 41.58 - C17 D17 C16 C14 C15 D15 B14 R17 P4 M17
]LB[qe:A][op:B][cc:C];C[Winrate Black:  40.04%
|############____________________|


 Leela's Suggestions: R17 R18 R16 P4 M17 P18 R12 F3 C6 D17 C17 E17 C18 J17


 Alternatives: 
 R17 -> 40.29 - R17 R18 R16 P4 M17 P18 R12 F3 C6 D17 C17 E17 C18 J17 M15
 P3 -> 41.19 - P3 Q6 R17 R13 R16 P14 P17 O17 P18 P16 Q18 F17 C14 C6
]LB[qc:A][oq:B]W[qc]WL[51.621];B[qb]BL[52.611]C[Winrate Black:  40.41%
|############____________________|


 Leela's Suggestions: R18 R16 P4 M17 P18 R12 F3 C6 D17 C17 E17 C18 J17 M15 P15 G17


 Alternatives: 
 R18 -> 39.97 - R18 R16 P4 M17 P18 R12 F3 C6 D17 C17 E17 C18 J17 M15 P15 G17
 R13 -> 41.78 - R13 R16 P14 P17 O17 P18 P4 R10 P16
 R16 -> 36.3 - R16 Q16 S17 R18 P17 R15 S16 S18 S15 S14 S13 R14 T14 T15 T16 T18 T13 T17
 P4 -> 40.32 - P4 R16 C14 F17 C6
 C17 -> 39.32 - C17 D17 C16 C14 C15 D15 B14 P3 R18
]LB[qb:A][qg:B][qd:C][op:D][cc:E];C[Winrate Black:  40.07%
|############____________________|


 Leela's Suggestions: R16 P4 M17 P18 R12 F3 C6 D17 C17 E17 C18 J17 M15 P15 G17 E16


 Alternatives: 
 R16 -> 40.08 - R16 P4 M17 P18 R12 F3 C6 D17 C17 E17 C18 J17 M15 P15 G17 E16
 P3 -> 100.0 - P3 
]LB[qd:A][oq:B]W[qd]WL[50.561];B[ob]BL[52.125]C[Winrate Black:  38.42%
|############____________________|


 Leela's Suggestions: P4 M17 P18 R12 F3 C6 D17 C17 E17 C18 J17 M15 O14 J15 G17


 Alternatives: 
 P4 -> 40.76 - P4 M17 P18 R12 F3 C6 D17 C17 E17 C18 J17 M15 O14 J15 G17
 R12 -> 39.26 - R12 S18 P18 R19 P4 F3 F17 C14 P14 H17 D17 C17
 O4 -> 40.46 - O4 M17 P18 R12 F3 C6 C17 D17 C16 C14 C15 D15 B14
 F17 -> 40.26 - F17 P3 C14 D14 D13 E14 C16 C17 C15 F16 D15 E16 B17 D18 C18 D17 B18 J17 G16 H16
 C14 -> 40.37 - C14 F17 P4 R11 C6 F3 C4 C3 B3
 C17 -> 38.83 - C17 D17 C16 C14 C15 D15 B14 M17 P18 Q12 F3 O17 N16
 F3 -> 40.01 - F3 P3 C6 F4 G4 E3 F5 E4 F2 G5 E6 C5 B6 E2
 C6 -> 40.41 - C6 P3 F3 F4 G4 E3 F5 E4 F2 G5 E6 C5
 S18 -> 36.99 - S18 R12 F3 C6 P4 M17
 R13 -> 38.66 - R13 P14 Q11 S18 P18 R19 P4 L17 Q19 Q18 D17
 P18 -> 37.36 - P18 R12 F3 C6 P4 F17
]LB[op:A][qh:B][np:C][fc:D][cf:E][cc:F][fq:G][cn:H][rb:J][qg:K][ob:L];C[Winrate Black:  37.12%
|###########_____________________|


 Leela's Suggestions: R12 F3 C6 P4 F17 R10 N3 O3 N4 O6


 Alternatives: 
 R12 -> 37.39 - R12 F3 C6 P4 F17 R10 N3 O3 N4 O6
 Q12 -> 38.04 - Q12 F3 P3 C6 F4 G4 E3 F5 E4 F2 G5
 P3 -> 38.8 - P3 R12 Q5 Q3 P2 R6 Q6 R7 Q7 Q8 P8
 R11 -> 37.43 - R11 F17 H17 F3
 O15 -> 38.89 - O15 N15 O14 F17 N16 M15
 Q11 -> 39.13 - Q11 F17 H17 F3
]LB[qh:A][ph:B][oq:C][qi:D][ne:E][pi:F]W[qh]WL[48.387];B[cn]BL[51.562]C[Winrate Black:  37.64%
|############____________________|


 Leela's Suggestions: F3 C6 P4 F17 R10 N3 P14 Q13 L3 Q3 P3


 Alternatives: 
 F3 -> 37.56 - F3 C6 P4 F17 R10 N3 P14 Q13 L3 Q3 P3
 F17 -> 37.45 - F17 C14 F3 C6 P4 H17 D17 C17 C18 E17
 O4 -> 37.32 - O4 F3 F17 H17 C14 D14 D13 E14 C17 C15 D17
 P4 -> 37.18 - P4 F3 F17 H17 C6 C5 D6 C10 E4 E3 C3
 C17 -> 37.02 - C17 D17 C16 C14 C15 D15 B14 P3 F3 C6 C13 D14 C18 H17 Q3 P4
 C6 -> 36.88 - C6 F3 C4 C3 B3 C5 B4 D5 B5 C2 D6 E6 E7 F6 F7
 C14 -> 37.02 - C14 F17 C6 F3 C4 C3 B3 C5
]LB[fq:A][fc:B][np:C][op:D][cc:E][cn:F][cf:G];C[Winrate Black:  36.74%
|###########_____________________|


 Leela's Suggestions: F3 C4 C3 B3 C5 B4 D5 B5 C2 D6 E6 E7 F6 F7 G6 G7 H6 M3 C9 B7 C13 P4


 Alternatives: 
 F3 -> 37.01 - F3 C4 C3 B3 C5 B4 D5 B5 C2 D6 E6 E7 F6 F7 G6 G7 H6 M3 C9 B7 C13 P4
 G3 -> 36.79 - G3 F17 C14 C3 C4 D3 E4 B4 B5 B3 C5
 C5 -> 37.11 - C5 D6 F3 C14 F17 O4 C10 C16 C17 B17
 P3 -> 36.98 - P3 F3 F4 G4 E3 F5 E4 F2 G5 E6 G3 H4 G2
]LB[fq:A][gq:B][co:C][oq:D]W[fq]WL[46.733];B[bp]BL[50.425]C[Winrate Black:  36.90%
|###########_____________________|


 Leela's Suggestions: C4 C3 B3 C5 B4 D5 B5 C2 D6 E6 E7 F6 F7 G6 G7 H6 M3 C9 B7 C13 P4


 Alternatives: 
 C4 -> 36.76 - C4 C3 B3 C5 B4 D5 B5 C2 D6 E6 E7 F6 F7 G6 G7 H6 M3 C9 C11 D10 B7
 F17 -> 37.31 - F17 C14 C4 C3 B3 C5 B4 D5 B5 C2 D6 E6 E7 F6 F7 G6 G7 H6
 O4 -> 37.45 - O4 C5 D6 C10 E4 E3 C3 D5 E6 E5 G6 B5 F17
 B4 -> 36.05 - B4 C3 F17 C8 D5 C14 E4 E3 C4
 P4 -> 37.52 - P4 C5 D6 C10 E4 E3 C3 D5 E6 E5 F6
 C14 -> 36.81 - C14 F17 C4 C3 B3 C5 B4 D5 D3 B5 E3 F4
 C17 -> 36.6 - C17 D17 C16 C14 C15 D15 B14 P3 M3 C18 B18 B13
 O3 -> 37.37 - O3 C5 D6 C10 E4 E3 C3 D5 E6
 C3 -> 34.74 - C3 C4 B4 B5 B3 C5 E2 H4 B6 A6
]LB[cp:A][fc:B][np:C][bp:D][op:E][cf:F][cc:G][nq:H][cq:J];C[Winrate Black:  37.01%
|###########_____________________|


 Leela's Suggestions: C3 F17 C8 D5 C14 E4 E3 C4 D3 G5 H4 G4


 Alternatives: 
 C3 -> 36.16 - C3 F17 C8 D5 C14 E4 E3 C4 D3 F6 D11 P4
 P3 -> 37.17 - P3 C3 M3 G4 D6 D7 E6 G6 E7 C7
]LB[cq:A][oq:B]W[op]WL[41.944];B[lq]BL[48.73]C[Winrate Black:  37.27%
|###########_____________________|


 Leela's Suggestions: P3 O3 Q3 O4 R6 C3 E6 D7 D6 C7 E7 D9 B3 H2 C11 B6


 Alternatives: 
 P3 -> 37.76 - P3 O3 Q3 O4 R6 C3 E6 D7 D6 C7 E7 D9 B3 H2 C11 B6
 C3 -> 37.13 - C3 R3 N3 Q6 S3 Q3
 M3 -> 36.98 - M3 C3 F17 C14 C9 R3 S3
 N3 -> 36.88 - N3 R3 C3 Q6 E6 F6
 F17 -> 37.17 - F17 R5 S5 Q5 S6 R3 S3
 C14 -> 36.36 - C14 R5 S5 Q5
 C17 -> 35.4 - C17 C16 D17
]LB[oq:A][cq:B][lq:C][mq:D][fc:E][cf:F][cc:G];C[Winrate Black:  37.13%
|###########_____________________|


 Leela's Suggestions: C3 F17 C14 D17 C17 C18 E17 D18 E16 E18 C8 D5 F16 G17


 Alternatives: 
 C3 -> 36.07 - C3 F17 C14 D17 C17 C18 E17 D18 E16 E18 C8 D5 F16 G17
 R3 -> 37.08 - R3 S3 Q3 S5 C3 F17 C8 D5 C14 E4 E3
 R5 -> 36.77 - R5 S5 Q5 S6 R3 S3 Q4 S4 C3 F17 C8 D5 C14 E4 E3 C4 D3 F6 D11
 Q6 -> 38.4 - Q6 R6 R7 Q7 P6 R8 R5 S7 S5
 N4 -> 38.85 - N4 C3 R3 S3 Q3
]LB[cq:A][qq:B][qo:C][pn:D][mp:E]W[pn]WL[40.199];B[qn]BL[46.301]C[Winrate Black:  34.89%
|###########_____________________|


 Leela's Suggestions: C3 S5 S4 N4 Q5 P6 R6 R7 S6 S7


 Alternatives: 
 C3 -> 38.77 - C3 S5 S4 N4 Q5 P6 R6 R7 S6 S7
 R6 -> 35.72 - R6 R7 Q7 P6 R8 S7 S6 S8 R9 S9 R10 S10 Q3 O8 R11 S11 Q12 R13 F17
 P5 -> 37.95 - P5 Q5 Q4 P3 P6 Q7 P7 Q8 Q2 Q3 R3 P2 R2 N4 P8 M4 Q9 R9 R10 S9 S7 S6
 C14 -> 38.36 - C14 F17 R6 R7 Q7
 P3 -> 37.14 - P3 O3 Q3 O4 S6
 F17 -> 37.96 - F17 C14 C3 S5
 S6 -> 34.27 - S6 C3 F17 C8 D5
 S5 -> 36.01 - S5 C3 C14 C8 D5
 C17 -> 36.22 - C17 D17 C16 C14


 
--- Top-14 mistake (most impact) ---
move 19, lost -2.240000000000002% winrate. winrate: 34.89
 play black R6
 Alternatives: 
  C3 S5 S4 N4 Q5 P6 R6 R7 S6 S7 -> 38.77 (for black)
  R6 R7 Q7 P6 R8 S7 S6 S8 R9 S9 R10 S10 Q3 O8 R11 S11 Q12 R13 F17 -> 35.72 (for black)
  P5 Q5 Q4 P3 P6 Q7 P7 Q8 Q2 Q3 R3 P2 R2 N4 P8 M4 Q9 R9 R10 S9 S7 S6 -> 37.95 (for black)
  C14 F17 R6 R7 Q7 -> 38.36 (for black)
  P3 O3 Q3 O4 S6 -> 37.14 (for black)
  F17 C14 C3 S5 -> 37.96 (for black)
  S6 C3 F17 C8 D5 -> 34.27 (for black)
  S5 C3 C14 C8 D5 -> 36.01 (for black)
  C17 D17 C16 C14 -> 36.22 (for black)]LB[cq:A][qn:B][oo:C][cf:D][oq:E][fc:F][rn:G][ro:H][cc:J];C[Winrate Black:  33.15%
|##########______________________|


 Leela's Suggestions: R7 Q7 P6 R8 S7 S6 S8 R9 S9 R10 S10 Q3 O8 R11 S11 Q12 R13 F17 C14 C3


 Alternatives: 
 R7 -> 33.83 - R7 Q7 P6 R8 S7 S6 S8 R9 S9 R10 S10 Q3 O8 R11 S11 Q12 R13 F17 C14 C3
 R3 -> 38.05 - R3 Q7 P6 S3 R7 R8 R5 S7 S4 S5 Q4 T4
 C3 -> 38.15 - C3 Q7 R3 S3 Q3 F17 C8
 M4 -> 39.58 - M4 N4 N5 N3 R7
]LB[qm:A][qq:B][cq:C][lp:D]W[qm]WL[39.028];B[rn]BL[45.269]C[Winrate Black:  34.92%
|###########_____________________|


 Leela's Suggestions: Q7 P6 R8 S7 S6 S8 Q3 R9 C3 P3 G4 D6 D7 E6 E7 F6 F7 G6


 Alternatives: 
 Q7 -> 33.0 - Q7 P6 R8 S7 S6 S8 Q3 R9 C3 P3 G4 D6 D7 E6 E7 F6 F7 G6
 Q5 -> 35.77 - Q5 P5 S7 Q7 S8 C3 F17 C8 D5 C14 E4 E3
 S6 -> 34.41 - S6 R3 Q7 S4 Q5 P6 P5
]LB[pm:A][po:B][rn:C];C[Winrate Black:  35.22%
|###########_____________________|


 Leela's Suggestions: R3 Q7 S4 Q5 P6 P5 O5 O6 P7 O4 N5 Q8 N4


 Alternatives: 
 R3 -> 33.66 - R3 Q7 S4 Q5 P6 P5 O5 O6 P7 O4 N5 Q8 N4
 Q7 -> 36.02 - Q7 C3 R3 S3 Q4 R2 Q3 R5 C14 F17 E17 F16
 C3 -> 34.019999999999996 - C3 Q7 R3 P6 Q5 Q4 Q3 P5
 M4 -> 35.44 - M4 N4 N5 N3 R3 Q7 Q4 P6 Q5
]LB[qq:A][pm:B][cq:C][lp:D]W[pm]WL[32.914];B[pq]BL[43.893]C[Winrate Black:  33.03%
|##########______________________|


 Leela's Suggestions: C3 R3 S3 Q4 R2 Q3 R5 C14 F17 E17 F16 H17 F18 H15 F14 D12


 Alternatives: 
 C3 -> 36.18 - C3 R3 S3 Q4 R2 Q3 R5 C14 F17 E17 F16 H17 F18 H15 F14 D12
 C14 -> 35.33 - C14 R3 S3 Q4 R2 Q3 R5 C3 F17 D14 D13 E14 C16 C17 C15 F16 D15
 F17 -> 35.27 - F17 R3 S3 Q4 R2 Q3 R5 C14 C3
 Q3 -> 32.31 - Q3 C3 C14 F17 C16 C17 B17 C15 B16 D15 D17 B15 E17
 C17 -> 34.91 - C17 D17 C16 C14 C15 D15 B14 C3 C13 D14 C18
 P3 -> 33.01 - P3 Q4 Q3 R3 R2 S3 S4


 
--- Top-15 mistake (most impact) ---
move 23, lost -2.1899999999999977% winrate. winrate: 33.03
 play black Q3
 Alternatives: 
  C3 R3 S3 Q4 R2 Q3 R5 C14 F17 E17 F16 H17 F18 H15 F14 D12 -> 36.18 (for black)
  C14 R3 S3 Q4 R2 Q3 R5 C3 F17 D14 D13 E14 C16 C17 C15 F16 D15 -> 35.33 (for black)
  F17 R3 S3 Q4 R2 Q3 R5 C14 C3 -> 35.27 (for black)
  Q3 C3 C14 F17 C16 C17 B17 C15 B16 D15 D17 B15 E17 -> 32.31 (for black)
  C17 D17 C16 C14 C15 D15 B14 C3 C13 D14 C18 -> 34.91 (for black)
  P3 Q4 Q3 R3 R2 S3 S4 -> 33.01 (for black)]LB[cq:A][cf:B][fc:C][pq:D][cc:E][oq:F];C[Winrate Black:  36.37%
|###########_____________________|


 Leela's Suggestions: C3 C14 F17 C16 C17 B17 C15 B16 D15 D17 B15 E17 F16 C9 C11 K16


 Alternatives: 
 C3 -> 31.980000000000004 - C3 C14 F17 C16 C17 B17 C15 B16 D15 D17 B15 E17 F16 C9 C11 K16
 F17 -> 35.629999999999995 - F17 C3 E7 C14 C15 D14
 C14 -> 35.269999999999996 - C14 C3 Q4 R3 G17
 P3 -> 37.54 - P3 C3 D6 D7 E6 C7


 
--- Top-16 mistake (most impact) ---
move 24, lost 3.3399999999999963% winrate. winrate: 36.37
 play white P3
 Alternatives: 
  C3 C14 F17 C16 C17 B17 C15 B16 D15 D17 B15 E17 F16 C9 C11 K16 -> 31.980000000000004 (for white)
  F17 C3 E7 C14 C15 D14 -> 35.629999999999995 (for white)
  C14 C3 Q4 R3 G17 -> 35.269999999999996 (for white)
  P3 C3 D6 D7 E6 C7 -> 37.54 (for white)]LB[cq:A][fc:B][cf:C][oq:D]W[oq]WL[31.598];B[cq]BL[42.145]C[Winrate Black:  37.24%
|###########_____________________|


 Leela's Suggestions: C3 D6 D7 E6 C7 C14 F17 E17 F16 H17 F18 H15 K17 J17


 Alternatives: 
 C3 -> 36.93 - C3 D6 D7 E6 C7 C14 F17 E17 F16 H17 F18 H15 K17 J17
 C14 -> 36.72 - C14 F17 C3 E7 C16 C17 B17 C15 B16 D15 D17
 F17 -> 36.97 - F17 C14 C3 D6 D7 E6 E7 F7
 C17 -> 35.9 - C17 D17 C16 C14 C15 D15 B14 C3 C13 D14 C18 H17 D13 D7
 Q12 -> 33.46 - Q12 Q11 R13 Q13 P12
]LB[cq:A][cf:B][fc:C][cc:D][ph:E];C[Winrate Black:  37.43%
|###########_____________________|


 Leela's Suggestions: D6 D7 E6 C7 C14 F17 E17 F16 H17 F18 H15 K17 J17 K16


 Alternatives: 
 D6 -> 35.68000000000001 - D6 D7 E6 C7 C14 F17 E17 F16 H17 F18 H15 K17 J17 K16 F14
 H5 -> 36.82 - H5 E6 F6 F7 E5 E7 C13 D17
 P2 -> 35.92 - P2 Q2 Q4 R5 D6 D7 E6 C7 J5 M5 L4 L3
 C5 -> 36.55 - C5 B5 D6 C7 H5 J5 J6 K5 H4 H3 D7 D8 E8 E9
 E7 -> 37.97 - E7 F17 H17 C14 D14 D13 E14 C17
 F6 -> 38.26 - F6 F17 H17 C14 D14 D13
 H3 -> 38.45 - H3 H4 J4 K3 J5 H5 H2 J6 L4
 C14 -> 38.16 - C14 G4 D6 D7 E6 G6 E7
 L4 -> 37.93 - L4 L3 D6 D7 E6 C7 J5 C14 D14
 D3 -> 39.66 - D3 E6 H2 C14 F17 C16
 E6 -> 38.3 - E6 F17 H17 C14 D14
 F17 -> 38.31 - F17 G4 F4 G5
 H4 -> 40.65 - H4 H3 G4 K5 L4 L3 K4
 J4 -> 42.11 - J4 H3 K3 K2 K4
]LB[dn:A][ho:B][or:C][co:D][em:E][fn:F][hq:G][cf:H][kp:J][dq:K][en:L][fc:M][hp:N][ip:O]W[fn]WL[29.284];B[in]BL[35.978]C[Winrate Black:  37.66%
|############____________________|


 Leela's Suggestions: F17 H17 C14 D14 D13 E14 C17 C15 D17 C13 G4 F4 G5


 Alternatives: 
 F17 -> 38.19 - F17 H17 C14 D14 D13 E14 C17 C15 D17 C13 G4 F4 G5
 C14 -> 38.45 - C14 F17 C16 C17 B17 C15 B16 D15 D17 C18 D18 B18
 C17 -> 37.95 - C17 D17 C16 C15 B15 B14 C14 D15 B13 B16 A14 B17 C18 B18 G4 D6 D7 C5 E6 E5
 G4 -> 36.9 - G4 D6 D7 C5 B5 C7 B6 E7 D8 E9 F17 H17 F15
 H5 -> 37.54 - H5 C14 F17 E17 F16 H17 F18 H15 F14
 J5 -> 36.32 - J5 C14 F17 E17 F16 H17 F18
 Q12 -> 35.97 - Q12 Q11 R13 Q13 P12 P13 R11
 P14 -> 35.04 - P14 G17 C14
]LB[fc:A][cf:B][cc:C][gp:D][ho:E][io:F][ph:G][of:H];C[Winrate Black:  36.06%
|###########_____________________|


 Leela's Suggestions: F17 C14 C15 D14 E8 H17 F15 H15 F13 D11 C8 F11


 Alternatives: 
 F17 -> 36.12 - F17 C14 C15 D14 E8 H17 F15 H15 F13 D11 C8 F11
 C14 -> 36.76 - C14 F17 E17 F16 H17 F18 H15 F14 D12 K17 K16 J17 J16
 L4 -> 38.16 - L4 L3 J4 H4 K4 H2 H5 G4 D6 D7
 G17 -> 36.66 - G17 C14 B15 D7 E8 E7 F7
 D6 -> 36.96 - D6 C7 F17 C14 C15 D14 E9 E8
 J4 -> 36.02 - J4 H4 H5 J5 K4 H3 K3 L5 K2
 D3 -> 39.2 - D3 F17 H17 C14 D14 D13
 E8 -> 39.09 - E8 F17 H17 C14 D14 D13 E14
 C5 -> 37.99 - C5 B5 D6 C7 F17 C14 C15
 M5 -> 38.82 - M5 F17 H17 C14
 S7 -> 39.74 - S7 F17 C14 D17
 D7 -> 37.65 - D7 D6 E6
]LB[fc:A][cf:B][kp:C][gc:D][dn:E][ip:F][dq:G][el:H][co:J][lo:K][rm:L][dm:M]W[cg]WL[25.795];B[fc]BL[34.09]C[Winrate Black:  37.36%
|###########_____________________|


 Leela's Suggestions: F17 H17 C17 D17 D18 C16 B18 B17 C18 M17 P13 O15 N16 P16 N18


 Alternatives: 
 F17 -> 37.05 - F17 H17 C17 D17 D18 C16 B18 B17 C18 M17 P13 O15 N16 P16 N18
 D17 -> 36.64 - D17 E17 C17 E18 B15 D14 C16 E15 B13 M17 F16 E16 C14 M15
 G4 -> 35.86 - G4 F4 F17 H17 C17 D17 C16 D15
 M6 -> 34.25 - M6 F17 H17 S7 H15 O14 D18
 P14 -> 35.62 - P14 F17 H17 M5 H15 J4
 D7 -> 36.66 - D7 E7 E8 F8 F9 G8
 S7 -> 33.66 - S7 R9 F17 H17 C17 D17 D18
 P13 -> 31.54 - P13 O15 R13 S13 R14 S14 R15 S15 Q16
 N6 -> 33.96 - N6 F17 Q10 O7
]LB[fc:A][dc:B][gp:C][ln:D][of:E][dm:F][rm:G][og:H][mn:J];C[Winrate Black:  39.76%
|############____________________|


 Leela's Suggestions: H17 C17 D17 D18 C16 B18 B17 C18 M17 P13 O15 N16 P16 N18 N14 Q11


 Alternatives: 
 H17 -> 36.61 - H17 C17 D17 D18 C16 B18 B17 C18 M17 P13 O15 N16 P16 N18 N14 Q11
 E18 -> 36.72 - E18 F18 E17 F15 J16 H14 M17 P13 M15 R13 S13
 E17 -> 37.42 - E17 F16 H17 E14 D14 E13 H15 D11
 L4 -> 39.3 - L4 L3 J4 H4 K4 H2 H5 G4 D6
 D18 -> 39.47 - D18 J16 L4 L3 J4 H4
 M5 -> 39.47 - M5 C17 D17 C16 D15 D18 E18 C18 E17 B14 C14 B13 B12
 L5 -> 38.19 - L5 C17 D17 C16 D15 D18 E18
 S7 -> 40.39 - S7 C17 D17 C16 D15 D18 E18 C18


 
--- Top-20 mistake (most impact) ---
move 30, lost 2.3999999999999986% winrate. winrate: 39.76
 play white K16
 Alternatives: 
  H17 C17 D17 D18 C16 B18 B17 C18 M17 P13 O15 N16 P16 N18 N14 Q11 -> 36.61 (for white)
  E18 F18 E17 F15 J16 H14 M17 P13 M15 R13 S13 -> 36.72 (for white)
  E17 F16 H17 E14 D14 E13 H15 D11 -> 37.42 (for white)
  L4 L3 J4 H4 K4 H2 H5 G4 D6 -> 39.3 (for white)
  D18 J16 L4 L3 J4 H4 -> 39.47 (for white)
  M5 C17 D17 C16 D15 D18 E18 C18 E17 B14 C14 B13 B12 -> 39.47 (for white)
  L5 C17 D17 C16 D15 D18 E18 -> 38.19 (for white)
  S7 C17 D17 C16 D15 D18 E18 C18 -> 40.39 (for white)]LB[hc:A][eb:B][ec:C][kp:D][db:E][lo:F][ko:G][rm:H]W[jd]WL[23.923];B[db]BL[32.192]C[Winrate Black:  41.10%
|#############___________________|


 Leela's Suggestions: C17 D17 D18 C16 B18 B17 C18 G17 G16 F18 E18 G18 H16 J17 B16 B15 A17


 Alternatives: 
 C17 -> 40.25 - C17 D17 D18 C16 B18 B17 C18 G17 G16 F18 E18 H18 H16 J17 B16 B15
 D17 -> 41.17 - D17 C17 C18 E17 D18 E16 C16 B17 B16 B18 B19 E18 A18 M17 G15 O17 N16
 D18 -> 40.66 - D18 C17 H17 L4 L3 J4 H4 K4 H2 H5 G4
 G4 -> 37.74 - G4 F4 C17 D17 D18 E18
 E14 -> 38.18 - E14 C15 D18 H17 C17 E17
 H17 -> 37.03 - H17 E17 F16 D14 P14 K14
 P14 -> 36.15 - P14 E17 F16 H17
 Q12 -> 37.56 - Q12 Q11 R13 Q13 P12
 P13 -> 34.85 - P13 O15 R13 S13
 M6 -> 36.13 - M6 E17 F16 D14
]LB[cc:A][dc:B][db:C][gp:D][ef:E][hc:F][of:G][ph:H][og:J][ln:K];C[Winrate Black:  40.10%
|############____________________|


 Leela's Suggestions: C17 H17 L4 L3 J4 H4 K4 H3 H5 M4 J5 M6 G4 P14 P12 O7


 Alternatives: 
 C17 -> 40.45 - C17 H17 L4 L3 J4 H4 K4 H3 H5 M4 J5 M6 G4 P14 P12 O7
 G17 -> 40.23 - G17 G16 H17 C16 C15 C17 F16 B15 L4 L3 J4 H4 K4 H2 H5
 L4 -> 40.7 - L4 L3 J4 H4 K4 H2 H5 G4 D6 D7 E7 D8
 S7 -> 40.39 - S7 C16 C15 C17 S3 P2 O2
 L5 -> 41.05 - L5 K4 H4 H3
 M5 -> 42.15 - M5 C16 C15 C17
 D8 -> 42.14 - D8 
]LB[cc:A][gc:B][kp:C][rm:D][ko:E][lo:F][dl:G]W[cc]WL[22.565];B[fe]BL[28.214]C[Winrate Black:  35.62%
|###########_____________________|


 Leela's Suggestions: H17 M5 L6 L4 L3 J4 H4 K4 H2 H5 G4 D6 D7 C5


 Alternatives: 
 H17 -> 40.54 - H17 M5 L6 L4 L3 J4 H4 K4 H2 H5 G4 D6 D7 C5
 H16 -> 40.02 - H16 L4 L3 J4 H4 K4 H2 H5 G4
 J17 -> 38.16 - J17 J16 H17 G16 F16 G15 F15
 E14 -> 35.53 - E14 H17 F15 D13 C18 B18 E13
 E15 -> 34.04 - E15 H17 H16 J16 H15 G17 F16 M17
 E16 -> 35.53 - E16 H17 D15 C15 D14


 
--- Top-7 mistake (most impact) ---
move 33, lost -4.479999999999997% winrate. winrate: 35.620000000000005
 play black F15
 Alternatives: 
  H17 M5 L6 L4 L3 J4 H4 K4 H2 H5 G4 D6 D7 C5 -> 40.54 (for black)
  H16 L4 L3 J4 H4 K4 H2 H5 G4 -> 40.02 (for black)
  J17 J16 H17 G16 F16 G15 F15 -> 38.16 (for black)
  E14 H17 F15 D13 C18 B18 E13 -> 35.53 (for black)
  E15 H17 H16 J16 H15 G17 F16 M17 -> 34.04 (for black)
  E16 H17 D15 C15 D14 -> 35.53 (for black)]LB[hc:A][hd:B][ic:C][ef:D][ee:E][ed:F];C[Winrate Black:  39.01%
|############____________________|


 Leela's Suggestions: H17 C18 B18 E14 D13 E13 D11 M17


 Alternatives: 
 H17 -> 35.42 - H17 C18 B18 E14 D13 E13 D11 M17
 G16 -> 33.86 - G16 G17 H16 E15 H17 C18 B18 H14 M17 N18
 P2 -> 33.39 - P2 Q2 Q4 R5 L4 L3 J4
 S7 -> 35.66 - S7 Q12 Q13 R11 Q11
 M5 -> 35.97 - M5 G4 D6 D7 C5
 M17 -> 37.5 - M17 J17 G16 F16 J16 H17
 L4 -> 36.02 - L4 L3 J4 H4 H5
 D6 -> 36.4 - D6 C7 H17 C18 B18 E14 D14 D12
 D3 -> 36.19 - D3 D7 H17 C18 C10


 
--- Top-15 mistake (most impact) ---
move 34, lost 3.3899999999999935% winrate. winrate: 39.01
 play white H16
 Alternatives: 
  H17 C18 B18 E14 D13 E13 D11 M17 -> 35.42 (for white)
  G16 G17 H16 E15 H17 C18 B18 H14 M17 N18 -> 33.86 (for white)
  P2 Q2 Q4 R5 L4 L3 J4 -> 33.39 (for white)
  S7 Q12 Q13 R11 Q11 -> 35.66 (for white)
  M5 G4 D6 D7 C5 -> 35.97 (for white)
  M17 J17 G16 F16 J16 H17 -> 37.5 (for white)
  L4 L3 J4 H4 H5 -> 36.02 (for white)
  D6 C7 H17 C18 B18 E14 D14 D12 -> 36.4 (for white)
  D3 D7 H17 C18 C10 -> 36.19 (for white)]LB[hc:A][gd:B][or:C][rm:D][lo:E][lc:F][kp:G][dn:H][dq:J]W[hd]WL[20.44];B[hb]BL[17.833]C[Winrate Black:  39.50%
|############____________________|


 Leela's Suggestions: H18 E17 E18 G17 E16 G18 D15 C15 D17 C16


 Alternatives: 
 C18 -> 41.51 - C18 G17 G16 F18 G18 H17 E18 C10 C15 D15 B17
 H18 -> 38.84 - H18 E17 E18 G17 E16 G18 D15 C15 D17 C16
 E14 -> 38.21 - E14 D12 H18 L4 L3 J4 H4 H5
 M6 -> 35.39 - M6 G17 F18 M17 C18 O17 Q16 P15
 G4 -> 38.17 - G4 F4 H18 G5 M6 S7 P14
 D13 -> 38.33 - D13 D12 C14 D14 E13
 P13 -> 32.89 - P13 O15 R13 S13 R14
 Q12 -> 35.52 - Q12 Q11 R13 Q13
 P14 -> 33.68 - P14 G17 F18 M17 Q12 R13
]LB[cb:A][hb:B][ef:C][ln:D][gp:E][dg:F][og:G][ph:H][of:J];C[Winrate Black:  41.38%
|#############___________________|


 Leela's Suggestions: P2 Q2 Q4 S3 L4 L3 J4 H4 K4 H2 H5 G4 D6 D7


 Alternatives: 
 P2 -> 37.45 - P2 Q2 Q4 S3 L4 L3 J4 H4 K4 H2 H5 G4 D6 D7
 G17 -> 37.63 - G17 G16 H17 G18 J18 H15 M17 K15 L15 J15 L16
 L4 -> 41.15 - L4 L3 J4 H4 K4 H3 H5 M4 H6 M6 J7 K6
 S7 -> 38.62 - S7 P14 J13 Q12 Q13 P13 Q14
 E17 -> 41.29 - E17 E18 G17 G16 F18 F16 H17 G18 J18 C18 C10 C15
 N15 -> 40.54 - N15 P14 N16 P15 Q13 P13 N13 Q11 R11 Q10 R10 Q14 R14
 M5 -> 39.63 - M5 L6 L4 L3 J4 H4 K4 H2 H5
 J4 -> 38.26 - J4 H4 H5 J5 K4 K3 L4 M4 H3
 M17 -> 38.81 - M17 P14 O17 P16 J18 H17 J17
 D6 -> 38.95 - D6 C7 L4 L3 J4 H4 K4 H2
 D3 -> 39.71 - D3 P14 J13 M6 S7 Q12
 L6 -> 38.61 - L6 G4 F4 G5 D7 C7
 O14 -> 39.07 - O14 M6 S7 N9 M17 M16
 L5 -> 41.15 - L5 K4 H4 H3 G4 K5 D3 D7
 G14 -> 40.18 - G14 F14 G13 C18 L4 L3 J4 H4 H5
 M4 -> 41.6 - M4 L4 L5 K4 M5 N3 P2
 C18 -> 42.38 - C18 D13 D12 C14 D14
]LB[or:A][gc:B][kp:C][rm:D][ec:E][me:F][lo:G][ip:H][lc:J][dn:K][dq:L][kn:M][nf:N][ko:O][gf:P][lp:Q][cb:R]W[cj]WL[17.488];B[ic]BL[16.073]C[Winrate Black:  39.34%
|############____________________|


 Leela's Suggestions: P14 J13 M6 S7 Q12 R13 Q10 Q13 O12


 Alternatives: 
 P14 -> 42.86 - P14 J13 M6 S7 Q12 R13 Q10 Q13 O12
 E14 -> 42.48 - E14 D14 D12 C12 P14 G14 R10 Q13 S7
 M6 -> 41.12 - M6 S7 P14 J13 Q12 R13 Q10 Q13 O12
 D11 -> 41.78 - D11 D10 F11 J13 M6 S7
 P13 -> 39.49 - P13 O15 N15 O14 M14 N12 M12 N11
 G4 -> 41.55 - G4 D6 D7 C5 B5 C7
 D13 -> 42.3 - D13 D14 C12 E14 B13
 N6 -> 40.71 - N6 S7 Q11 R11 P14
 Q11 -> 41.32 - Q11 Q12 O11 M5 M7 L7
 S7 -> 37.58 - S7 R9 P14 L4 L3 J4
 Q12 -> 40.2 - Q12 Q11 R13 Q13 P12 P13 R11


 
--- Top-16 mistake (most impact) ---
move 37, lost -2.039999999999999% winrate. winrate: 39.34
 play black J17
 Alternatives: 
  P14 J13 M6 S7 Q12 R13 Q10 Q13 O12 -> 42.86 (for black)
  E14 D14 D12 C12 P14 G14 R10 Q13 S7 -> 42.48 (for black)
  M6 S7 P14 J13 Q12 R13 Q10 Q13 O12 -> 41.12 (for black)
  D11 D10 F11 J13 M6 S7 -> 41.78 (for black)
  P13 O15 N15 O14 M14 N12 M12 N11 -> 39.49 (for black)
  G4 D6 D7 C5 B5 C7 -> 41.55 (for black)
  D13 D14 C12 E14 B13 -> 42.3 (for black)
  N6 S7 Q11 R11 P14 -> 40.71 (for black)
  Q11 Q12 O11 M5 M7 L7 -> 41.32 (for black)
  S7 R9 P14 L4 L3 J4 -> 37.58 (for black)
  Q12 Q11 R13 Q13 P12 P13 R11 -> 40.2 (for black)]LB[of:A][ef:B][ln:C][di:D][og:E][gp:F][dg:G][mn:H][pi:J][rm:K][ph:L];C[Winrate Black:  37.43%
|###########_____________________|


 Leela's Suggestions: J16 P14 G17 G18 E17 G16 E18 F18 J13 D13 D14 E14


 Alternatives: 
 J16 -> 37.89 - J16 D13 D14 C12 D12 E13 B12 C14
 G17 -> 35.45 - G17 G18 E17 E16 F18 F16 E18 D15 D17 J16 J15 K15 H15
 L4 -> 41.32 - L4 L3 J4 H4 K4 H2 H5 G4 D6 C7 M4 G5
 E17 -> 38.06 - E17 E16 E18 F18 D17 P14 K14 D13 E14 C12
 M5 -> 39.25 - M5 P14 L13 L6 L4 L3
 D3 -> 40.16 - D3 P14 C4 B2 C2 B3 C7
 O14 -> 38.29 - O14 M6 S7 Q12 Q11 P12 R13 P14
 S7 -> 40.01 - S7 P14 K13 Q12 R13 Q11 R11
 L5 -> 39.14 - L5 P14 J5 H5 H4 K5
 C7 -> 38.36 - C7 D7 D6 C8 B7 B6 B8 D8
 K14 -> 38.69 - K14 P14 M5 L6 M6
 J4 -> 38.69 - J4 H4 H5 J5 K4 K3 L4
 N15 -> 39.89 - N15 P14 N16 P15 J16 L17
 O15 -> 44.37 - O15 N15 O14 N14 N13 M13 N12 M12
]LB[id:A][gc:B][kp:C][ec:D][lo:E][dq:F][nf:G][rm:H][ko:J][cm:K][jf:L][ip:M][me:N][ne:O]W[id]WL[15.838];B[kc]BL[12.937]C[Winrate Black:  34.60%
|###########_____________________|


 Leela's Suggestions: Q12 Q11 R13 Q13 P12 P13 R11 S12 O13 O14 O12 N14 R10 S13 P10


 Alternatives: 
 Q12 -> 40.18 - Q12 Q11 R13 Q13 P12 P13 R11 S12 O13 O14 O12 N14 R10 S13 P10
 D13 -> 37.96 - D13 G17 G18 E17 F16 E18 F18 D14 E14 D12 E13 C14 Q12 R11 P14
 G4 -> 38.75 - G4 F4 P14 C7 D7 D6
 P14 -> 33.27 - P14 G17 G18 E17 G16 E18 F18 J13 D13 D14 E14 D12
 M6 -> 36.73 - M6 S7 P14 P12 E14 D15
 P13 -> 35.87 - P13 O15 N15 O14 M14 N12 M12 N11
 E14 -> 35.21 - E14 G17 G18 E17 G16 E18 F18 D13 P14 K13
 E16 -> 37.8 - E16 D17 C18 N15 P14 N16
 N6 -> 38.56 - N6 S7 E14 D14 D12 E13
 D11 -> 37.18 - D11 C11 E14 D15 D12 D13 E13 E17


 
--- Top-11 mistake (most impact) ---
move 39, lost -2.8300000000000054% winrate. winrate: 34.599999999999994
 play black L17
 Alternatives: 
  Q12 Q11 R13 Q13 P12 P13 R11 S12 O13 O14 O12 N14 R10 S13 P10 -> 40.18 (for black)
  D13 G17 G18 E17 F16 E18 F18 D14 E14 D12 E13 C14 Q12 R11 P14 -> 37.96 (for black)
  G4 F4 P14 C7 D7 D6 -> 38.75 (for black)
  P14 G17 G18 E17 G16 E18 F18 J13 D13 D14 E14 D12 -> 33.27 (for black)
  M6 S7 P14 P12 E14 D15 -> 36.73 (for black)
  P13 O15 N15 O14 M14 N12 M12 N11 -> 35.87 (for black)
  E14 G17 G18 E17 G16 E18 F18 D13 P14 K13 -> 35.21 (for black)
  E16 D17 C18 N15 P14 N16 -> 37.8 (for black)
  N6 S7 E14 D14 D12 E13 -> 38.56 (for black)
  D11 C11 E14 D15 D12 D13 E13 E17 -> 37.18 (for black)]LB[ph:A][dg:B][gp:C][of:D][ln:E][og:F][ef:G][ed:H][mn:J][di:K];C[Winrate Black:  34.73%
|###########_____________________|


 Leela's Suggestions: G17 F18 M15 P14 M17 L16 L15 M16 K17 K18 N16


 Alternatives: 
 G17 -> 31.989999999999995 - G17 F18 M15 P14 M17 L16 L15 M16 K17 K18 N16 L18
 C7 -> 33.28 - C7 D7 D6 B6 C8 M6 S7 E14
 M15 -> 35.61 - M15 P14 L4 L3 J4 H4 K4 H2
 S7 -> 35.33 - S7 P14 L16 M17 K12 M6 H17
 H17 -> 33.78 - H17 J18 G17 E16 G18 D15 C15 D14 C14 D17 C16
 L4 -> 35.91 - L4 L3 J4 H4 K4 H2 H5 G4 D6 C7
 L16 -> 34.0 - L16 M17 H17 J18 G17 F18 L4 L3 J4
 L5 -> 35.849999999999994 - L5 K4 H4 H3 G4 K5 S7
 M5 -> 35.43000000000001 - M5 G4 F4 G5 D3
 E17 -> 42.57 - E17 E16 E18 F18 E15 F16 D17 P14
 K17 -> 34.760000000000005 - K17 K18 H17 J18 G17 E16
 D3 -> 36.57 - D3 M6 S7 P14
 M4 -> 37.2 - M4 L4 L5 K4
]LB[gc:A][cm:B][le:C][rm:D][hc:E][kp:F][kd:G][ko:H][lo:J][ec:K][jc:L][dq:M][lp:N]W[hg]WL[13.243];B[ef]BL[9.066]C[Winrate Black:  32.91%
|##########______________________|


 Leela's Suggestions: M6 S7 P14 M15 Q12 Q13 R11


 Alternatives: 
 M6 -> 35.04 - M6 S7 P14 M15 Q12 Q13 R11
 D13 -> 37.02 - D13 C14 M6 S7 D12 C12 P13 Q13
 E14 -> 34.11 - E14 G17 F18 D15 M6 M15 P14
 P13 -> 34.72 - P13 O15 R13 S13 R14 S14 N15 O14 M6 S7 N12
 P14 -> 35.45 - P14 P12 M6 S7 E14 D14 D12
 G4 -> 35.13 - G4 D6 D7 C5 B5 C7
 S7 -> 34.26 - S7 R9 M6 D3 C8 M15 O14 M17 L16 L15
 M5 -> 35.22 - M5 S7 Q12 Q11 R13 Q13 P12
 D9 -> 34.06 - D9 D3 C9 D6 C5 D7 B9
 Q11 -> 34.95 - Q11 Q12 O11 M5 R11 P11 P10
 D3 -> 33.88 - D3 L4 L3 J4 H4 K4 H3
 Q12 -> 34.78 - Q12 Q11 R13 Q13 P12 R11
 D11 -> 34.45 - D11 D10 F11 E10 M6
]LB[ln:A][dg:B][ef:C][og:D][of:E][gp:F][rm:G][lo:H][dk:J][pi:K][dq:L][ph:M][di:N];C[Winrate Black:  41.69%
|#############___________________|


 Leela's Suggestions: G17 F18 D15 D11 C11 D12 D13 E13 M15 D10 C9 D9


 Alternatives: 
 G17 -> 30.099999999999994 - G17 F18 D15 D11 C11 D12 D13 E13 M15 D10 C9 D9
 L4 -> 36.1 - L4 L3 J4 H4 K4 H3 H5 M4 J5
 E17 -> 32.86 - E17 E16 E18 F18 D17 C14 B14 D13 C12 P14
 D15 -> 33.33 - D15 M6 G17 G16 H17 G18
 M15 -> 34.480000000000004 - M15 M6 S7 O14 M17 L16 L15 M16
 C7 -> 33.47 - C7 D6 B6 B5 B8 D3 D7
 S7 -> 34.69 - S7 P14 G17 G18 E17 G16
 D13 -> 37.65 - D13 M6 S7 Q2 O14 N9
 H17 -> 33.31 - H17 J18 G17 F18 D15 D11 D10 F11
 L6 -> 33.31 - L6 C14 B14 C15 B15 P13 L4 L3
 L5 -> 34.629999999999995 - L5 C14 B14 C15 B15 G4 D6
 D14 -> 40.5 - D14 D12 E13 D13 C12
 D3 -> 36.33 - D3 M6 D15 C8


 
--- Top-6 mistake (most impact) ---
move 42, lost 8.780000000000001% winrate. winrate: 41.69
 play white C18
 Alternatives: 
  G17 F18 D15 D11 C11 D12 D13 E13 M15 D10 C9 D9 -> 30.099999999999994 (for white)
  L4 L3 J4 H4 K4 H3 H5 M4 J5 -> 36.1 (for white)
  E17 E16 E18 F18 D17 C14 B14 D13 C12 P14 -> 32.86 (for white)
  D15 M6 G17 G16 H17 G18 -> 33.33 (for white)
  M15 M6 S7 O14 M17 L16 L15 M16 -> 34.480000000000004 (for white)
  C7 D6 B6 B5 B8 D3 D7 -> 33.47 (for white)
  S7 P14 G17 G18 E17 G16 -> 34.69 (for white)
  D13 M6 S7 Q2 O14 N9 -> 37.65 (for white)
  H17 J18 G17 F18 D15 D11 D10 F11 -> 33.31 (for white)
  L6 C14 B14 C15 B15 P13 L4 L3 -> 33.31 (for white)
  L5 C14 B14 C15 B15 G4 D6 -> 34.629999999999995 (for white)
  D14 D12 E13 D13 C12 -> 40.5 (for white)
  D3 M6 D15 C8 -> 36.33 (for white)]LB[gc:A][kp:B][ec:C][de:D][le:E][cm:F][rm:G][dg:H][hc:J][kn:K][ko:L][df:M][dq:N]W[cb]WL[6.19];B[nf]BL[4.053]C[Winrate Black:  41.06%
|#############___________________|


 Leela's Suggestions: M6 S7 P14 P12 C14 B14 D13 C12 O12


 Alternatives: 
 M6 -> 42.51 - M6 S7 P14 P12 C14 B14 D13 C12 O12
 C14 -> 41.33 - C14 B14 D13 C12 M6 S7 P14 M15 Q12
 P13 -> 42.35 - P13 Q11 R13 S13 R14 S14 P14 L4
 G4 -> 42.22 - G4 D6 C7 D7 C14 B14 D8 C8
 P14 -> 42.65 - P14 M15 C14 B14 M6 S7 Q12
 Q12 -> 43.58 - Q12 Q11 R13 Q13 P12 P13 R11 S12 Q10 P11
 D11 -> 41.88 - D11 M15 O14 M17 L16 L15 M16
 N6 -> 42.23 - N6 M15 C14 B14 D13 C12 Q11 R11 Q9
 Q11 -> 43.1 - Q11 Q12 O11 M5 C14 B14 D13
 M15 -> 42.52 - M15 L4 L3 J4 H4 H5
 M5 -> 41.34 - M5 M15 C14 B14
]LB[ln:A][cf:B][og:C][gp:D][of:E][ph:F][di:G][mn:H][pi:J][le:K][lo:L];C[Winrate Black:  42.21%
|#############___________________|


 Leela's Suggestions: N15 O15 M13 M6 S7 Q2 D3 Q10 S10 C8


 Alternatives: 
 N15 -> 39.61 - N15 O15 M13 M6 S7 Q2 D3 Q10 S10 C8
 H17 -> 38.2 - H17 J18 G17 F18 D15 D11 N15 O15 F16
 M5 -> 41.15 - M5 C14 B14 Q12 R13 Q10 S10 L6 N15
 S7 -> 41.82 - S7 Q12 Q13 R11 P13 S12 R13
 M15 -> 41.32 - M15 C14 B14 Q12 Q11 R13
 L4 -> 41.74 - L4 L3 J4 H4 K4 H2 H5 G4 D6
 G17 -> 40.58 - G17 G18 E17 F16 E18 F18 N15 O15 M13
 D3 -> 41.78 - D3 C8 D7 D6 E6 D8 M5
 L5 -> 41.9 - L5 K4 H4 H3 G4 K5 D3
 D13 -> 43.43 - D13 M6 S7 Q12 R13 Q10
 K17 -> 41.69 - K17 K18 H17 J18 L16 M17 G17 F18 D15 M6
 C7 -> 40.31 - C7 D6 B6 B5 B7 D3
 E17 -> 44.24 - E17 G17
]LB[me:A][hc:B][lo:C][rm:D][le:E][kp:F][gc:G][dq:H][ko:J][dg:K][jc:L][cm:M][ec:N]W[rm]WL[2.812];B[pg]BL[10]C[Winrate Black:  38.12%
|############____________________|


 Leela's Suggestions: Q12 R13 Q10 M4 L4 L5 K4 N3 M5 N4


 Alternatives: 
 Q12 -> 44.27 - Q12 R13 Q10 M4 L4 L5 K4 N3 M5 N4
 C14 -> 41.15 - C14 B14 Q12 Q13 R11 P13 S12 R13 P11 N15 O15
 Q2 -> 40.56 - Q2 M15 M13 M17 L16 L15
 P2 -> 39.72 - P2 O2 Q2 N3 M2 M4 L4 L5 K4 M5 C14 B14 D13
 G4 -> 41.77 - G4 D6 D7 C5 B5
 D11 -> 40.8 - D11 D13 C11 E9 F11 H11
 K13 -> 42.33 - K13 H11 K11 N15 P14 P12
 M6 -> 40.36 - M6 N15 O15 D3 Q10
 P13 -> 35.63 - P13 Q12 C14 B14 C15 B15 K13 H11


 
--- Top-9 mistake (most impact) ---
move 45, lost -4.090000000000003% winrate. winrate: 38.12
 play black Q13
 Alternatives: 
  Q12 R13 Q10 M4 L4 L5 K4 N3 M5 N4 -> 44.27 (for black)
  C14 B14 Q12 Q13 R11 P13 S12 R13 P11 N15 O15 -> 41.15 (for black)
  Q2 M15 M13 M17 L16 L15 -> 40.56 (for black)
  P2 O2 Q2 N3 M2 M4 L4 L5 K4 M5 C14 B14 D13 -> 39.72 (for black)
  G4 D6 D7 C5 B5 -> 41.77 (for black)
  D11 D13 C11 E9 F11 H11 -> 40.8 (for black)
  K13 H11 K11 N15 P14 P12 -> 42.33 (for black)
  M6 N15 O15 D3 Q10 -> 40.36 (for black)
  P13 Q12 C14 B14 C15 B15 K13 H11 -> 35.63 (for black)]LB[ph:A][cf:B][pr:C][or:D][gp:E][di:F][jg:G][ln:H][og:J]OB[5];C[Winrate Black:  37.07%
|###########_____________________|


 Leela's Suggestions: R13 C14 B14 D13 C12 K13 H11 K11 L16 M17


 Alternatives: 
 R13 -> 37.2 - R13 C14 B14 D13 C12 K13 H11 K11 L16 M17
 Q12 -> 43.73 - Q12 P12 R13 C14 B14
 N15 -> 42.26 - N15 O15 R13 C14 B14
]LB[qg:A][ph:B][me:C]OW[5]W[qg]WL[10];B[pf]BL[10]C[Winrate Black:  37.71%
|############____________________|


 Leela's Suggestions: C14 B14 K13 H11 K11 N15 Q14 R14 P15 L16 M17 H17 J18


 Alternatives: 
 C14 -> 36.78 - C14 B14 K13 H11 K11 N15 Q14 R14 P15 L16 M17 H17 J18
 K13 -> 38.48 - K13 H11 K11 N15 Q14 R14 P15 L16 M17 M13 M11 J9
 D11 -> 38.37 - D11 N15 Q14 R14 P15 L4 L3 J4 H4 H5 K4
 Q14 -> 36.85 - Q14 R14 C14 B14 C15 B15 K13 H11 K11 F13 P11
 P11 -> 38.27 - P11 N15 Q14 R14 P15 M13 Q10 M5 P2
 P2 -> 36.33 - P2 O2 Q2 N3 M2 M4 L4 L5 M5 N4
 Q2 -> 36.01 - Q2 N15 Q14 R14 P15 C7 D7
 H11 -> 37.69 - H11 K12 K11 L11 K10 N15 Q14
 G4 -> 36.32 - G4 F4 C14 B14 G5 D3 C2
 M6 -> 36.67 - M6 N15 Q14 R14 P15 D3 C8 D7
 D10 -> 36.96 - D10 D9 C11 D11 E10 B11 C9 C12
 J11 -> 37.66 - J11 N15 Q14 R14 P15 K12 K11
 D3 -> 35.7 - D3 L4 L3 J4 H4 H5 K4
 Q12 -> 34.42 - Q12 Q11 P11 Q10 C14 B14 D13 C12
]LB[cf:A][jg:B][di:C][pf:D][oi:E][or:F][pr:G][hi:H][gp:J][ln:K][dj:L][ii:M][dq:N][ph:O]OB[5];C[Winrate Black:  36.89%
|###########_____________________|


 Leela's Suggestions: R14 C14 B14 K13 H11 K11 H9 P11 L4 L3


 Alternatives: 
 R14 -> 37.1 - R14 C14 B14 K13 H11 K11 H9 P11 L4 L3
 G17 -> 100.0 - G17 
]LB[qf:A][gc:B]OW[5]W[qf]WL[10];B[oi]BL[10]C[Winrate Black:  38.90%
|############____________________|


 Leela's Suggestions: C14 B14 P11 L4 L3 J4 H4 H5 K4 J5


 Alternatives: 
 C14 -> 36.76 - C14 B14 P11 L4 L3 J4 H4 H5 K4 J5
 H11 -> 38.57 - H11 K12 K11 L11 K10 L12 L10 D3 C14 B14 N10
 D11 -> 37.69 - D11 D13 C11 D7 D6 E6 C7 D8 C8
 P11 -> 38.1 - P11 K12 Q10 M5 S10 S11 P2
 P2 -> 36.29 - P2 O2 Q2 N3 M2 M4 L4 L5 K4 M5 C14 B14 D13 C12 D11
 K13 -> 37.43 - K13 H11 K11 L16 M17 H17 J18 G17 F18 D15 F16 J13 K14
 G4 -> 36.38 - G4 F4 G5 D7 C7 D8 C14 B14 D13 C15 C8
 Q2 -> 36.44 - Q2 C7 D7 D6 C8 B7 B6
 J11 -> 37.11 - J11 G12 C14 B14 G10 E12 D13 C12 K13 D3 P11
 D3 -> 35.28 - D3 D6 C7 D7 D8 C5 B5 C8
 P10 -> 37.44 - P10 N15 P15 Q12 O11 P13
 K12 -> 34.25 - K12 H11 C14 B14 D13 C12 D11
 D10 -> 35.72 - D10 D9 C11 D11 E10 B11 C9
 E2 -> 33.68 - E2 L4 L3 J4 H4 H5
]LB[cf:A][hi:B][di:C][oi:D][or:E][jg:F][gp:G][pr:H][ii:J][dq:K][oj:L][jh:M][dj:N][er:O]OB[5];C[Winrate Black:  36.32%
|###########_____________________|


 Leela's Suggestions: K12 Q10 M5 S10 S11 P2 O2 Q2


 Alternatives: 
 K12 -> 38.27 - K12 Q10 M5 S10 S11 P2 O2 Q2
 L16 -> 37.02 - L16 M17 H17 J18 G17 F18 D15 Q10 O13 N13 O12 P14
 S3 -> 38.96 - S3 Q2 S4 R5 P2 S2 R3 R2 Q4 T3 Q5 T4 T6 S5
 H17 -> 35.769999999999996 - H17 J18 G17 F18 D15 Q10 O13 N13 O12 P14 Q12 P12
 G17 -> 37.63 - G17 G18 E17 F16 E18 F18 L16 M17 K12
 L12 -> 39.07 - L12 Q10 O13 N13 O12 P14 N12 N10 M4
 P2 -> 39.35 - P2 Q2 Q4 S3 R2 R3 Q1 S1 D3
 C7 -> 37.99 - C7 D6 B6 B5 B7 D7
 M13 -> 37.66 - M13 Q10 O13 N12 N13 L11 Q12 P12
 L4 -> 39.04 - L4 L3 J4 H4 K4 H2 H5 G4
 O13 -> 39.51 - O13 N13 O12 P14 L12 Q10 N12
 D3 -> 40.38 - D3 Q10 S10 C14 B14 K13 H11
 N15 -> 39.36 - N15 P15 M13 Q10 M5 P2
 D6 -> 39.01 - D6 C7 S3 Q2
 K17 -> 37.85 - K17 K18 H17 J18 L16 M17
 Q2 -> 38.82 - Q2 R2 O2 Q1 P2 R5 L4
 H11 -> 39.48 - H11 Q10 M5 Q2 P2 G4
 M5 -> 39.27 - M5 C14 B14 D13 C12
 J11 -> 39.76 - J11 Q10 M5 S10 O13
 P12 -> 41.42 - P12 O12 Q12 C14
 M4 -> 41.76 - M4 L4 L5 K4 D3
 D13 -> 43.46 - D13 Q10 O13 N13
]LB[jh:A][kd:B][rq:C][hc:D][gc:E][kh:F][or:G][cm:H][lg:J][kp:K][ng:L][dq:M][me:N][dn:O][jc:P][pr:Q][hi:R][lo:S][ii:T]OW[5]W[kd]WL[10];B[lc]BL[10]C[Winrate Black:  36.41%
|###########_____________________|


 Leela's Suggestions: M17 H17 J18 G17 F18 D15 Q10 M5 S10 S11 P2 O2


 Alternatives: 
 M17 -> 36.6 - M17 H17 J18 G17 F18 D15 Q10 M5 S10 S11 P2 O2
 C14 -> 38.08 - C14 B14 M17 H17 J18 D3 Q10 O13 N13 O12
 Q10 -> 36.18 - Q10 K17 K18 M17 L18 N15 N14 H17 J18
]LB[lc:A][cf:B][pj:C]OB[5];C[Winrate Black:  39.45%
|############____________________|


 Leela's Suggestions: C7 D7 D6 C8 B7 B6 B8 D8 C9 F8 D3 C2 H7 C14 B14


 Alternatives: 
 C7 -> 34.349999999999994 - C7 D7 D6 C8 B7 B6 B8 D8 C9 F8 D3 C2 H7 C14 B14 D13
 H17 -> 36.08 - H17 J18 G17 F18 D15 D12 D13 E13 E12 F12 E11 F11 E10 F10
 J4 -> 35.269999999999996 - J4 H4 H5 J5 K4 H3 K3 L5 K2 G5 H6
 L4 -> 37.24 - L4 L3 J4 H4 H5 K4 J5 K5 H3 Q10 J2
 L12 -> 38.12 - L12 Q10 O13 N13 O12 M11 N14 P14
 P2 -> 36.66 - P2 Q2 Q4 S3 R2 R3 Q1 S1 L4
 G17 -> 39.78 - G17 F18 D15 Q10 F16 E16 G16 E15
 D3 -> 39.01 - D3 Q10 M4 N4 N5 N3
 K17 -> 36.74 - K17 K18 H17 J18 G17 F18 D15 Q10 S10 D12 D13
 J11 -> 37.6 - J11 Q10 O13 N13 O12 P14 N12 M13
 K12 -> 38.43 - K12 Q10 O13 N13 O12 P14 N12
 O13 -> 37.44 - O13 N13 O12 P14 L12 Q10 N12
 Q4 -> 37.42 - Q4 R2 Q2 R3 O2 C14
 S3 -> 40.72 - S3 Q2 S4 R5 P2 S2 T2 R3
 Q2 -> 39.99 - Q2 R2 O2 Q1 P2 R5
 H11 -> 38.96 - H11 Q10 M5 S10 S11
 M5 -> 36.75 - M5 C14 B14 C15 B15
 M4 -> 38.56 - M4 L4 L5 K4 N3
 E17 -> 40.62 - E17 G17 L12 Q10 O13
 D13 -> 41.15 - D13 Q10 O13 N13 O12


 
--- Top-17 mistake (most impact) ---
move 52, lost 3.0400000000000063% winrate. winrate: 39.45
 play white E17
 Alternatives: 
  C7 D7 D6 C8 B7 B6 B8 D8 C9 F8 D3 C2 H7 C14 B14 D13 -> 34.349999999999994 (for white)
  H17 J18 G17 F18 D15 D12 D13 E13 E12 F12 E11 F11 E10 F10 -> 36.08 (for white)
  J4 H4 H5 J5 K4 H3 K3 L5 K2 G5 H6 -> 35.269999999999996 (for white)
  L4 L3 J4 H4 H5 K4 J5 K5 H3 Q10 J2 -> 37.24 (for white)
  L12 Q10 O13 N13 O12 M11 N14 P14 -> 38.12 (for white)
  P2 Q2 Q4 S3 R2 R3 Q1 S1 L4 -> 36.66 (for white)
  G17 F18 D15 Q10 F16 E16 G16 E15 -> 39.78 (for white)
  D3 Q10 M4 N4 N5 N3 -> 39.01 (for white)
  K17 K18 H17 J18 G17 F18 D15 Q10 S10 D12 D13 -> 36.74 (for white)
  J11 Q10 O13 N13 O12 P14 N12 M13 -> 37.6 (for white)
  K12 Q10 O13 N13 O12 P14 N12 -> 38.43 (for white)
  O13 N13 O12 P14 L12 Q10 N12 -> 37.44 (for white)
  Q4 R2 Q2 R3 O2 C14 -> 37.42 (for white)
  S3 Q2 S4 R5 P2 S2 T2 R3 -> 40.72 (for white)
  Q2 R2 O2 Q1 P2 R5 -> 39.99 (for white)
  H11 Q10 M5 S10 S11 -> 38.96 (for white)
  M5 C14 B14 C15 B15 -> 36.75 (for white)
  M4 L4 L5 K4 N3 -> 38.56 (for white)
  E17 G17 L12 Q10 O13 -> 40.62 (for white)
  D13 Q10 O13 N13 O12 -> 41.15 (for white)]LB[cm:A][hc:B][ip:C][kp:D][kh:E][or:F][gc:G][dq:H][jc:J][ii:K][jh:L][ng:M][pp:N][rq:O][pr:P][hi:Q][lo:R][lp:S][ec:T]OW[5]W[ec]WL[10];B[gd]BL[10]C[Winrate Black:  29.80%
|#########_______________________|


 Leela's Suggestions: G17 K12 Q10 M5 P2 O2 Q2 N3 M2


 Alternatives: 
 G17 -> 40.91 - G17 L12 Q10 O13 N13 O12 M11 P14 P13
 F18 -> 37.12 - F18 H17 K17 C7 D7 D6 C8 B7 B6
 F16 -> 41.13 - F16 E18 F18 K12 Q10 S10 C14 D13
 E16 -> 37.63 - E16 D15 Q10 M5 S10 S11 P2
 E18 -> 34.92 - E18 G17 E16 D15 G18 E15 F16
 Q10 -> 32.01 - Q10 G17 S10 S11
 G16 -> 28.63 - G16 H17 J18
 G15 -> 32.0 - G15 H17 G18


 
--- Top-2 mistake (most impact) ---
move 53, lost -9.650000000000006% winrate. winrate: 29.799999999999997
 play black G16
 Alternatives: 
  G17 L12 Q10 O13 N13 O12 M11 P14 P13 -> 40.91 (for black)
  F18 H17 K17 C7 D7 D6 C8 B7 B6 -> 37.12 (for black)
  F16 E18 F18 K12 Q10 S10 C14 D13 -> 41.13 (for black)
  E16 D15 Q10 M5 S10 S11 P2 -> 37.63 (for black)
  E18 G17 E16 D15 G18 E15 F16 -> 34.92 (for black)
  Q10 G17 S10 S11 -> 32.01 (for black)
  G16 H17 J18 -> 28.63 (for black)
  G15 H17 G18 -> 32.0 (for black)]LB[gc:A][fb:B][fd:C][ed:D][eb:E][pj:F][gd:G][ge:H]OB[4];C[Winrate Black:  32.13%
|##########______________________|


 Leela's Suggestions: H17 J18 K12 Q10 F18 G17 E18 G18 M5 G4 D6


 Alternatives: 
 H17 -> 28.64 - H17 J18 K12 Q10 F18 G17 E18 G18 M5 G4 D6
 K12 -> 33.06999999999999 - K12 Q10 H17 J18 G17 F18 M5
 K17 -> 33.260000000000005 - K17 K18 H17 J18 G17 F18 K12 Q10
 G14 -> 38.49 - G14 C14 D13
 S3 -> 38.41 - S3 P2 O2
 L12 -> 39.48 - L12 Q10


 
--- Top-21 mistake (most impact) ---
move 54, lost 2.3300000000000054% winrate. winrate: 32.13
 play white K17
 Alternatives: 
  H17 J18 K12 Q10 F18 G17 E18 G18 M5 G4 D6 -> 28.64 (for white)
  K12 Q10 H17 J18 G17 F18 M5 -> 33.06999999999999 (for white)
  K17 K18 H17 J18 G17 F18 K12 Q10 -> 33.260000000000005 (for white)
  G14 C14 D13 -> 38.49 (for white)
  S3 P2 O2 -> 38.41 (for white)
  L12 Q10 -> 39.48 (for white)]LB[hc:A][jh:B][jc:C][gf:D][rq:E][kh:F]OW[5]W[jc]WL[10];B[jb]BL[10]C[Winrate Black:  32.66%
|##########______________________|


 Leela's Suggestions: K18 H17 J18 K12 Q10 O13 N13 O12 P14 N12 M13 M12 L13


 Alternatives: 
 K18 -> 33.19 - K18 H17 J18 K12 Q10 O13 N13 O12 P14 N12 N10 M13 S10
 C14 -> 29.29 - C14 B14 D13 C15 K18 H17 J18 G17
 H17 -> 29.48 - H17 K18 E18 D13 Q10 L12 S10 O13
 E18 -> 24.27 - E18 H17 J18 K18 G17 K12 C14
 H15 -> 26.6 - H15 H17 G18 K13 C14
]LB[jb:A][cf:B][hc:C][eb:D][he:E]OB[4];C[Winrate Black:  31.82%
|##########______________________|


 Leela's Suggestions: H17 J18 K12 Q10 S10 C14 B14 D3 L4 L3 J4 H4


 Alternatives: 
 H17 -> 32.22 - H17 J18 K12 Q10 S10 C14 B14 D3 L4 L3 J4 H4
 S3 -> 100.0 - S3 
]LB[hc:A][rq:B]OW[5]W[hc]WL[10];B[ib]BL[10]C[Winrate Black:  31.89%
|##########______________________|


 Leela's Suggestions: J18 K12 Q10 S10 C14 B14 D3 L4 L3 J4 H4 H5


 Alternatives: 
 J18 -> 32.15 - J18 K12 Q10 S10 C14 B14 D3 L4 L3 J4 H4 H5
 G18 -> 20.77 - G18 J18 J19 L18 K19 M16 N16 E18 Q10 S10 K13
]LB[ib:A][gb:B]OB[4];C[Winrate Black:  37.04%
|###########_____________________|


 Leela's Suggestions: C7 D7 D6 C8 C5 B7 B5 E6 E5 D5 C4 C14 B14 C15 B15


 Alternatives: 
 C7 -> 30.049999999999997 - C7 D7 D6 C8 C5 B7 B5 E6 E5 D5 C4 C14 B14 C15 B15
 K12 -> 30.879999999999995 - K12 Q10 S10 C14 B14 D3 L4 L3 J4 H4 H5
 G17 -> 38.11 - G17 F18 K12 Q10 O13 N13 O12 P14 N12 M13 M12
 F18 -> 35.19 - F18 G17 E18 Q10 K12 S10 G18 H15
 L4 -> 32.34 - L4 L3 J4 H4 H5 K4 J5 K5 H3 Q10
 J11 -> 31.620000000000005 - J11 C14 B14 Q10 M5 S10
 L12 -> 32.519999999999996 - L12 C14 B14 Q10 O13 N13
 D3 -> 33.510000000000005 - D3 C14 B14 D13 C12 K13 G14
 S3 -> 32.540000000000006 - S3 Q2 S4 R5 P2 S2 R3 R2 Q4 T3 Q5 T4
 H11 -> 32.19 - H11 Q10 O13 N13 O12 N10
 Q4 -> 32.56 - Q4 R2 Q2 R3 O2 C14
 H5 -> 32.94 - H5 J5 H4 J4 K12 Q10 S10 C14
 P2 -> 33.349999999999994 - P2 Q2 Q4 S3 L4 L3 J4
 D13 -> 33.349999999999994 - D13 Q10 S10 K13 G14
 J4 -> 34.879999999999995 - J4 H4 H5 J5 K4


 
--- Top-10 mistake (most impact) ---
move 58, lost 5.149999999999999% winrate. winrate: 37.04
 play white G17
 Alternatives: 
  C7 D7 D6 C8 C5 B7 B5 E6 E5 D5 C4 C14 B14 C15 B15 -> 30.049999999999997 (for white)
  K12 Q10 S10 C14 B14 D3 L4 L3 J4 H4 H5 -> 30.879999999999995 (for white)
  G17 F18 K12 Q10 O13 N13 O12 P14 N12 M13 M12 -> 38.11 (for white)
  F18 G17 E18 Q10 K12 S10 G18 H15 -> 35.19 (for white)
  L4 L3 J4 H4 H5 K4 J5 K5 H3 Q10 -> 32.34 (for white)
  J11 C14 B14 Q10 M5 S10 -> 31.620000000000005 (for white)
  L12 C14 B14 Q10 O13 N13 -> 32.519999999999996 (for white)
  D3 C14 B14 D13 C12 K13 G14 -> 33.510000000000005 (for white)
  S3 Q2 S4 R5 P2 S2 R3 R2 Q4 T3 Q5 T4 -> 32.540000000000006 (for white)
  H11 Q10 O13 N13 O12 N10 -> 32.19 (for white)
  Q4 R2 Q2 R3 O2 C14 -> 32.56 (for white)
  H5 J5 H4 J4 K12 Q10 S10 C14 -> 32.94 (for white)
  P2 Q2 Q4 S3 L4 L3 J4 -> 33.349999999999994 (for white)
  D13 Q10 S10 K13 G14 -> 33.349999999999994 (for white)
  J4 H4 H5 J5 K4 -> 34.879999999999995 (for white)]LB[cm:A][jh:B][gc:C][fb:D][kp:E][ii:F][kh:G][dq:H][rq:J][hi:K][pp:L][ho:M][or:N][dg:O][ip:P]OW[5]W[gc]WL[10];B[fb]BL[10]C[Winrate Black:  37.34%
|###########_____________________|


 Leela's Suggestions: F18 K12 Q10 O13 N13 O12 P14 N12 M13 M12 L13


 Alternatives: 
 F18 -> 37.4 - F18 K12 Q10 O13 N13 O12 P14 N12 M13 M12 L13
 G18 -> 17.68 - G18 F18 F16
]LB[fb:A][gb:B]OB[4];C[Winrate Black:  41.22%
|#############___________________|


 Leela's Suggestions: C7 D7 D6 C8 B7 B6 B8 D8 C9 F8 D3 C2 H7 C14 B14


 Alternatives: 
 C7 -> 35.58 - C7 D7 D6 C8 B7 B6 B8 D8 C9 F8 D3 C2 H7 C14 B14 D13
 K12 -> 36.66 - K12 Q10 O13 N13 O12 P14 N12 M13 M12 L12
 L12 -> 36.92 - L12 J11 L10 J13 H12 J12 G15 F16
 J4 -> 35.91 - J4 H3 L4 L3 H4 M4 K4 M6 M5 N5
 L4 -> 38.77 - L4 L3 J4 H4 H5 K4 J5 K5 H3 Q10 J2 K3 S10
 D3 -> 40.08 - D3 C14 B14 D13 C15 K13 H11 K11
 G18 -> 39.79 - G18 G19 K12 Q10 M5 S10 S11
 J11 -> 38.21 - J11 Q10 O13 N13 O12 P14 N12
 G15 -> 44.44 - G15 F16 G14 C14 B14 D13 C12 Q10
 S3 -> 40.96 - S3 P2 O2 Q2 N3 M2 S4 R5
 P2 -> 37.57 - P2 Q2 Q4 S3 R2 R3 Q1 S1
 H11 -> 40.34 - H11 C14 B14 D13 C15 Q10
 D13 -> 40.51 - D13 Q10 S10 K13 K12 L12
 E15 -> 40.89 - E15 Q10 O13 N13 O12 P14
 Q4 -> 42.09 - Q4 R2 Q2 R3 O2 C14
 H5 -> 41.06 - H5 J5 H4 J4 K12
 D6 -> 40.15 - D6 C7 D13 Q10
 D14 -> 44.69 - D14 Q10 O13 N13


 
--- Top-13 mistake (most impact) ---
move 60, lost 3.8799999999999955% winrate. winrate: 41.22
 play white G18
 Alternatives: 
  C7 D7 D6 C8 B7 B6 B8 D8 C9 F8 D3 C2 H7 C14 B14 D13 -> 35.58 (for white)
  K12 Q10 O13 N13 O12 P14 N12 M13 M12 L12 -> 36.66 (for white)
  L12 J11 L10 J13 H12 J12 G15 F16 -> 36.92 (for white)
  J4 H3 L4 L3 H4 M4 K4 M6 M5 N5 -> 35.91 (for white)
  L4 L3 J4 H4 H5 K4 J5 K5 H3 Q10 J2 K3 S10 -> 38.77 (for white)
  D3 C14 B14 D13 C15 K13 H11 K11 -> 40.08 (for white)
  G18 G19 K12 Q10 M5 S10 S11 -> 39.79 (for white)
  J11 Q10 O13 N13 O12 P14 N12 -> 38.21 (for white)
  G15 F16 G14 C14 B14 D13 C12 Q10 -> 44.44 (for white)
  S3 P2 O2 Q2 N3 M2 S4 R5 -> 40.96 (for white)
  P2 Q2 Q4 S3 R2 R3 Q1 S1 -> 37.57 (for white)
  H11 C14 B14 D13 C15 Q10 -> 40.34 (for white)
  D13 Q10 S10 K13 K12 L12 -> 40.51 (for white)
  E15 Q10 O13 N13 O12 P14 -> 40.89 (for white)
  Q4 R2 Q2 R3 O2 C14 -> 42.09 (for white)
  H5 J5 H4 J4 K12 -> 41.06 (for white)
  D6 C7 D13 Q10 -> 40.15 (for white)
  D14 Q10 O13 N13 -> 44.69 (for white)]LB[cm:A][jh:B][kh:C][ip:D][kp:E][dq:F][gb:G][ii:H][ge:J][rq:K][or:L][hi:M][dg:N][ee:O][pp:P][ho:Q][dn:R][df:S]OW[5]W[gb]WL[10];B[ga]BL[10]C[Winrate Black:  38.81%
|############____________________|


 Leela's Suggestions: H15 K14 G19 L12 C14 B14 D13 C12 Q10 O13 N13


 Alternatives: 
 H15 -> 43.7 - H15 K14 G19 L12 C14 B14 D13 C12 Q10 O13 N13 O12
 G19 -> 38.48 - G19 K12 Q10 M5 S10 S11 P2 O2
 C14 -> 39.52 - C14 B14 G19 D14 Q10 S10 K13 G14 J14
 D11 -> 39.08 - D11 D13 G19 F12 C8
 D12 -> 36.97 - D12 D13 E13 E12
 D13 -> 34.57 - D13 C14 D11


 
--- Top-12 mistake (most impact) ---
move 61, lost -2.4099999999999966% winrate. winrate: 38.81
 play black G19
 Alternatives: 
  H15 K14 G19 L12 C14 B14 D13 C12 Q10 O13 N13 O12 -> 43.7 (for black)
  G19 K12 Q10 M5 S10 S11 P2 O2 -> 38.48 (for black)
  C14 B14 G19 D14 Q10 S10 K13 G14 J14 -> 39.52 (for black)
  D11 D13 G19 F12 C8 -> 39.08 (for black)
  D12 D13 E13 E12 -> 36.97 (for black)
  D13 C14 D11 -> 34.57 (for black)]LB[he:A][ga:B][cf:C][di:D][dh:E][dg:F]OB[4];C[Winrate Black:  44.15%
|##############__________________|


 Leela's Suggestions: K12 Q10 O13 N13 O12 P14 N12 N10 Q12 P12 M13


 Alternatives: 
 K12 -> 37.27 - K12 Q10 O13 N13 O12 P14 N12 N10 Q12 P12 M13
 L12 -> 38.9 - L12 C14 B14 D13 C12 Q10 O13 N13 O12
 C7 -> 38.48 - C7 D7 D6 C8 B7 B6 B8 D8
 L4 -> 40.11 - L4 L3 J4 H4 K4 H2 H5 G4 D6
 D3 -> 40.26 - D3 C14 B14 D13 C12 Q10
 G15 -> 43.61 - G15 F16 D13 G14 K12 Q10 M5
 H19 -> 43.22 - H19 F19 L12 C14 B14
 E15 -> 39.59 - E15 F16 K12 Q10 O13 N13 O12
 P2 -> 39.88 - P2 Q2 Q4 S3 R2 R1 S1 Q1
 O13 -> 38.72 - O13 N13 O12 C14 B14
 D6 -> 40.23 - D6 C7 L12 P2 O2
 J11 -> 40.34 - J11 C14 B14 D13 C12
 S3 -> 41.07 - S3 Q2 S4 R5
 D13 -> 41.44 - D13 Q10 M5 S10 S11
 J4 -> 40.6 - J4 H4 H5 J5
 H11 -> 40.74 - H11 C14 B14 D13
 C5 -> 43.22 - C5 B5 D6 C7
 E18 -> 47.16 - E18 Q10


 
--- Top-8 mistake (most impact) ---
move 62, lost 5.339999999999996% winrate. winrate: 44.15
 play white G15
 Alternatives: 
  K12 Q10 O13 N13 O12 P14 N12 N10 Q12 P12 M13 -> 37.27 (for white)
  L12 C14 B14 D13 C12 Q10 O13 N13 O12 -> 38.9 (for white)
  C7 D7 D6 C8 B7 B6 B8 D8 -> 38.48 (for white)
  L4 L3 J4 H4 K4 H2 H5 G4 D6 -> 40.11 (for white)
  D3 C14 B14 D13 C12 Q10 -> 40.26 (for white)
  G15 F16 D13 G14 K12 Q10 M5 -> 43.61 (for white)
  H19 F19 L12 C14 B14 -> 43.22 (for white)
  E15 F16 K12 Q10 O13 N13 O12 -> 39.59 (for white)
  P2 Q2 Q4 S3 R2 R1 S1 Q1 -> 39.88 (for white)
  O13 N13 O12 C14 B14 -> 38.72 (for white)
  D6 C7 L12 P2 O2 -> 40.23 (for white)
  J11 C14 B14 D13 C12 -> 40.34 (for white)
  S3 Q2 S4 R5 -> 41.07 (for white)
  D13 Q10 M5 S10 S11 -> 41.44 (for white)
  J4 H4 H5 J5 -> 40.6 (for white)
  H11 C14 B14 D13 -> 40.74 (for white)
  C5 B5 D6 C7 -> 43.22 (for white)
  E18 Q10 -> 47.16 (for white)]LB[jh:A][kh:B][cm:C][kp:D][dq:E][ge:F][ha:G][ee:H][or:J][ng:K][dn:L][ii:M][rq:N][dg:O][ip:P][hi:Q][co:R][eb:S]OW[5]W[ge]WL[10];B[fd]BL[10]C[Winrate Black:  44.81%
|##############__________________|


 Leela's Suggestions: F16 D13 G14 K12 Q10 M5 S10 S11 Q2 P2


 Alternatives: 
 F16 -> 44.75 - F16 D13 G14 K12 Q10 M5 S10 S11 Q2 P2
 E16 -> 0.0 - E16 
]LB[fd:A][ed:B]OB[4];C[Winrate Black:  50.00%
|################________________|


 Leela's Suggestions: D13 G14 K12 Q10 M5 Q2 P2 S10 O13 N13


 Alternatives: 
 D13 -> 44.1 - D13 G14 K12 Q10 M5 Q2 P2 S10 O13 N13
 G14 -> 45.8 - G14 C14 B14 Q10 M5 S10 O13 N13
 L4 -> 45.18 - L4 L3 J4 H4 H5 K4 J5
 D3 -> 46.86 - D3 C14 B14 G14 K12
 C7 -> 48.43 - C7 D6 B6 B5
 P2 -> 47.59 - P2 Q2 Q4 S3 R2
 H19 -> 50.36 - H19 F19 G14
 D14 -> 49.38 - D14 G14 K12 Q10


 
--- Top-9 mistake (most impact) ---
move 64, lost 5.189999999999998% winrate. winrate: 50.0
 play white C8
 Alternatives: 
  D13 G14 K12 Q10 M5 Q2 P2 S10 O13 N13 -> 44.1 (for white)
  G14 C14 B14 Q10 M5 S10 O13 N13 -> 45.8 (for white)
  L4 L3 J4 H4 H5 K4 J5 -> 45.18 (for white)
  D3 C14 B14 G14 K12 -> 46.86 (for white)
  C7 D6 B6 B5 -> 48.43 (for white)
  P2 Q2 Q4 S3 R2 -> 47.59 (for white)
  H19 F19 G14 -> 50.36 (for white)
  D14 G14 K12 Q10 -> 49.38 (for white)]LB[dg:A][gf:B][kp:C][dq:D][cm:E][or:F][ha:G][df:H]OW[5]W[cl]WL[10];B[gf]BL[10]C[Winrate Black:  51.59%
|################________________|


 Leela's Suggestions: G14 K12 C14 B14 Q10 M5 P2 O2 Q2 N3


 Alternatives: 
 G14 -> 51.13 - G14 K12 C14 B14 Q10 M5 P2 O2 Q2 N3
 C14 -> 49.85 - C14 B14 G14 K12 Q10 M5 P2 O2 Q2
 Q10 -> 51.89 - Q10 M5 C14 B14 G14 K12 P2 O2
 C7 -> 49.91 - C7 D8 G14 K12 C14 B14 D13 C15 P2
 Q2 -> 51.45 - Q2 D3 C7 B8 E7
 P2 -> 49.02 - P2 O2 Q2 N3 M2 M4 L4 L5
 D3 -> 48.3 - D3 D6 C14 B14
 D7 -> 45.38 - D7 D3 C14 B14
]LB[gf:A][cf:B][pj:C][cm:D][pr:E][or:F][dq:G][dm:H]OB[4];C[Winrate Black:  52.13%
|################________________|


 Leela's Suggestions: K12 C14 B14 Q10 M5 Q2 P2 K10 H11 H10 G10


 Alternatives: 
 K12 -> 50.91 - K12 C14 B14 Q10 M5 Q2 P2 K10 H11 H10 G10
 K13 -> 52.32 - K13 C14 B14 D13 C12 K11 H11 J9 D3 C7 B8
 L12 -> 51.76 - L12 C14 B14 Q10 O13 N13 O12 M11 N14
 D3 -> 57.26 - D3 C14 B14 D13 C15
 D13 -> 59.24 - D13 J14
]LB[jh:A][jg:B][kh:C][dq:D][dg:E]OW[5]W[kg]WL[10];B[hf]BL[10]C[Winrate Black:  44.97%
|##############__________________|


 Leela's Suggestions: C14 B14 K11 J12 H10 M11 L9 D3 C7 D8


 Alternatives: 
 C14 -> 51.89 - C14 B14 K11 J12 H10 M11 L9 D3 C7 D8
 K11 -> 54.33 - K11 M12 M10 O13 N13 O12 N12 N11 N14 M11 O11
 L11 -> 54.28 - L11 H11 C14 B14 Q10 M5 P2
 Q10 -> 51.22 - Q10 O13 N13 O12 P14 N12 N10 N14 N7 Q12
 J14 -> 52.5 - J14 K12 C14 B14 Q10 O13
 Q2 -> 52.75 - Q2 L11 Q10 S10 C7
 P2 -> 50.58 - P2 O2 Q2 N3 M2 M4 L4 L5 K4 M5 C14 B14
 C7 -> 49.58 - C7 D8 C14 B14 C15 B15 D13
 D7 -> 46.83 - D7 D3 C14 B14 C15


 
--- Top-5 mistake (most impact) ---
move 67, lost -7.160000000000004% winrate. winrate: 44.97
 play black H14
 Alternatives: 
  C14 B14 K11 J12 H10 M11 L9 D3 C7 D8 -> 51.89 (for black)
  K11 M12 M10 O13 N13 O12 N12 N11 N14 M11 O11 -> 54.33 (for black)
  L11 H11 C14 B14 Q10 M5 P2 -> 54.28 (for black)
  Q10 O13 N13 O12 P14 N12 N10 N14 N7 Q12 -> 51.22 (for black)
  J14 K12 C14 B14 Q10 O13 -> 52.5 (for black)
  Q2 L11 Q10 S10 C7 -> 52.75 (for black)
  P2 O2 Q2 N3 M2 M4 L4 L5 K4 M5 C14 B14 -> 50.58 (for black)
  C7 D8 C14 B14 C15 B15 D13 -> 49.58 (for black)
  D7 D3 C14 B14 C15 -> 46.83 (for black)]LB[cf:A][ji:B][ki:C][pj:D][if:E][pr:F][or:G][cm:H][dm:J]OB[4];C[Winrate Black:  44.23%
|##############__________________|


 Leela's Suggestions: J13 C14 B14 K12 K13 D13 C12 K10 H11 H9 D3 C7 D8


 Alternatives: 
 J13 -> 44.3 - J13 C14 B14 K12 K13 D13 C12 K10 H11 H9 D3 C7 D8
 J14 -> 43.48 - J14 C14 B14 Q10 S10 P2 O2 Q2 N3 M2
 L11 -> 46.52 - L11 C14 B14 D13 C15 J13 O13
 N12 -> 44.07 - N12 C14 B14 D13 C15 Q10
 O13 -> 48.33 - O13 N13 O12 N12 O11 N11 O10
]LB[ig:A][if:B][ki:C][mh:D][ng:E]OW[4]W[ig]WL[10];B[pj]BL[10]C[Winrate Black:  43.38%
|#############___________________|


 Leela's Suggestions: C14 B14 K12 K13 D13 C12 K10 H11 H9 D3 C7 D8


 Alternatives: 
 C14 -> 44.18 - C14 B14 K12 K13 D13 C12 K10 H11 H9 D3 C7 D8
 K12 -> 45.63 - K12 K13 K10 H11 H9 D3 C7 D8 C14 B14
 Q10 -> 44.46 - Q10 O13 N13 O12 P14 N12 N10 N14 N15 M13
 K10 -> 45.22 - K10 H11 H10 G10 H9 D3 C7 D8 C14
 P2 -> 42.83 - P2 O2 Q2 N3 M2 M4 L4 L5 K4 M5 C14 B14 C15
 Q2 -> 44.01 - Q2 D3 C7 D8 Q10 S10 C14 B14
 J14 -> 42.84 - J14 K14 K12 K13 C14 B14 K10 H11 H9
 L11 -> 41.39 - L11 H11 Q10 M5 S10 S11
 M6 -> 43.26 - M6 D3 C7 B8 E7
 G4 -> 41.67 - G4 D6 C7 D7
 C7 -> 39.69 - C7 D8 C14 B14 Q10
 D3 -> 36.74 - D3 D6 C14 B14 D13
]LB[cf:A][jh:B][pj:C][jj:D][or:E][pr:F][if:G][ki:H][ln:J][gp:K][cm:L][dq:M]OB[4];C[Winrate Black:  47.46%
|###############_________________|


 Leela's Suggestions: O13 N13 O12 P14 N12 N10 N14 S10 Q12 P12 S11 N7


 Alternatives: 
 O13 -> 41.1 - O13 N13 O12 P14 N12 N10 N14 S10 Q12 P12 S11 N7
 M5 -> 43.96 - M5 C14 B14 K12 K13 K10
 M4 -> 45.08 - M4 L4 L5 K4 N3 M5 N4 L6 D3 C7 D8
 L5 -> 43.73 - L5 N4 N5 P2 O2 Q2 O4 C14
 M10 -> 44.47 - M10 M6 S10 C14 B14 D13
 L4 -> 45.05 - L4 M4 L5 L3 M5 K4
 S10 -> 44.55 - S10 C14 B14 D13 C12 C15
 S3 -> 47.28 - S3 R3 S4 R5 S2 R2 P2
 Q2 -> 44.95 - Q2 R2 P2 R5 M5 S10
 O10 -> 47.7 - O10 M12 K10 M6 M10 Q2 P2
 D3 -> 49.13 - D3 S10 S11 R11 Q12
 P2 -> 47.02 - P2 Q2 M5 S10
 M6 -> 46.99 - M6 C14 B14 D13
 L10 -> 46.73 - L10 M6 S10 C14
 R10 -> 49.91 - R10 R9 Q11 P9


 
--- Top-12 mistake (most impact) ---
move 70, lost 4.079999999999998% winrate. winrate: 47.46
 play white Q4
 Alternatives: 
  O13 N13 O12 P14 N12 N10 N14 S10 Q12 P12 S11 N7 -> 41.1 (for white)
  M5 C14 B14 K12 K13 K10 -> 43.96 (for white)
  M4 L4 L5 K4 N3 M5 N4 L6 D3 C7 D8 -> 45.08 (for white)
  L5 N4 N5 P2 O2 Q2 O4 C14 -> 43.73 (for white)
  M10 M6 S10 C14 B14 D13 -> 44.47 (for white)
  L4 M4 L5 L3 M5 K4 -> 45.05 (for white)
  S10 C14 B14 D13 C12 C15 -> 44.55 (for white)
  S3 R3 S4 R5 S2 R2 P2 -> 47.28 (for white)
  Q2 R2 P2 R5 M5 S10 -> 44.95 (for white)
  O10 M12 K10 M6 M10 Q2 P2 -> 47.7 (for white)
  D3 S10 S11 R11 Q12 -> 49.13 (for white)
  P2 Q2 M5 S10 -> 47.02 (for white)
  M6 C14 B14 D13 -> 46.99 (for white)
  L10 M6 S10 C14 -> 46.73 (for white)
  R10 R9 Q11 P9 -> 49.91 (for white)]LB[ng:A][lo:B][lp:C][ko:D][lj:E][kp:F][rj:G][rq:H][pr:J][nj:K][dq:L][or:M][ln:N][kj:O][qj:P]OW[3]W[pp]WL[10];B[qq]BL[10]C[Winrate Black:  39.58%
|############____________________|


 Leela's Suggestions: R2 O2 P2 N3 M2 P1 Q2 L5 M4 M5


 Alternatives: 
 R2 -> 49.0 - R2 O2 P2 N3 M2 P1 Q2 L5 M5 M6
 Q2 -> 44.43 - Q2 P2 S3 R2 R3 Q1 S1 M5 L6
 R3 -> 38.78 - R3 P2 Q2 O13 N13 O12 P14 N12


 
--- Top-4 mistake (most impact) ---
move 71, lost -7.880000000000003% winrate. winrate: 39.58
 play black R3
 Alternatives: 
  R2 O2 P2 N3 M2 P1 Q2 L5 M5 M6 -> 49.0 (for black)
  Q2 P2 S3 R2 R3 Q1 S1 M5 L6 -> 44.43 (for black)
  R3 P2 Q2 O13 N13 O12 P14 N12 -> 38.78 (for black)]LB[qr:A][pr:B][qq:C]OB[4];C[Winrate Black:  38.00%
|############____________________|


 Leela's Suggestions: P2 Q2 O13 N13 O12 N10 N12 N14 M12 L10 Q12


 Alternatives: 
 P2 -> 38.43 - P2 Q2 O13 N13 O12 N10 N12 P14 Q12 P12 N14
 T6 -> 44.75 - T6 S5 P2 Q2 L4 L3 J4 H4 K4 H2 H5 G4
 S10 -> 41.81 - S10 K12 K13 C14 B14 D13
 L4 -> 40.43 - L4 M4 P2 Q2 L5
 O13 -> 42.19 - O13 N13 O12 P14 N12 N10 P2 Q2
 R10 -> 47.11 - R10 R9 S10
]LB[or:A][sn:B][rj:C][kp:D][ng:E][qj:F]OW[3]W[or]WL[10];B[pr]BL[10]C[Winrate Black:  38.07%
|############____________________|


 Leela's Suggestions: Q2 O13 N13 O12 N10 N12 N14 M12 Q12 R11


 Alternatives: 
 Q2 -> 38.55 - Q2 O13 N13 O12 N10 N12 N14 M12 Q12 R11
 R5 -> 35.0 - R5 S1 S2 M5 G4 F4 S10
 S2 -> 34.71 - S2 Q2 R2 M5 L6 L4
 S10 -> 31.0 - S10 S1 S2 R1 T6 S9
 C14 -> 28.85 - C14 S1 S2
 S11 -> 23.47 - S11 
]LB[pr:A][qo:B][rr:C][rj:D][cf:E][ri:F]OB[4];C[Winrate Black:  37.91%
|############____________________|


 Leela's Suggestions: O13 N13 O12 P14 N12 N10 Q12 P12 N14 S10 P13 N15 M13 N8 M4 N4 N5 M5


 Alternatives: 
 O13 -> 36.43 - O13 N13 O12 P14 N12 N10 Q12 P12 N14 S10 P13 N15 M13 N8 M4 N4 N5 M5
 M5 -> 38.64 - M5 C14 B14 D13 C12 L6 L4 L3 J4 H4
 L5 -> 37.68 - L5 K4 L7 C14 B14 D13 C12 S10
 T6 -> 44.0 - T6 S5 M5 L6 L4 L3 J4 H4 K4
 L4 -> 42.33 - L4 L3 J4 H4 K4 H2 H5 G4 D6 M4 M5 N5 M6 N6
 S10 -> 39.06 - S10 C7 D8 G4 F4 G5 E7 C14 B14 D13
 M6 -> 37.73 - M6 G4 D3 G3 D6
 D3 -> 42.64 - D3 S10 M5 M7 K5 J5
 L6 -> 38.88 - L6 C14 B14 D13 C15 K12 H11 K10
 R10 -> 42.5 - R10 R9 Q11 P9 O10
 O10 -> 42.82 - O10 M6 N12 O11 N11 N10
 S2 -> 43.15 - S2 R5 S3 S4 T5 T6
 M10 -> 41.57 - M10 M6 O13 N13 O12
 Q11 -> 43.17 - Q11 P9 O10 P10 M5
]LB[ng:A][lo:B][ko:C][sn:D][kp:E][rj:F][ln:G][dq:H][kn:J][qj:K][nj:L][rr:M][lj:N][pi:O]OW[3]W[ln]WL[10];B[ko]BL[10]C[Winrate Black:  36.57%
|###########_____________________|


 Leela's Suggestions: K12 L12 K11 L11 K13 K14 K10


 Alternatives: 
 K12 -> 41.02 - K12 L12 K11 L11 K13 K14 K10 J14
 K10 -> 40.11 - K10 M10 M11 L11 L10 M9 N11 K11 J10 O10 C14
 C14 -> 36.48 - C14 B14 D13 C12 S10 O13 N13 O12
 L11 -> 38.9 - L11 H11 C14 B14 D13 C12
 L5 -> 36.87 - L5 M10 C14 B14 D13 C12 C15
 G4 -> 37.74 - G4 D6 C7 D7 B8 L4 L3 J4
 C7 -> 39.13 - C7 L4 L3 J4 H4 K4 H2 H5 G4
 S10 -> 34.94 - S10 O13 N13 O12 P14 N12 N10 N14 N8
 M5 -> 38.33 - M5 L5 N5 L4 N2 N6 L6 J4
 K9 -> 39.3 - K9 M10 M8 L4 L3
 L10 -> 37.38 - L10 J10 K8 L4 L3 J4
 M11 -> 37.6 - M11 K10 C14 B14 C15 B15
 H4 -> 35.28 - H4 D3 C7 D8 C2 M10 C14
 S11 -> 35.1 - S11 P12 O12 Q12 N11 R10
 D3 -> 34.73 - D3 L4 L3 J4 H4 K4 H2 H5
 M10 -> 34.65 - M10 K10 S10 S11 R11
]LB[jh:A][jj:B][cf:C][ki:D][ko:E][gp:F][cm:G][rj:H][lo:J][jk:K][kj:L][li:M][hp:N][ri:O][dq:P][lj:Q]OB[4];C[Winrate Black:  41.38%
|#############___________________|


 Leela's Suggestions: M10 S10 O13 N13 O12 P14 N12 P12 S18 S19


 Alternatives: 
 M10 -> 35.129999999999995 - M10 S10 O13 N13 O12 P14 N12 P12 S18 S19
 O13 -> 33.69 - O13 N13 O12 P14 N12 N10 N14 S10 Q12 P12 P13 N15
 D13 -> 37.25 - D13 S10 S11 R11 Q12 P12 Q11
 L6 -> 37.76 - L6 M5 K6 K5 J7 N6 N7 O7 O6 N5
 M5 -> 39.75 - M5 L6 M7 C7 D8 C14 B14 D13 C15 C12
 D3 -> 39.99 - D3 C7 B8 E7 F7 E9 F8 D8
 T6 -> 40.33 - T6 S5 M10 D3 D6 C7 D7
 N12 -> 37.88 - N12 N10 O13 P13 P15 N14
 M11 -> 38.22 - M11 C14 B14 S10 L6 M5
 O10 -> 39.03 - O10 M12 K10 M10 D3


 
--- Top-11 mistake (most impact) ---
move 76, lost 4.810000000000002% winrate. winrate: 41.38
 play white F12
 Alternatives: 
  M10 S10 O13 N13 O12 P14 N12 P12 S18 S19 -> 35.129999999999995 (for white)
  O13 N13 O12 P14 N12 N10 N14 S10 Q12 P12 P13 N15 -> 33.69 (for white)
  D13 S10 S11 R11 Q12 P12 Q11 -> 37.25 (for white)
  L6 M5 K6 K5 J7 N6 N7 O7 O6 N5 -> 37.76 (for white)
  M5 L6 M7 C7 D8 C14 B14 D13 C15 C12 -> 39.75 (for white)
  D3 C7 B8 E7 F7 E9 F8 D8 -> 39.99 (for white)
  T6 S5 M10 D3 D6 C7 D7 -> 40.33 (for white)
  N12 N10 O13 P13 P15 N14 -> 37.88 (for white)
  M11 C14 B14 S10 L6 M5 -> 38.22 (for white)
  O10 M12 K10 M10 D3 -> 39.03 (for white)]LB[lj:A][ng:B][dg:C][kn:D][lo:E][dq:F][sn:G][mh:H][li:J][nj:K]OW[3]W[fh]WL[10];B[en]BL[10]C[Winrate Black:  37.23%
|###########_____________________|


 Leela's Suggestions: C14 B14 S10 S11 D13 C15 R11 Q12 S12 P12


 Alternatives: 
 C14 -> 42.26 - C14 B14 S10 S11 D13 C15 R11 Q12 S12 P12
 S10 -> 42.36 - S10 L6 M5 N6 K6 D3 C7 B8 C2 D13 E7
 C7 -> 42.32 - C7 D8 C14 B14 D13 C15 S10 S11
 D3 -> 39.0 - D3 D6 C7 D7 B8 B9 D8 C9 C14 B14 D13
 E12 -> 40.54 - E12 E11 C14 B14 C15
 S11 -> 37.78 - S11 P12 Q12 R11
 D13 -> 38.99 - D13 C14 S10 M5 L6
 M5 -> 38.2 - M5 N6 S10 S11 C7
 M11 -> 37.85 - M11 D13 S10 M5
 E2 -> 36.41 - E2 D13 D7 F8


 
--- Top-8 mistake (most impact) ---
move 77, lost -4.150000000000006% winrate. winrate: 37.23
 play black E6
 Alternatives: 
  C14 B14 S10 S11 D13 C15 R11 Q12 S12 P12 -> 42.26 (for black)
  S10 L6 M5 N6 K6 D3 C7 B8 C2 D13 E7 -> 42.36 (for black)
  C7 D8 C14 B14 D13 C15 S10 S11 -> 42.32 (for black)
  D3 D6 C7 D7 B8 B9 D8 C9 C14 B14 D13 -> 39.0 (for black)
  E12 E11 C14 B14 C15 -> 40.54 (for black)
  S11 P12 Q12 R11 -> 37.78 (for black)
  D13 C14 S10 M5 L6 -> 38.99 (for black)
  M5 N6 S10 S11 C7 -> 38.2 (for black)
  M11 D13 S10 M5 -> 37.85 (for black)
  E2 D13 D7 F8 -> 36.41 (for black)]LB[cf:A][rj:B][cm:C][dq:D][eh:E][ri:F][dg:G][lo:H][li:J][er:K]OB[4];C[Winrate Black:  34.09%
|##########______________________|


 Leela's Suggestions: E7 E5 F5 E4 F4 D7 E8 C14 B14 D13 C15 J8


 Alternatives: 
 E7 -> 34.19 - E7 E5 F5 E4 F4 D7 E8 C14 B14 D13 C15 J8
 E5 -> 39.13 - E5 E7 F7 C7 F8 G4 G3 H4 F4 G5 F5 S10 S11
 D3 -> 38.97 - D3 F7 F5 G7 E7 D7
 F5 -> 41.69 - F5 C14 B14 S10 S11 R11 Q12
 H3 -> 38.87 - H3 H4 H2 G4 J2 K3 D3 E5
 T6 -> 40.83 - T6 S5 E5 E7 F7
 H4 -> 41.97 - H4 H3 E5
 F7 -> 43.28 - F7 F5 G5
]LB[em:A][eo:B][dq:C][fo:D][hq:E][sn:F][hp:G][fm:H]OW[3]W[em]WL[10];B[eo]BL[10]C[Winrate Black:  35.01%
|###########_____________________|


 Leela's Suggestions: E5 F5 E4 F4 E3 E2 D2 L6 K6 M5 L4 J8 D7 E8


 Alternatives: 
 E5 -> 34.3 - E5 F5 E4 F4 D7 E8 C14 B14 D13 C15 J8 D3 D2
 D7 -> 34.11 - D7 E5 D6 E8 D8 D9 F7 G6 G4 F4 G7 H7 E9
 C14 -> 35.5 - C14 B14 E5 F5 E4 F4 D7 E8 D13 C15 J8
 S10 -> 35.48 - S10 S11 E5 F5 E4 F4 E3 E2 D2 L6
 F7 -> 34.07 - F7 G7 F8 D6 E5
 F5 -> 28.78 - F5 E5 D6 G5 F7 G6 C14
]LB[eo:A][dm:B][cf:C][rj:D][fm:E][fo:F]OB[4];C[Winrate Black:  34.28%
|##########______________________|


 Leela's Suggestions: F5 E4 F4 D7 E8 C14 B14 D13 C15 J8 D3 D2 E3


 Alternatives: 
 F5 -> 34.510000000000005 - F5 E4 F4 D7 E8 C14 B14 D13 C15 J8 D3 D2 E3
 H3 -> 39.8 - H3 H2 H4 G2 F5 E4
 C5 -> 46.65 - C5 B5
]LB[fo:A][hq:B][co:C]OW[3]W[fo]WL[10];B[ep]BL[10]C[Winrate Black:  34.58%
|###########_____________________|


 Leela's Suggestions: E4 F4 D7 E8 C14 B14 D13 C15 J8 D3 D2 E2 C2 C5


 Alternatives: 
 E4 -> 34.3 - E4 F4 D7 E8 C14 B14 D13 C15 J8 D3 D2 E2 C2 C5
 D7 -> 34.86 - D7 E8 E4 F4 C14 B14 D13 C15 J8 D3 D2 E2 C2
 C14 -> 34.73 - C14 B14 E4 F4 D7 E8 D13 C15 J8
 S10 -> 31.73 - S10 O13 N13 O12 P14 N12 N10
]LB[ep:A][dm:B][cf:C][rj:D]OB[4];C[Winrate Black:  34.39%
|###########_____________________|


 Leela's Suggestions: F4 D7 E8 C14 B14 D13 C15 J8 D3 D2 E2 C2 C5


 Alternatives: 
 F4 -> 34.269999999999996 - F4 D7 E8 C14 B14 D13 C15 J8 D3 D2 E2 C2 C5
 E3 -> 33.91 - E3 D7 F4 D3 D8 F7 E8 G7 H3 H4 J4 H2
 H3 -> 36.95 - H3 H2 J4 K3 F4 D7 D8 F7 E8
 H5 -> 39.32 - H5 D7 H3 H2
]LB[fp:A][eq:B][hq:C][ho:D]OW[3]W[fp]WL[10];B[dm]BL[10]C[Winrate Black:  35.36%
|###########_____________________|


 Leela's Suggestions: D7 E8 C14 B14 D13 C15 K12 L12 K10 L11 M9


 Alternatives: 
 D7 -> 34.96 - D7 E8 C14 B14 D13 C15 K12 K13 M11 K10 J8 L9
 E3 -> 32.27 - E3 E2 D2 L6 K6 M5 L4 J8 D7 E8 H7 G2
 C14 -> 35.57 - C14 B14 D7 E8 D13 C15 J8 D3 D2 E3
 S10 -> 31.18 - S10 O13 N13 O12 P14 N12
 L6 -> 30.83 - L6 D3 D7 D8 D2
 J8 -> 31.61 - J8 D3 D7 D8
 M5 -> 30.66 - M5 D3 S10 S11
 S11 -> 26.68 - S11 P12 Q12
]LB[dm:A][eq:B][cf:C][rj:D][kn:E][il:F][lo:G][ri:H]OB[4];C[Winrate Black:  35.63%
|###########_____________________|


 Leela's Suggestions: E8 C14 B14 D13 C15 K12 L12 K10 K11 L10


 Alternatives: 
 E8 -> 34.72 - E8 C14 B14 D13 C15 K12 L12 K10 K11 L10
 D8 -> 35.42 - D8 F7 E8 G7 D3 C5 H4 J4 H3 E2 E3 D2
 E3 -> 34.519999999999996 - E3 D3 D8 F7 E8 G7 H3 H4 J4 H2 H5
 D3 -> 43.38 - D3 D8 D13 D10 C9 C11 B11 D11 B12
 L6 -> 37.73 - L6 K6 M5 L4 E8 E3 J8
 O13 -> 37.87 - O13 N13 O12 P14 N12 N10 Q12 P12
 T6 -> 40.65 - T6 S5 E8 E3 L6 M5 K6
 M5 -> 46.84 - M5 L6 M7
 S2 -> 46.34 - S2 R5
]LB[el:A][dl:B][eq:C][dq:D][kn:E][ng:F][sn:G][lo:H][rr:J]OW[3]W[el]WL[10];B[il]BL[10]C[Winrate Black:  33.66%
|##########______________________|


 Leela's Suggestions: C14 B14 K12 D3 K13 J14 K14 G13 D13 C15 S10 S11 R11 Q12 P12 Q11


 Alternatives: 
 C14 -> 37.04 - C14 B14 K12 D3 K13 J14 K14 G13 S10 M5 L6 M7 M4 M10 P8
 E3 -> 33.07 - E3 O13 N13 O12 P14 N12 N10 Q12 P12 P13 S10 N14 N15
 G7 -> 31.54 - G7 H6 H7 J7 J5 J8 G6 F7
 L6 -> 32.84 - L6 D3 S10 M7 P8 S11 R11 S12 M9
 S10 -> 32.89 - S10 D3 M5 N6 D2 E3 C5 O10
 M5 -> 32.4 - M5 D3 D2 E3 S10 S11 R11 Q12
 J8 -> 32.2 - J8 D3 D2 E3 C5 D13 S10 S11 R11 S12
 K12 -> 34.34 - K12 L12 K10 D3 D2 E3 C5
 K8 -> 32.54 - K8 D3 D2 E2 C2 C5 B5
 M11 -> 32.59 - M11 D3 D2 E2 C2 O13 N13
 D8 -> 29.14 - D8 D9 E3 C7 D6
 S11 -> 25.4 - S11 P12 O12 Q12 O11
 H8 -> 26.55 - H8 D3 D2 E3
]LB[cf:A][eq:B][gm:C][kn:D][rj:E][lo:F][il:G][jh:H][jl:J][li:K][dl:L][ri:M][hl:N]OB[4];C[Winrate Black:  37.46%
|###########_____________________|


 Leela's Suggestions: D3 C14 B14 D2 E3 C5 O13 N13 O12 P14 N12 N10


 Alternatives: 
 D3 -> 32.010000000000005 - D3 C14 B14 D2 E3 C5 O13 N13 O12 P14 N12 N10
 O13 -> 34.59 - O13 N13 O12 P14 N12 N10 N14 M8 M5
 M5 -> 34.75 - M5 L6 D3 D2 E3 C5 M7 C14
 E3 -> 37.29 - E3 D3 O13 N13 O12 N10 N12
 L6 -> 36.36 - L6 M5 N6 K6 D3 D2 E3 C5
 D13 -> 33.66 - D13 E3 H7 L8 M8 M9 N8
 L9 -> 35.129999999999995 - L9 M5 N6 E3 D13 S10
 H7 -> 39.87 - H7 L8 D3 S10 N8
 T6 -> 35.89 - T6 S5 D3 D2 E3 C5 D13
 S2 -> 42.06 - S2 R5


 
--- Top-14 mistake (most impact) ---
move 86, lost 3.8000000000000043% winrate. winrate: 37.46
 play white E3
 Alternatives: 
  D3 C14 B14 D2 E3 C5 O13 N13 O12 P14 N12 N10 -> 32.010000000000005 (for white)
  O13 N13 O12 P14 N12 N10 N14 M8 M5 -> 34.59 (for white)
  M5 L6 D3 D2 E3 C5 M7 C14 -> 34.75 (for white)
  E3 D3 O13 N13 O12 N10 N12 -> 37.29 (for white)
  L6 M5 N6 K6 D3 D2 E3 C5 -> 36.36 (for white)
  D13 E3 H7 L8 M8 M9 N8 -> 33.66 (for white)
  L9 M5 N6 E3 D13 S10 -> 35.129999999999995 (for white)
  H7 L8 D3 S10 N8 -> 39.87 (for white)
  T6 S5 D3 D2 E3 C5 D13 -> 35.89 (for white)
  S2 R5 -> 42.06 (for white)]LB[dq:A][ng:B][lo:C][eq:D][kn:E][dg:F][kk:G][hm:H][sn:J][rr:K]OW[2]W[eq]WL[10];B[dq]BL[10]C[Winrate Black:  36.78%
|###########_____________________|


 Leela's Suggestions: D3 O13 N13 O12 P14 N12 N10 N14 N15 M13 S10 Q12


 Alternatives: 
 D3 -> 37.98 - D3 O13 N13 O12 P14 N12 N10 N14 N15 M13 S10 Q12
 S10 -> 30.84 - S10 S11 R11 Q12
 C14 -> 28.72 - C14 C5 B5
]LB[dq:A][rj:B][cf:C]OB[4];C[Winrate Black:  39.19%
|############____________________|


 Leela's Suggestions: O13 N13 O12 P14 N12 N10 N14 N15 M13 M8 S10 C14


 Alternatives: 
 O13 -> 34.56 - O13 N13 O12 P14 N12 N10 N14 N15 M13 M8 S10 C14
 D13 -> 35.91 - D13 K12 K13 H11 M11 M9 K10 J10 K9
 B6 -> 40.65 - B6 C5 D13 S10 M5 L6 M8 M4 S11 R11 Q12
 L9 -> 38.01 - L9 L6 M7 M12 D13 S10
 L6 -> 38.27 - L6 M5 N6 K6 O13 N13 O12 P14 N12 N10
 O10 -> 39.03 - O10 C14 B14 C15 B15 D13
 T6 -> 43.33 - T6 S5 M5 L6 M8 M7
 M5 -> 40.2 - M5 L6 M7 C14 B14 D13 C15 D14
 C5 -> 46.49 - C5 D6 B6 B5 C7 B7 D8 A6 L6 M5
 M9 -> 39.19 - M9 M5 N6 M11 D13
 S10 -> 41.21 - S10 C14 B14 D13 C15 H11 K11
 Q11 -> 41.41 - Q11 P9 O10 P10 N8 M5
 M8 -> 42.21 - M8 M5 N6 M11 D13
 K7 -> 40.76 - K7 J7 L9 M5 N6
 M10 -> 40.76 - M10 M5 N6 S10
 L8 -> 43.14 - L8 L6 M7 M11 D13
 R10 -> 47.1 - R10 C14 B14 D13
 H7 -> 44.58 - H7 L8 M8
 F13 -> 46.21 - F13 C14


 
--- Top-19 mistake (most impact) ---
move 88, lost 2.4099999999999966% winrate. winrate: 39.19
 play white D8
 Alternatives: 
  O13 N13 O12 P14 N12 N10 N14 N15 M13 M8 S10 C14 -> 34.56 (for white)
  D13 K12 K13 H11 M11 M9 K10 J10 K9 -> 35.91 (for white)
  B6 C5 D13 S10 M5 L6 M8 M4 S11 R11 Q12 -> 40.65 (for white)
  L9 L6 M7 M12 D13 S10 -> 38.01 (for white)
  L6 M5 N6 K6 O13 N13 O12 P14 N12 N10 -> 38.27 (for white)
  O10 C14 B14 C15 B15 D13 -> 39.03 (for white)
  T6 S5 M5 L6 M8 M7 -> 43.33 (for white)
  M5 L6 M7 C14 B14 D13 C15 D14 -> 40.2 (for white)
  C5 D6 B6 B5 C7 B7 D8 A6 L6 M5 -> 46.49 (for white)
  M9 M5 N6 M11 D13 -> 39.19 (for white)
  S10 C14 B14 D13 C15 H11 K11 -> 41.21 (for white)
  Q11 P9 O10 P10 N8 M5 -> 41.41 (for white)
  M8 M5 N6 M11 D13 -> 42.21 (for white)
  K7 J7 L9 M5 N6 -> 40.76 (for white)
  M10 M5 N6 S10 -> 40.76 (for white)
  L8 L6 M7 M11 D13 -> 43.14 (for white)
  R10 C14 B14 D13 -> 47.1 (for white)
  H7 L8 M8 -> 44.58 (for white)
  F13 C14 -> 46.21 (for white)]LB[ng:A][dg:B][bn:C][kk:D][kn:E][nj:F][sn:G][lo:H][co:J][lk:K][rj:L][pi:M][ll:N][jm:O][lj:P][kl:Q][qj:R][hm:S][fg:T]OW[2]W[dl]WL[10];B[bn]BL[10]C[Winrate Black:  40.13%
|############____________________|


 Leela's Suggestions: B6 O13 N13 O12 P14 N12 N10 Q12 P12 N14 P13


 Alternatives: 
 B6 -> 39.49 - B6 O13 N13 O12 P14 N12 N10 Q12 P12 N14 S10
 B7 -> 38.82 - B7 O13 N13 O12 P14 N12 N10 Q12 P12 N14 P13 R10 C14
 S10 -> 40.65 - S10 S11 R11 Q12 S12 P12 O11
 C14 -> 40.63 - C14 B14 C15 B15 S10 C5 C4 D5
 M5 -> 38.12 - M5 N6 C14 B14 C15
 S11 -> 37.19 - S11 P12 Q12 R11 R10 Q11
]LB[bn:A][bm:B][rj:C][cf:D][lo:E][ri:F]OB[4];C[Winrate Black:  41.21%
|#############___________________|


 Leela's Suggestions: M5 L6 M7 G7 F7 M4 O13 N13 O12 P14


 Alternatives: 
 M5 -> 39.02 - M5 L6 M7 G7 F7 M4 O13 N13 O12 P14
 O13 -> 38.14 - O13 G7 F7 N13 O12 P14 N12 N10 N14 N8 M5
 L6 -> 40.36 - L6 M5 N6 K6 D13 S10 S11 R11 Q12 S12 P12
 K7 -> 38.85 - K7 J7 M5 L6 M7 L7 D13 M8 N8
 D13 -> 40.33 - D13 S10 S11 R11 Q12 S12
 L9 -> 40.19 - L9 M5 N6 S10 O13
 T6 -> 46.41 - T6 S5 O13 N13 O12 P14 N12 N10
 C7 -> 42.71 - C7 D6 O13 N13 O12 P14 N12 N10
 O10 -> 41.34 - O10 G7 F7 M5 N6 O11 N10
 M9 -> 40.71 - M9 M5 N6 S10 O13
 M8 -> 41.31 - M8 M5 N6 G7 F7 C14
 L8 -> 39.81 - L8 L6 M7 G7 F7 M11
 Q11 -> 44.97 - Q11 P9 P12 O11
 R10 -> 46.34 - R10 C14 B14
 S2 -> 46.68 - S2 R5
 F13 -> 51.79 - F13 C14
]LB[lo:A][ng:B][kn:C][jm:D][dg:E][kk:F][sn:G][cm:H][nj:J][lk:K][ll:L][kl:M][pi:N][qj:O][rr:P][fg:Q]OW[2]W[kn]WL[10];B[jn]BL[10]C[Winrate Black:  34.50%
|###########_____________________|


 Leela's Suggestions: M5 N6 K6 O13 N13 O12 P14 N12 N10 N14 N15 M13 M8 S10 C14


 Alternatives: 
 M5 -> 42.7 - M5 N6 K6 O13 N13 O12 P14 N12 N10 N14 N15 M13 M8 S10 C14
 K6 -> 33.89 - K6 M5 L4 L8 C14 B14 C15 B15
 G7 -> 38.32 - G7 K5 J5 K4 J4 F7


 
--- Top-6 mistake (most impact) ---
move 91, lost -6.710000000000001% winrate. winrate: 34.5
 play black K6
 Alternatives: 
  M5 N6 K6 O13 N13 O12 P14 N12 N10 N14 N15 M13 M8 S10 C14 -> 42.7 (for black)
  K6 M5 L4 L8 C14 B14 C15 B15 -> 33.89 (for black)
  G7 K5 J5 K4 J4 F7 -> 38.32 (for black)]LB[lo:A][jn:B][gm:C]OB[4];C[Winrate Black:  49.59%
|###############_________________|


 Leela's Suggestions: M5 M4 L8 G7 F7 M11 D13 J11 G13 S10 S11


 Alternatives: 
 M5 -> 33.709999999999994 - M5 M4 L8 G7 F7 M11 D13 S10 S11 R11 Q12 S12
 T6 -> 43.23 - T6 S5 M5


 
--- Top-4 mistake (most impact) ---
move 92, lost 15.090000000000003% winrate. winrate: 49.59
 play white F13
 Alternatives: 
  M5 M4 L8 G7 F7 M11 D13 S10 S11 R11 Q12 S12 -> 33.709999999999994 (for white)
  T6 S5 M5 -> 43.23 (for white)]LB[lo:A][sn:B]OW[1]W[fg]WL[10];B[ff]BL[10]C[Winrate Black:  30.94%
|#########_______________________|


 Leela's Suggestions: M5 N6 C14 B14 S10 S11 C15 B15 D13 F14 D15 H15 B13


 Alternatives: 
 M5 -> 51.09 - M5 N6 C14 B14 S10 S11 C15 B15 D13 C12 R11 Q12 S12
 G7 -> 49.84 - G7 F7 M5 S10 N6 N7 O7 O6 N5 O8
 C14 -> 46.55 - C14 M5 M4 B14 G7 F7 S10
 S10 -> 41.09 - S10 M5 M4 L8 O9 J2 H2
 S11 -> 43.83 - S11 M5 M4 P12 O12
 H15 -> 42.13 - H15 M5 M4
 F14 -> 35.24 - F14 M5 M4


 
--- Top-1 mistake (most impact) ---
move 93, lost -18.650000000000006% winrate. winrate: 30.939999999999998
 play black F14
 Alternatives: 
  M5 N6 C14 B14 S10 S11 C15 B15 D13 C12 R11 Q12 S12 -> 51.09 (for black)
  G7 F7 M5 S10 N6 N7 O7 O6 N5 O8 -> 49.84 (for black)
  C14 M5 M4 B14 G7 F7 S10 -> 46.55 (for black)
  S10 M5 M4 L8 O9 J2 H2 -> 41.09 (for black)
  S11 M5 M4 P12 O12 -> 43.83 (for black)
  H15 M5 M4 -> 42.13 (for black)
  F14 M5 M4 -> 35.24 (for black)]LB[lo:A][gm:B][cf:C][rj:D][ri:E][he:F][ff:G]OB[4];C[Winrate Black:  28.90%
|#########_______________________|


 Leela's Suggestions: M5 M4 L8 G7 F7 C14 C15 D14 B14 S10 S11 R11 Q12


 Alternatives: 
 M5 -> 29.450000000000003 - M5 M4 L8 G7 F7 C14 C15 D14 B14 S10 S11 R11 Q12
 D13 -> 38.16 - D13 M5 N6 S10 S11 R11 Q12 S12 P12
 O13 -> 34.72 - O13 M5 P14 P13
 T6 -> 40.74 - T6 S5 M5 M4
 L8 -> 46.65 - L8 M5 N6
]LB[lo:A][dg:B][ng:C][sn:D][kl:E]OW[1]W[lo]WL[10];B[kp]BL[10]C[Winrate Black:  28.49%
|#########_______________________|


 Leela's Suggestions: M4 L8 G7 F7 C14 C15 D14 B14 M11 L10 K12 K13 J11


 Alternatives: 
 M4 -> 29.13 - M4 L8 G7 F7 C14 C15 D14 B14 M11 L10 K12 K13 J11
 L4 -> 29.16 - L4 D13 S10 S11 R11 Q12 S12 P12 O11 O13 P8 N8
 G7 -> 27.69 - G7 F7 M4 L8 C14
]LB[lp:A][kp:B][gm:C]OB[4];C[Winrate Black:  41.94%
|#############___________________|


 Leela's Suggestions: D13 S10 S11 R11 Q12 S12 P12 O11 O13 P8 L8


 Alternatives: 
 D13 -> 27.519999999999996 - D13 S10 S11 R11 Q12 S12 P12 O11 O13 P8 L8
 O13 -> 26.03 - O13 N13 O12 P14 N12 N10 Q12 P12 N14 P13 R10 R9 Q9 P9
 R10 -> 27.989999999999995 - R10 C14 B14 D13 C15 D14 C12 R9 Q11 P9 O10
 L8 -> 29.47 - L8 G7 F7 C14 B14 C15 B15 D13 C12
 T6 -> 33.81999999999999 - T6 S5 L8 C14 B14 C15
 L9 -> 28.870000000000005 - L9 C14 B14 D13 C15
 J4 -> 33.230000000000004 - J4 H4 H3 H2 H5 G3 G4
 H3 -> 35.08 - H3 H2 J4 H4 H5 G3 G4 H3
 Q11 -> 36.46 - Q11 P9 P12 O11 P14 M8 O8
 S10 -> 33.39 - S10 C14 B14 D13 C15
 S2 -> 39.08 - S2 R5 S3
 D14 -> 43.21 - D14 S10 S11 R11
 N12 -> 44.6 - N12 
 O10 -> 46.35 - O10 


 
--- Top-5 mistake (most impact) ---
move 96, lost 13.450000000000003% winrate. winrate: 41.94
 play white H7
 Alternatives: 
  D13 S10 S11 R11 Q12 S12 P12 O11 O13 P8 L8 -> 27.519999999999996 (for white)
  O13 N13 O12 P14 N12 N10 Q12 P12 N14 P13 R10 R9 Q9 P9 -> 26.03 (for white)
  R10 C14 B14 D13 C15 D14 C12 R9 Q11 P9 O10 -> 27.989999999999995 (for white)
  L8 G7 F7 C14 B14 C15 B15 D13 C12 -> 29.47 (for white)
  T6 S5 L8 C14 B14 C15 -> 33.81999999999999 (for white)
  L9 C14 B14 D13 C15 -> 28.870000000000005 (for white)
  J4 H4 H3 H2 H5 G3 G4 -> 33.230000000000004 (for white)
  H3 H2 J4 H4 H5 G3 G4 H3 -> 35.08 (for white)
  Q11 P9 P12 O11 P14 M8 O8 -> 36.46 (for white)
  S10 C14 B14 D13 C15 -> 33.39 (for white)
  S2 R5 S3 -> 39.08 (for white)
  D14 S10 S11 R11 -> 43.21 (for white)
  N12  -> 44.6 (for white)
  O10  -> 46.35 (for white)]LB[dg:A][ng:B][qj:C][kl:D][sn:E][kk:F][ip:G][hq:H][pi:J][rj:K][rr:L][df:M][mh:N][nj:O]OW[1]W[hm]WL[10];B[kl]BL[10]C[Winrate Black:  41.90%
|#############___________________|


 Leela's Suggestions: L8 N8 C14 B14 C15 B15 D13 C12 S10 S18 S19 T18 P8 O10


 Alternatives: 
 L8 -> 42.63 - L8 N8 C14 B14 C15 B15 D13 C12 S10 S18 S19 T18 P8 O10 P10
 C14 -> 42.2 - C14 B14 L8 N8 S10 S11 D13 C15 R11 Q12
 L9 -> 42.6 - L9 N9 C14 B14 D13 C15 D14 C12
 S10 -> 35.29 - S10 L8 K8 L9 C14 C15 D14
 M8 -> 41.19 - M8 L8 L9 K8 K9 J7 M11 K7
 H8 -> 28.56 - H8 
]LB[kl:A][cf:B][kk:C][rj:D][ll:E][hl:F]OB[4];C[Winrate Black:  47.68%
|###############_________________|


 Leela's Suggestions: N8 C14 B14 C15 B15 D13 C12 S10 S11 P8 O10 R11 Q12 P10 O13


 Alternatives: 
 N8 -> 41.16 - N8 C14 B14 C15 B15 D13 C12 S10 S11 P8 O10 R11 Q12 P10 O13
 D13 -> 40.02 - D13 S10 M8 M9 N8 J11 H11 H10 N9 M10 N10 N11 M11 L11
 N9 -> 42.77 - N9 N8 O8 N7 M9 L7 O13 N13 O12
 O13 -> 42.87 - O13 N13 O12 P14 N12 N9 O10 O11
 M8 -> 45.39 - M8 M9 N8 N9 O9 O10 P9 J11
 M9 -> 44.5 - M9 M8 N8 N9 M10 K10 O8 N11
 T6 -> 48.96 - T6 S5 R10 R9 S10 P9 D13 S9 T7 T10
 R10 -> 45.79 - R10 R9 S10 P9 T6 S5
 K9 -> 47.27 - K9 K8 N8 S10 S11 P8 O10
 S2 -> 48.82 - S2 R5 T5 T6
 Q11 -> 48.8 - Q11 P9 O10 P10 N8
 O10 -> 58.88 - O10 C14 B14
 M10 -> 57.31 - M10 C14


 
--- Top-7 mistake (most impact) ---
move 98, lost 5.780000000000001% winrate. winrate: 47.68
 play white P15
 Alternatives: 
  N8 C14 B14 C15 B15 D13 C12 S10 S11 P8 O10 R11 Q12 P10 O13 -> 41.16 (for white)
  D13 S10 M8 M9 N8 J11 H11 H10 N9 M10 N10 N11 M11 L11 -> 40.02 (for white)
  N9 N8 O8 N7 M9 L7 O13 N13 O12 -> 42.77 (for white)
  O13 N13 O12 P14 N12 N9 O10 O11 -> 42.87 (for white)
  M8 M9 N8 N9 O9 O10 P9 J11 -> 45.39 (for white)
  M9 M8 N8 N9 M10 K10 O8 N11 -> 44.5 (for white)
  T6 S5 R10 R9 S10 P9 D13 S9 T7 T10 -> 48.96 (for white)
  R10 R9 S10 P9 T6 S5 -> 45.79 (for white)
  K9 K8 N8 S10 S11 P8 O10 -> 47.27 (for white)
  S2 R5 T5 T6 -> 48.82 (for white)
  Q11 P9 O10 P10 N8 -> 48.8 (for white)
  O10 C14 B14 -> 58.88 (for white)
  M10 C14 -> 57.31 (for white)]LB[ml:A][dg:B][mk:C][ng:D][ll:E][lk:F][sn:G][qj:H][jk:J][rr:K][pi:L][nj:M][lj:N]OW[1]W[oe]WL[10];B[mg]BL[10]C[Winrate Black:  45.43%
|##############__________________|


 Leela's Suggestions: N13 S10 C14 B14 C15 B15 D13 C12 J11 L11 H10 K11 H8 K9


 Alternatives: 
 N13 -> 46.68 - N13 S10 C14 B14 C15 B15 D13 C12 J11 L11 H10 K11 H8 K9
 M14 -> 50.6 - M14 K9 K8 N8 C14 B14 D13 C15
 N8 -> 46.76 - N8 S10 C14 B14 C15 B15 D13
 N14 -> 48.61 - N14 S10 C14 B14 C15 B15 D13 C12 J11
 O15 -> 46.61 - O15 N8 C14 B14 D13 C15 S10
 C14 -> 47.32 - C14 B14 N13 N8 D13 C15 D14 C12
 M13 -> 47.82 - M13 L12 M14 L14
 N9 -> 47.65 - N9 O15 N15 N14
 S10 -> 34.61 - S10 


 
--- Top-13 mistake (most impact) ---
move 99, lost -2.25% winrate. winrate: 45.43
 play black N13
 Alternatives: 
  N13 S10 C14 B14 C15 B15 D13 C12 J11 L11 H10 K11 H8 K9 -> 46.68 (for black)
  M14 K9 K8 N8 C14 B14 D13 C15 -> 50.6 (for black)
  N8 S10 C14 B14 C15 B15 D13 -> 46.76 (for black)
  N14 S10 C14 B14 C15 B15 D13 C12 J11 -> 48.61 (for black)
  O15 N8 C14 B14 D13 C15 S10 -> 46.61 (for black)
  C14 B14 N13 N8 D13 C15 D14 C12 -> 47.32 (for black)
  M13 L12 M14 L14 -> 47.82 (for black)
  N9 O15 N15 N14 -> 47.65 (for black)
  S10  -> 34.61 (for black)]LB[mg:A][lf:B][ml:C][mf:D][ne:E][cf:F][lg:G][mk:H][rj:J]OB[4];C[Winrate Black:  65.73%
|#####################___________|


 Leela's Suggestions: S10 C14 B14 C15 B15 D13 C12 J11 L11 H10 K11 H8 K9 K8 T6 S5 S2


 Alternatives: 
 S10 -> 43.45 - S10 C14 B14 C15 B15 D13 C12 J11 L11 H10 K11 H8 K9 K8 T6 S5 S2
 N8 -> 46.03 - N8 C14 B14 D13 C15 D14 C12 S10 S11 R11
 O12 -> 48.95 - O12 O13 Q11 P9 P12 N8 O11 P10
 K9 -> 51.05 - K9 K8 O12 O13 Q11 P9 P12
 D13 -> 57.78 - D13 S10 O12 P12 P14
 R10 -> 52.49 - R10 R9 S10 P9 T6
 N9 -> 51.76 - N9 N8 O8 N7 M9
 M14 -> 55.23 - M14 O15 S10 C14 B14
 T6 -> 57.65 - T6 S5 N8 S10 O12
 O10 -> 56.6 - O10 C14 B14
 P14 -> 60.83 - P14 P13 O12


 
--- Top-1 mistake (most impact) ---
move 100, lost 20.300000000000004% winrate. winrate: 65.73
 play white N16
 Alternatives: 
  S10 C14 B14 C15 B15 D13 C12 J11 L11 H10 K11 H8 K9 K8 T6 S5 S2 -> 43.45 (for white)
  N8 C14 B14 D13 C15 D14 C12 S10 S11 R11 -> 46.03 (for white)
  O12 O13 Q11 P9 P12 N8 O11 P10 -> 48.95 (for white)
  K9 K8 O12 O13 Q11 P9 P12 -> 51.05 (for white)
  D13 S10 O12 P12 P14 -> 57.78 (for white)
  R10 R9 S10 P9 T6 -> 52.49 (for white)
  N9 N8 O8 N7 M9 -> 51.76 (for white)
  M14 O15 S10 C14 B14 -> 55.23 (for white)
  T6 S5 N8 S10 O12 -> 57.65 (for white)
  O10 C14 B14 -> 56.6 (for white)
  P14 P13 O12 -> 60.83 (for white)]LB[rj:A][ml:B][nh:C][jk:D][dg:E][qj:F][mk:G][lf:H][sn:J][nj:K][of:L]OW[1]W[md]WL[10];B[ne]BL[10]C[Winrate Black:  57.35%
|##################______________|


 Leela's Suggestions: M16 N15 O15 M15 N17 S10 C14 B14 C15 B15 D13 C12 J11 L11 H10 K11 H8 K9 K8


 Alternatives: 
 M16 -> 66.84 - M16 N15 O15 M15 N17 S10 C14 B14 C15 B15 D13 C12 J11 L11 H10 K11 H8 K9 K8
 O15 -> 58.89 - O15 M16 N17 S10 C14 B14 D13 C15 D14 C12 J11


 
--- Top-3 mistake (most impact) ---
move 101, lost -8.380000000000003% winrate. winrate: 57.35
 play black O15
 Alternatives: 
  M16 N15 O15 M15 N17 S10 C14 B14 C15 B15 D13 C12 J11 L11 H10 K11 H8 K9 K8 -> 66.84 (for black)
  O15 M16 N17 S10 C14 B14 D13 C15 D14 C12 J11 -> 58.89 (for black)]LB[ld:A][ne:B]OB[4];C[Winrate Black:  57.17%
|##################______________|


 Leela's Suggestions: M16 N17 S10 C14 B14 C15 B15 D13 C12 J11 L11 H10 K11 H8 H2 J2 H3 H4


 Alternatives: 
 M16 -> 56.64 - M16 N17 S10 C14 B14 C15 B15 D13 C12 J11 L11 H10 K11 H8 H2 J2 H3 H4
 R10 -> 63.51 - R10 R9 S10
 S10 -> 68.39 - S10 C14
 O12 -> 72.76 - O12 M11
 T6 -> 77.12 - T6 S5
]LB[ld:A][qj:B][rj:C][nh:D][sn:E]OW[1]W[jk]WL[10];B[jl]BL[10]C[Winrate Black:  55.23%
|#################_______________|


 Leela's Suggestions: K8 M16 N17 S10 C14 C15 D14 B14 E12 H10 C12 B13 D12 T6 S5


 Alternatives: 
 K8 -> 56.3 - K8 M16 N17 S10 C14 C15 D14 B14 E12 H10 C12 B13 E11 D12 D11 D13
 C14 -> 62.13 - C14 B14 K8 R10 D13 C15 D14 C12 R9
 L9 -> 57.87 - L9 K8 K10 K7 J7 J9 H8 L10 M10
 S10 -> 56.39 - S10 K8 K7 L7 M8 L10 M10 M11
 S11 -> 58.45 - S11 P12 O12 Q12 R9 K8
]LB[jl:A][cf:B][kk:C][rj:D][ri:E]OB[4];C[Winrate Black:  72.96%
|#######################_________|


 Leela's Suggestions: M16 N17 S10 C14 C15 D14 B14 E12 H10 C12 B13 E11 D12 D11 D13 E13


 Alternatives: 
 M16 -> 53.94 - M16 N17 S10 C14 C15 D14 B14 E12 H10 C12 B13 E11 D12 D11 D13 E13
 S10 -> 60.08 - S10 C14 B14 C15 B15 D13 C12 M16 M15 H8 H10 G8
 R10 -> 65.75999999999999 - R10 R9 S10 P9 T6 S5
 N8 -> 69.08 - N8 S10 S11 R11 Q12
 D13 -> 71.93 - D13 S10 S11 R11 T11
 T6 -> 68.15 - T6 S5 R10 R9 S10 C14
 O12 -> 69.78 - O12 C14 B14 N11


 
--- Top-2 mistake (most impact) ---
move 104, lost 17.729999999999997% winrate. winrate: 72.96
 play white J9
 Alternatives: 
  M16 N17 S10 C14 C15 D14 B14 E12 H10 C12 B13 E11 D12 D11 D13 E13 -> 53.94 (for white)
  S10 C14 B14 C15 B15 D13 C12 M16 M15 H8 H10 G8 -> 60.08 (for white)
  R10 R9 S10 P9 T6 S5 -> 65.75999999999999 (for white)
  N8 S10 S11 R11 Q12 -> 69.08 (for white)
  D13 S10 S11 R11 T11 -> 71.93 (for white)
  T6 S5 R10 R9 S10 C14 -> 68.15 (for white)
  O12 C14 B14 N11 -> 69.78 (for white)]LB[ld:A][rj:B][qj:C][ml:D][dg:E][sn:F][nh:G]OW[1]W[ik]WL[10];B[hl]BL[10]C[Winrate Black:  71.17%
|######################__________|


 Leela's Suggestions: H8 M16 N17 R10 R9 S10 G8 G7 F8 F7


 Alternatives: 
 H8 -> 73.15 - H8 M16 N17 R10 R9 S10 G8 G7 F8 F7
 S10 -> 74.82 - S10 N8 P8 O10 Q9 M10 H8 O12
 C14 -> 74.21 - C14 B14 C15 B15 D13 C12 H8 S10
 S11 -> 73.04 - S11 P12 S9 N8 P8 N10 Q12
]LB[hl:A][rj:B][cf:C][ri:D]OB[4];C[Winrate Black:  86.67%
|###########################_____|


 Leela's Suggestions: M16 N17 R10 R9 S10 C14 B14 C15 B15 D13 C12 P9 S9


 Alternatives: 
 M16 -> 68.9 - M16 N17 R10 R9 S10 C14 B14 C15 B15 D13 C12 P9 S9
 R10 -> 70.51 - R10 R9 S10 P9 T6 S5 S2 S3 T4 T5 T3 T7
 S10 -> 69.55 - S10 G8 G7 F8 F7 C14 B14 C15 B15 D13 C12 M16 M15 N7 M10
 T6 -> 74.44 - T6 S5 S10 C14 C15 D14 B14 G8
 N8 -> 73.93 - N8 G8 G7 F8 F7 C14 B14
 Q11 -> 75.19 - Q11 P9 R10 R9 S9 S10 R11 S8 T6
 D13 -> 76.78999999999999 - D13 S10 S11 R11 T11 T10 S13 N7
 M10 -> 77.45 - M10 C14 B14 C15 B15 D13 C12
 O12 -> 77.15 - O12 N10 N12 M12 M11 M13
 L9 -> 77.25 - L9 C14 C15 D14 B14
 S2 -> 78.59 - S2 R5 S3 S4 T5 T6 S1 R1
 H9 -> 83.28 - H9 G8 H2


 
--- Top-3 mistake (most impact) ---
move 106, lost 15.5% winrate. winrate: 86.67
 play white G9
 Alternatives: 
  M16 N17 R10 R9 S10 C14 B14 C15 B15 D13 C12 P9 S9 -> 68.9 (for white)
  R10 R9 S10 P9 T6 S5 S2 S3 T4 T5 T3 T7 -> 70.51 (for white)
  S10 G8 G7 F8 F7 C14 B14 C15 B15 D13 C12 M16 M15 N7 M10 -> 69.55 (for white)
  T6 S5 S10 C14 C15 D14 B14 G8 -> 74.44 (for white)
  N8 G8 G7 F8 F7 C14 B14 -> 73.93 (for white)
  Q11 P9 R10 R9 S9 S10 R11 S8 T6 -> 75.19 (for white)
  D13 S10 S11 R11 T11 T10 S13 N7 -> 76.78999999999999 (for white)
  M10 C14 B14 C15 B15 D13 C12 -> 77.45 (for white)
  O12 N10 N12 M12 M11 M13 -> 77.15 (for white)
  L9 C14 C15 D14 B14 -> 77.25 (for white)
  S2 R5 S3 S4 T5 T6 S1 R1 -> 78.59 (for white)
  H9 G8 H2 -> 83.28 (for white)]LB[ld:A][qj:B][rj:C][sn:D][ml:E][pi:F][dg:G][lj:H][nh:J][kk:K][rr:L][hk:M]OW[1]W[gk]WL[10];B[gl]BL[10]C[Winrate Black:  88.51%
|############################____|


 Leela's Suggestions: G8 H2 J2 H3 H4 H5 J4 F8 G7 F7 H9 H10


 Alternatives: 
 G8 -> 88.93 - G8 H2 J2 H3 H4 H5 J4 F8 G7 F7 H9 H10
 H9 -> 88.1 - H9 H10 G8 H2 J2 H3 H4 H5 J4 D2 C2 D1 S10
 S10 -> 85.2 - S10 N8 P8 O10 Q9 S11 R11
 C14 -> 85.79 - C14 C15 D14 B14 S10 S11 R11 T11
 S11 -> 82.52 - S11 P12 S9 Q12 P8 N8 O11
]LB[gl:A][hk:B][rj:C][cf:D][ri:E]OB[4];C[Winrate Black:  90.09%
|############################____|


 Leela's Suggestions: H2 J2 H3 H4 H5 J4 F8 G7 F7 H9 H10 G10 F9 H11


 Alternatives: 
 H2 -> 87.16 - H2 J2 H3 H4 H5 J4 F8 G7 F7 H9 H10 G10 F9 H11
 H9 -> 91.44 - H9 F7 H2 J2 H3 H4 D2 C2 F2 E1 D1 G4
 H3 -> 88.42 - H3 H2 J4 H4 H5 G3 G4 H3 F8
 C7 -> 88.89 - C7 D6 H2 J2 H3 H4 H5 J4 H9 F7
 F7 -> 89.38 - F7 S10 N8 P8 O10 P10
 F8 -> 89.96000000000001 - F8 G7 F7 H9 H10 G10 F9 S10
 G7 -> 89.86 - G7 F8 F7 H9 T6 S5 S2 S3
 T6 -> 89.68 - T6 S5 H2 J2 H3 S10 N8
 M16 -> 88.67 - M16 N17 H9 F7 H3 H2 G2
]LB[hr:A][hk:B][hq:C][cm:D][fm:E][fl:F][gm:G][sn:H][ld:J]OW[1]W[fl]WL[10];B[hk]BL[10]C[Winrate Black:  92.06%
|#############################___|


 Leela's Suggestions: G7 F7 H9 H10 G10 F9 S10 S11 R11 T11 T10


 Alternatives: 
 G7 -> 91.12 - G7 F7 H9 H10 G10 F9 C14 B14 C15 B15 D13 D12
 H9 -> 91.83 - H9 H10 G7 F7 G10 F9 S10 S11 R11 T11 T10 S12
 S10 -> 90.18 - S10 S11 R11 T11 T10 S12 H9
 C14 -> 89.86 - C14 B14 C15 B15 S10 N8 P8
 S11 -> 86.82 - S11 P12 S9 N8 P8
]LB[gm:A][hk:B][rj:C][cf:D][ri:E]OB[4];C[Winrate Black:  91.71%
|#############################___|


 Leela's Suggestions: H10 G7 F7 G10 F9 S10 S11 R11 T11 T10 S12 N7 N3


 Alternatives: 
 H10 -> 91.99 - H10 G7 F7 G10 F9 S10 S11 R11 T11 T10 S12 N7 N3
 T6 -> 92.88 - T6 S5 H10 G7 F7 G10 F9 C14 C15
 M16 -> 91.96000000000001 - M16 N17 H10 G7 F7 G10 F9 C14
 S2 -> 90.7 - S2 S3 T6 S5 T4 T5 T3
]LB[hj:A][sn:B][ld:C][rr:D]OW[1]W[hj]WL[10];B[cf]BL[10]C[Winrate Black:  92.17%
|#############################___|


 Leela's Suggestions: G7 F7 G10 F9 S10 S11 R11 T11 T10 S12 N7 N3 N2


 Alternatives: 
 G7 -> 92.61 - G7 F7 G10 F9 S10 S11 R11 T11 T10 S12 N7 N3 N2
 G10 -> 91.99 - G10 F9 G7 F7 S10 S11 R11 T11 T10 S12 N7 N3 N2
 S10 -> 92.02 - S10 N8 G10 F9 P8 O10 Q9 O7 L9 O12
 C14 -> 91.86 - C14 C15 D14 B14 G10 F9 G7 F7 S10 N8 P8
 S11 -> 89.74 - S11 P12 S9 N8 P8 O7 Q12
]LB[gm:A][gj:B][rj:C][cf:D][ri:E]OB[4];C[Winrate Black:  91.38%
|#############################___|


 Leela's Suggestions: C15 D14 B14 G10 F9 G7 F7 S10 N8 P8 S11


 Alternatives: 
 C15 -> 91.85 - C15 D14 B14 G10 F9 G7 F7 S10 N8 P8 S11
 B14 -> 91.98 - B14 G7 F7 C15 B15 D13 C12 G10 F9 H11
 T6 -> 94.33 - T6 S5 B14 C15 B15 D13 C12
 D14 -> 96.03 - D14 D15 D13 C15 E18 E19 D17 D19
 D13 -> 96.06 - D13 C15 E18 E19 B16 B15 C19 D19 A18
]LB[ce:A][bf:B][sn:C][df:D][dg:E]OW[1]W[bf]WL[10];B[ce]BL[10]C[Winrate Black:  92.48%
|#############################___|


 Leela's Suggestions: G7 F7 C15 B15 D13 C12 G10 F9 S10 S11


 Alternatives: 
 G7 -> 92.77 - G7 F7 C15 B15 D13 C12 G10 F9 S10 S11
 G10 -> 92.11 - G10 F9 C15 B15 D13 C12 S10 S11 R11 T11 T10 S12 N7
 S10 -> 92.32 - S10 N8 P8 O10 Q9 M10 G10 O12
 C15 -> 92.09 - C15 B15 G10 F9 D13 C12 S10 S11 R11 T11 T10 S12
 D13 -> 91.72 - D13 C15 G10 F9 G7 F7 D14 C12 S10 S11 R11 T11
 S11 -> 89.73 - S11 Q12 S9 P12 P8 N8
 J10 -> 89.63 - J10 H11 C15 B15 D13 C12 S10
]LB[gm:A][gj:B][rj:C][ce:D][dg:E][ri:F][ij:G]OB[4];C[Winrate Black:  91.84%
|#############################___|


 Leela's Suggestions: B15 G10 F9 D13 C12 S10 S11 R11 T11 T10 S12 N7


 Alternatives: 
 B15 -> 92.3 - B15 G10 F9 D13 C12 S10 S11 R11 T11 T10 S12 N7
 T6 -> 94.27 - T6 S5 B15 D13 C12 G10
]LB[be:A][sn:B]OW[1]W[be]WL[10];B[dg]BL[10]C[Winrate Black:  91.21%
|#############################___|


 Leela's Suggestions: G10 F9 D13 C12 S10 S11 R11 T11 T10 S12 N7


 Alternatives: 
 G10 -> 92.31 - G10 F9 D13 C12 S10 S11 R11 T11 T10 S12 N7
 D13 -> 92.9 - D13 C12 G10 F9 S10 S11 R11 T11 T10 S12 N7
 G7 -> 92.56 - G7 F7 D13 C12 G10 F9 S10 S11 R11
 S10 -> 92.28 - S10 S11 D13 C12 G10 F9 R11 T11 T10 S12 N7
 S11 -> 89.38 - S11 P12 S9 Q12 O12 N8
 J10 -> 88.2 - J10 H11 D13 T6 S5
]LB[gj:A][dg:B][gm:C][rj:D][ri:E][ij:F]OB[4];C[Winrate Black:  93.63%
|#############################___|


 Leela's Suggestions: S2 R5 S3 S4 T5 T6 T4 S1 R1 R2 T1 Q1 P1 S1 M16 N17 R1 G7


 Alternatives: 
 S2 -> 89.37 - S2 R5 S3 S4 T5 T6 T4 S1 R1 R2 T1 Q1 P1 S1 M16 N17 R1 G7
 C12 -> 93.25 - C12 G10 F9 S10 S11 R11 T11 T10 S12 N7
 T6 -> 92.92 - T6 S5 C12 G10 F9 S10 S11 R11 T11
 D12 -> 93.74 - D12 G10 F9 S10 S11 G7 F7
 S10 -> 92.41 - S10 B13 C12 B16 B12 C16 E18 A18
 R10 -> 92.88 - R10 B13 C12 B16 E18 B12 B17 A14
 Q11 -> 91.81 - Q11 P9 R10 R9 S9 S10 R11 S8 T6 S5 T7 T9
 M16 -> 93.07 - M16 N17 D12 S10 S11 R11
 D15 -> 93.61 - D15 D14 C12 S10 T6


 
--- Top-18 mistake (most impact) ---
move 116, lost 2.4199999999999875% winrate. winrate: 93.63
 play white D12
 Alternatives: 
  S2 R5 S3 S4 T5 T6 T4 S1 R1 R2 T1 Q1 P1 S1 M16 N17 R1 G7 -> 89.37 (for white)
  C12 G10 F9 S10 S11 R11 T11 T10 S12 N7 -> 93.25 (for white)
  T6 S5 C12 G10 F9 S10 S11 R11 T11 -> 92.92 (for white)
  D12 G10 F9 S10 S11 G7 F7 -> 93.74 (for white)
  S10 B13 C12 B16 B12 C16 E18 A18 -> 92.41 (for white)
  R10 B13 C12 B16 E18 B12 B17 A14 -> 92.88 (for white)
  Q11 P9 R10 R9 S9 S10 R11 S8 T6 S5 T7 T9 -> 91.81 (for white)
  M16 N17 D12 S10 S11 R11 -> 93.07 (for white)
  D15 D14 C12 S10 T6 -> 93.61 (for white)]LB[rr:A][ch:B][sn:C][dh:D][rj:E][qj:F][pi:G][ld:H][de:J]OW[1]W[dh]WL[10];B[ch]BL[10]C[Winrate Black:  89.87%
|############################____|


 Leela's Suggestions: B16 C16 B13 B17 C12 S2 S3 S5 R5 T6 T4 T5


 Alternatives: 
 B16 -> 96.65 - B16 C16 B13 B17 C12 S2 S3 S5 R5 T6 T4 T5
 B13 -> 95.77 - B13 C12 B16 E18 E19 D17 D19 C19 F19 B12 C16 B17
 G10 -> 93.23 - G10 F9 S10 S11 G7 F7 B13 C12 B16
 S10 -> 93.13 - S10 S11 B13 C12 B16 E18 B17 B18 A14
 G7 -> 93.29 - G7 F7 B13 C12 B16 E18 B17 B18 A18
 S11 -> 88.63 - S11 P12 S9 Q12 P8 N8 O11 T6
 E12 -> 85.7 - E12 E13 D14 C12 S10 N8


 
--- Top-10 mistake (most impact) ---
move 117, lost -3.759999999999991% winrate. winrate: 89.87
 play black C12
 Alternatives: 
  B16 C16 B13 B17 C12 S2 S3 S5 R5 T6 T4 T5 -> 96.65 (for black)
  B13 C12 B16 E18 E19 D17 D19 C19 F19 B12 C16 B17 -> 95.77 (for black)
  G10 F9 S10 S11 G7 F7 B13 C12 B16 -> 93.23 (for black)
  S10 S11 B13 C12 B16 E18 B17 B18 A14 -> 93.13 (for black)
  G7 F7 B13 C12 B16 E18 B17 B18 A18 -> 93.29 (for black)
  S11 P12 S9 Q12 P8 N8 O11 T6 -> 88.63 (for black)
  E12 E13 D14 C12 S10 N8 -> 85.7 (for black)]LB[bd:A][bg:B][gj:C][rj:D][gm:E][ri:F][eh:G]OB[4];C[Winrate Black:  89.78%
|############################____|


 Leela's Suggestions: B13 G10 F9 H11 J10 J11 K11 L9 K10 K12 M10 L12 M11


 Alternatives: 
 B13 -> 89.83 - B13 G10 F9 H11 J10 J11 K11 L9 K10 K12 M10 L12 M11
 T6 -> 92.36 - T6 S5 B13 G10
]LB[bg:A][sn:B]OW[1]W[bg]WL[10];B[eh]BL[10]C[

 Leela's Suggestions: G10 F9 H11 J10 J11 K11 L9 K10 K12 M10 L12 M11 M12 J12 S10


 Alternatives: 
 G10 -> 90.91 - G10 F9 H11 J10 J11 K11 L9 K10 K12 M10 L12 M11 M12 J12 S10 S11
 G7 -> 91.2 - G7 F7 G10 F9 E12 D11 H11 J10 J11 K11 K12
 S10 -> 90.09 - S10 S11 R11 S12 G10 F9 N7 O7 O8
 E12 -> 86.98 - E12 D11 G10 H11 G7 F7 S10 T6 S5
 S11 -> 87.96 - S11 P12 S9 Q12 P8 N8
 G13 -> 86.65 - G13 G12 G10 F9 E12 D11
]LB[gj:A][gm:B][rj:C][eh:D][ri:E][gg:F]OB[4])