(;AB[pd][dp][pp]AP[CGoban:3]BR[4k]C[ZaZu v0.7 - Automatic SGF review with Leela Zero


$$$ TOP MISTAKE FOR black

--- Top-1 mistake (most impact) ---
move 100, lost -31.960000000000008% winrate. winrate: 28.239999999999995
 play black G9
 Alternatives: 
  H14 K17 G13 F16 G16 E17 E18 J18 H18 L18 T7 T8 -> 63.19 (for black)
  C9 B9 C10 D9 D8 B8 C11 D12 C12 C13 -> 55.47 (for black)
  G2 F2 C9 B9 C10 -> 55.13 (for black)
  T7 T8 T6 S9 C9 B9 B8 C10 D8 -> 51.8 (for black)
  S15 D8 B8 B9 B7 G13 -> 47.11 (for black)
  B8 B10 T7 T8 -> 54.33 (for black)
  L18 G13 C9 -> 43.92 (for black)
  L7 K6 J6 D8 -> 41.91 (for black)
  L15 K15 K17 -> 49.38 (for black)
  B10 B11 C9 -> 45.5 (for black)
  R10  -> 40.92 (for black)
  L6  -> 34.83 (for black)
--- Top-2 mistake (most impact) ---
move 94, lost -31.799999999999997% winrate. winrate: 32.06
 play black N10
 Alternatives: 
  H14 K17 G13 L18 C9 D9 D8 B10 B9 C10 -> 66.36 (for black)
  C9 D9 D8 B10 B9 C10 H14 F16 G16 H16 G17 -> 60.38 (for black)
  T7 T8 T6 S9 C9 D9 -> 51.25 (for black)
  G2 F2 C9 D9 D8 -> 53.4 (for black)
  E13 G13 C13 B13 -> 44.88 (for black)
  S15 D8 E8 G13 -> 32.48 (for black)
  L15 K15 H14 -> 42.61 (for black)
  G13 H14 -> 46.24 (for black)
  K17 M15 -> 44.0 (for black)
--- Top-3 mistake (most impact) ---
move 96, lost -29.729999999999997% winrate. winrate: 32.650000000000006
 play black H10
 Alternatives: 
  H14 D8 G13 K17 L18 K18 M18 H16 G16 F16 G17 H15 F15 F14 E16 E15 -> 65.22 (for black)
  C9 G13 G2 F2 T7 T8 T6 -> 59.69 (for black)
  G2 D8 F7 F2 G7 -> 55.37 (for black)
  B8 G13 T7 T8 -> 53.4 (for black)
  L15 K15 G13 H14 -> 50.23 (for black)
  G13 H14 C9 -> 47.96 (for black)
  E13 G13 C13 -> 40.51 (for black)
  E3 D2 -> 47.88 (for black)
  S15 D8 -> 40.01 (for black)
  H7  -> 45.14 (for black)
  T7  -> 44.96 (for black)
  H10  -> 30.67 (for black)
--- Top-4 mistake (most impact) ---
move 98, lost -24.739999999999995% winrate. winrate: 27.730000000000004
 play black H8
 Alternatives: 
  C9 B9 B8 B10 H14 K17 E13 D13 S15 -> 54.33 (for black)
  H14 K17 C9 B9 B8 C10 D8 S16 T7 -> 54.7 (for black)
  G2 G3 H3 F2 C9 B9 B8 C10 D8 S16 T7 -> 53.36 (for black)
  T7 T8 T6 S9 C9 B10 B9 G13 -> 44.92 (for black)
  L7 K6 J6 D8 F7 H3 -> 30.74 (for black)
  E13 G13 C13 B13 C12 -> 46.65 (for black)
  S15 D8 E8 B7 -> 37.21 (for black)
  L15 K15 H15 H16 G13 -> 40.81 (for black)
  B10 C9 -> 43.71 (for black)
  B8  -> 39.64 (for black)
  L18  -> 34.31 (for black)
--- Top-5 mistake (most impact) ---
move 92, lost -22.760000000000005% winrate. winrate: 52.44
 play black M10
 Alternatives: 
  H14 F16 G13 E17 H16 K17 E18 G17 F18 H15 G16 J18 -> 78.71 (for black)
  C9 G13 N8 M8 N7 M7 O6 O7 N10 K6 J6 -> 76.04 (for black)
  N8 N7 C9 D9 D8 B8 B9 B10 -> 71.22 (for black)
  G2 D8 E3 F2 D2 D1 G3 B3 F7 B4 -> 74.59 (for black)
  G13 H14 C9 B9 B8 B10 S15 -> 71.41 (for black)
  L15 K15 G13 H14 C9 B10 B9 -> 67.96 (for black)
  T7 T8 T6 S9 C9 D9 D8 -> 67.85 (for black)
  E13 G13 C13 B13 C12 -> 64.09 (for black)
  B8 G13 S15 R15 S16 -> 70.46 (for black)
  S15 D8 E8 -> 49.36 (for black)
  N4  -> 61.0 (for black)

$$$ TOP MISTAKE FOR white

--- Top-1 mistake (most impact) ---
move 99, lost 32.47% winrate. winrate: 60.2
 play white L10
 Alternatives: 
  D8 H14 K17 G13 L18 B8 B9 B7 S16 S17 -> 25.650000000000006 (for white)
  G13 C9 D9 D8 B10 B9 C10 B8 S16 S17 -> 26.090000000000003 (for white)
  S16 H14 F16 G16 H16 G17 K17 -> 30.439999999999998 (for white)
  B8 E13 D13 H14 K17 L18 -> 29.120000000000005 (for white)
  H7 G9 D8 B7 -> 29.47 (for white)
  T6 H14 K17 E13 D13 -> 37.35 (for white)
  H3 H14 F16 G16 -> 29.739999999999995 (for white)
  S15 T7 T8 T6 S9 C9 -> 33.239999999999995 (for white)
  K17 C9 B9 -> 33.75 (for white)
  B7 C9 B9 D8 -> 39.69 (for white)
--- Top-2 mistake (most impact) ---
move 95, lost 30.32% winrate. winrate: 62.38
 play white H9
 Alternatives: 
  D8 H14 K17 G13 L18 B8 B9 B7 S16 S17 R16 -> 30.650000000000006 (for white)
  G13 C9 S16 T7 T8 T6 S9 B11 D9 -> 31.0 (for white)
  S16 T7 T8 T6 S9 C9 B10 B9 D9 -> 35.09 (for white)
  T6 C9 G13 S15 R15 -> 38.93 (for white)
  S15 H14 K17 E13 -> 34.379999999999995 (for white)
  H3 C9 B9 -> 32.53 (for white)
  B7 C9 D9 D8 B8 B6 -> 34.72 (for white)
  K17 T7 T8 -> 35.45 (for white)
  B8  -> 40.02 (for white)
--- Top-3 mistake (most impact) ---
move 97, lost 19.819999999999993% winrate. winrate: 52.47
 play white L9
 Alternatives: 
  D8 H14 K17 B8 B9 B7 S16 B10 B11 C9 D9 A9 F16 G16 F15 -> 31.069999999999993 (for white)
  S16 T7 T8 T6 S9 G2 G3 H3 -> 36.41 (for white)
  G13 C9 S16 T7 T8 T6 -> 37.92 (for white)
  J8 K8 H8 K7 D8 E8 -> 41.18 (for white)
  H3 C9 D9 D8 B10 -> 33.97 (for white)
  B7 C9 D9 -> 46.03 (for white)
  T6  -> 50.85 (for white)
  J6  -> 63.98 (for white)
--- Top-4 mistake (most impact) ---
move 91, lost 17.400000000000006% winrate. winrate: 75.2
 play white M9
 Alternatives: 
  D8 H14 K17 G13 B7 L18 K18 M18 H16 G16 -> 56.2 (for white)
  G13 C9 B9 B8 B10 G2 G3 H3 -> 60.48 (for white)
  M13 C9 G13 S15 R15 S16 T6 T5 -> 69.52 (for white)
  S16 H14 K17 C9 B10 -> 67.65 (for white)
  T6 C9 -> 62.39 (for white)
  H14  -> 69.07 (for white)
--- Top-5 mistake (most impact) ---
move 79, lost 14.080000000000013% winrate. winrate: 78.15
 play white O9
 Alternatives: 
  D8 P9 Q10 Q9 R10 R9 S10 O6 O7 N7 K6 J6 K8 N8 J8 K7 L7 L8 -> 62.32 (for white)
  P9 C9 B9 B8 B10 G2 G3 H3 -> 74.16 (for white)
  K6 J6 D8 F7 G7 G9 D7 E6 B7 -> 63.62 (for white)
  F16 P9 Q10 Q9 R10 R9 S10 -> 71.23 (for white)
  E17  -> 71.69 (for white)Winrate Black:  88.86%
|############################____|


 Leela's Suggestions: D16 Q4 R17 Q17 R16 R14 R15 Q15 S14 F17 C14 R18 S18 S13 Q18 Q13 P18


 Alternatives: 
 D16 -> 73.2 - D16 Q4 R17 Q17 R16 R14 R15 Q15 S14 F17 C14 R18 S18 S13 Q18 Q13 P18
 Q4 -> 73.16 - Q4 D16 R17 R16 Q17 O17 P17 P16 O18 S17 S18 N18 S16 N16 O15 O16
 Q3 -> 71.16 - Q3 D16 R6 P5 Q4 Q7 Q6 R14 C17
 D17 -> 72.08 - D17 Q4 C14 D14 D13 C15 D15 E14 C16 C13 B15 B14 C12
 R4 -> 71.64 - R4 D16 O3 O4 N4 P3 P4 O5 Q3 N3 P2 O2
 C16 -> 71.72 - C16 Q4 F17 F16 G16 E17 E16 F15 D17 G17 E18
]CA[UTF-8]DT[2018-08-09]FF[4]GM[1]HA[3]KM[0.50]LB[dd:A][pp:B][pq:C][dc:D][qp:E][cd:F]OT[1x30 byo-yomi]PB[donn]PC[The KGS Go Server at http://www.gokgs.com/]PW[kasuka]RE[W+Time]RU[Japanese]ST[2]SZ[19]TM[900]WR[1k];C[Winrate Black:  89.14%
|############################____|


 Leela's Suggestions: D16 C17 C16 D17 F17 E17 E16 F18 C3 C4 D3 F3 E3 E4 F2 B3 B2 G2 B4 G4 F5


 Alternatives: 
 D16 -> 89.16 - D16 C17 C16 D17 F17 E17 E16 F18 C3 C4 D3 F3 E3 E4 F2 B3 B2 G2 B4 G4 F5
 C16 -> 88.2 - C16 E17 D14 C6 R3 Q3 R4 R6 R5 Q5 S6 R2 S2 S7 Q2
 D17 -> 88.13 - D17 C15 F16 O17 R3 R4 Q3 O3 P3 P4 O2 S3 S2 P2 P1
]LB[dd:A][cd:B][dc:C]W[dd]WL[897.175];B[fc]BL[897.022]C[Winrate Black:  89.54%
|############################____|


 Leela's Suggestions: C17 C16 D17 F17 E17 E16 F18 C3 C4 D3 F3 E3 E4 F2 B3 B2 G2 B4 G4 B5 E2 D2 G17 F16


 Alternatives: 
 C17 -> 90.33 - C17 C16 D17 F17 E17 E16 F18 C3 C4 D3 F3 E3 E4 F2 B3 B2 G2 B4 G4 B5 E2 D2 G17 F16
 F17 -> 88.73 - F17 C14 D17 C17 C18 E17 D18 E16 E18 B17 F16 G18 F18 H17 D13 C13 D11 D12 E12
 C14 -> 88.81 - C14 F17 C16 C17 B17 C15 B16 D15 B15 C18 D14 B13 B14 C12 G16 G17 H16 J18 C9
]LB[cc:A][fc:B][cf:C];C[Winrate Black:  89.62%
|############################____|


 Leela's Suggestions: C14 D17 C17 C18 E17 D18 E16 E18 B17 F16 G18 F18 H17 D13 C13 D11 D12 E12 C12


 Alternatives: 
 C14 -> 89.77 - C14 D17 C17 C18 E17 D18 E16 E18 B17 F16 G18 F18 H17 D13 C13 D11 D12 E12 C12
 R17 -> 88.76 - R17 Q17 R16 R14 R15 Q15 S14 R18 S18 S13 Q18 Q13 P14 Q14
 R3 -> 88.07 - R3 R4 Q3 O3 P3 P4 O2 S3 S2 N2 S4 N4
 C3 -> 88.27 - C3 C4 D3 F3 E3 E4 F2 C14 F16 G16 F15 D17 C17 E17 D14 E16
 O17 -> 88.34 - O17 C14 F16 G16 F15 D17 C17 E17 C16 D13
 D13 -> 88.71000000000001 - D13 C17 D17 C16 D15 D18 E18 C18 E17 C14
 D14 -> 88.72 - D14 E15 D15 D18 C6 F3 R17 Q17
]LB[cf:A][qc:B][qq:C][cq:D][nc:E][dg:F][df:G]W[cf]WL[895.573];B[db]BL[878.822]C[Winrate Black:  88.13%
|############################____|


 Leela's Suggestions: D17 C17 C18 E17 D18 E16 E18 B17 F16 G18 F18 H17 D13 C13 D11 H15 F14 E13


 Alternatives: 
 D17 -> 90.49 - D17 C17 C18 E17 D18 E16 E18 B17 F16 G18 F18 H17 D13 C13 D11 H15 F14 E13
 O17 -> 87.85 - O17 R3 R4 Q3 O3 P3 P4 O2 S3 S2 P2 P1 N2
 R6 -> 87.53 - R6 R17 Q17 R16 R14 R15
 C6 -> 87.27 - C6 R3 Q3 R4 R6 R5 Q5 S6
 D18 -> 86.52 - D18 C3 C4 D3 F3 E3 E4
 O3 -> 86.83 - O3 R17 Q17 R16 R14 R15
 D13 -> 87.24 - D13 E17 F16 D14 E13 F15 C13 F14
 F15 -> 86.89 - F15 R17 Q17 R16
]LB[dc:A][nc:B][qn:C][cn:D][db:E][nq:F][dg:G][fe:H];C[Winrate Black:  86.73%
|###########################_____|


 Leela's Suggestions: C6 F3 R3 Q3 R4 R6 R5 Q5 S6 R2 S2 S5 S4 S7


 Alternatives: 
 C6 -> 87.66 - C6 F3 R3 Q3 R4 R6 R5 Q5 S6 R2 S2 S5 S4 S7
 C3 -> 88.95 - C3 C4 D3 F3 E3 E4 F2 C12 C17 E15 E13 D11 E16 F16 F15 G15 F14
 R3 -> 88.26 - R3 R4 Q3 O3 P3 P4 O2 S3 S2 N2 S4 N4 S5 P2 Q2 C12 C17
 R17 -> 88.21000000000001 - R17 Q17 R16 R14 R15 Q15 S14 R18 S18 S15 S16 S13 Q14 R13 P14
 F3 -> 86.97 - F3 C6 R17 Q17 R16 R14 R15 Q15 S14 R18 S18 S15 T15
 O17 -> 87.38 - O17 R14 C6 F3 R3 Q3 R4
 O3 -> 86.87 - O3 P3 O4 Q6 F3 K3 C6 D6 D7
 R6 -> 86.8 - R6 O3 R17 R16 Q17 O17
 C17 -> 87.88 - C17 J17 R3 Q3 R4
]LB[cn:A][cq:B][qq:C][qc:D][fq:E][nc:F][nq:G][qn:H][cc:J]W[nq]WL[892.596];B[qn]BL[869.766]C[Winrate Black:  88.06%
|############################____|


 Leela's Suggestions: P3 O4 Q6 F3 K3 C6 D6 D7 E6 C5 C4 H3 K5


 Alternatives: 
 P3 -> 88.01 - P3 O4 Q6 F3 K3 C6 D6 D7 E6 C5 C4 H3 K5
 R6 -> 87.61 - R6 C3 C4 D3 F3 E3 E4 F2 C12 C17 E15 E13 D11 E16 F16 F15 G15 F14
 D13 -> 88.24 - D13 C13 D11 R6 Q6 Q7 P6 R4 R3 R5 Q3 L3
 O4 -> 88.3 - O4 N4 O5 P2 R3 N5 N6 O6 N7 P6 Q5
 M3 -> 87.2 - M3 C3 D3 C4 C6 C5 D5 B6 R3 R17 Q17
 C17 -> 87.26 - C17 R6 O4 N4 O5 Q3 R3 P3 R4 Q7
 C12 -> 87.07 - C12 R6 Q6 Q7 P6 R4 R3 R5 Q3
 Q6 -> 85.88 - Q6 C6 F3 R17 Q17
]LB[oq:A][qn:B][dg:C][np:D][lq:E][cc:F][ch:G][pn:H];C[Winrate Black:  89.30%
|############################____|


 Leela's Suggestions: C3 C4 D3 F3 E3 E4 F2 C12 C17 E15 E13 D11 E16 F16 F15 G15 F14 B14 C13 B13


 Alternatives: 
 C6 -> 87.53999999999999 - C6 F3 R17 Q17 R16 R14 R15 Q15 S14 R18 S18 S15 S16 S13 Q14 R13 P14 P18
 C3 -> 88.34 - C3 C4 D3 F3 E3 E4 F2 C12 C17 E15 E13 D11 E16 F16 F15 G15 F14 B14 C13 B13
 F3 -> 87.95 - F3 C6 R17 Q17 R16 R14 R15 Q15 S14 R18 S18 S13 Q14 R13 Q18 P18 R19 P14
 R17 -> 88.31 - R17 R16 Q17 O17 P17 P16 O18 S17 S18 N18 S16 N16 S15 P18 Q18
 O17 -> 87.15 - O17 R14 C3 C4 D3 F3 E3 E4 F2 B3 B2
 R14 -> 86.83 - R14 O17 C3 C4 D3 F3 E3 E4 F2 C12 C17
 Q3 -> 88.87 - Q3 R3 R2 P3 Q2 P4 R4 S3 S4 S2
 C17 -> 88.1 - C17 J17 C3 D3 C4
]LB[cn:A][cq:B][fq:C][qc:D][nc:E][qf:F][pq:G][cc:H]W[pm]WL[890.003];B[ic]BL[859.438]C[Winrate Black:  88.26%
|############################____|


 Leela's Suggestions: P3 O4 Q6 F3 C6 O7 O6 N6 P7 P8 P6 N7 N5 M5 M4


 Alternatives: 
 P3 -> 90.54 - P3 O4 Q6 F3 C6 O7 O6 N6 P7 P8 P6 N7 N5 M5 M4
 Q6 -> 88.07 - Q6 C3 C4 D3 F3 E3
 R7 -> 87.14 - R7 R17 R16 Q17 O17 P17 P16
]LB[oq:A][pn:B][qm:C];C[Winrate Black:  87.50%
|############################____|


 Leela's Suggestions: C3 C4 D3 F3 E3 E4 F2 C12 F4 G3 G2 H3 F5 H5 D6 B3 B2


 Alternatives: 
 C3 -> 87.85 - C3 C4 D3 F3 E3 E4 F2 C12 F4 G3 G2 H3 F5 H5 D6 B3 B2
 R7 -> 89.06 - R7 Q6 P7 P3 O4 O5 P5 P6 O6 N5 P4 Q3 L3
 F3 -> 87.93 - F3 P3 O4 Q6 C6 D6 D7 E6 C5 C4 E2 D2
 C6 -> 87.7 - C6 F3 R7 Q6 P7 P3 O4 O5 P4 Q3 P5 P6
 R17 -> 88.33 - R17 Q17 R16 R14 R15 Q15 S14 P3 O4 Q6 O7 O6 N6 P7 P8
 Q6 -> 88.78 - Q6 R7 R5 Q5 S5 R8 R3 Q3 R2 Q2
 Q2 -> 87.53 - Q2 R7 Q9 R3 F3 C6 D3
 H16 -> 87.95 - H16 F15 R7 Q6 P7 O4
 R14 -> 87.63 - R14 P3 O4 Q6 P7 O5 R7
 P5 -> 87.31 - P5 P3 O2 Q6 P6
]LB[cq:A][qm:B][fq:C][cn:D][qc:E][pn:F][pr:G][hd:H][qf:J][oo:K]W[fq]WL[883.833];B[dn]BL[845.729]C[Winrate Black:  88.12%
|############################____|


 Leela's Suggestions: P3 O4 Q6 C6 D6 D7 E6 C5 C4 E2 D2 C2 F4 D3


 Alternatives: 
 P3 -> 88.94 - P3 O4 Q6 C6 D6 D7 E6 C5 C4 E2 D2 C2 F4 D3
 C6 -> 88.31 - C6 R7 Q6 P7 P3 O4 O5 M4 O6 M6 O7 R11 K3 J4 K4 K5
 D6 -> 86.2 - D6 R7 Q6 P7 O4 N4 O5
 Q6 -> 85.9 - Q6 C6 F4 G4 F5 D3
 R7 -> 85.45 - R7 C6 F4 G4 F5 D3
 E3 -> 85.17 - E3 F4 D6 C8 K3 B5 E2
 C7 -> 84.54 - C7 R7 Q6 P7 P3
 C12 -> 83.27 - C12 C6 F4 G4
]LB[oq:A][cn:B][dn:C][pn:D][qm:E][eq:F][cm:G][ch:H];C[Winrate Black:  87.42%
|###########################_____|


 Leela's Suggestions: E5 D5 D2 P3 O4 Q6 O7 C12 C10 D13 F16 G16 F15 G15


 Alternatives: 
 E5 -> 87.99 - E5 D5 D2 P3 O4 Q6 O7 C12 C10 D13 F16 G16 F15 G15
 R7 -> 88.25 - R7 Q6 P7 O4 N4 O5 Q3 R3 P3 R2 P4 P6 O6 N5 P5
 R17 -> 87.75 - R17 Q17 R16 R14 R15 Q15 S14 C12 F16 G16 F15 G15 G14 F14
 Q6 -> 88.91 - Q6 R7 R5 Q5 S5 R8 R3 Q3 R2 O4 N4 O5
 Q2 -> 86.83 - Q2 R7 Q9 R3 R8 P8 Q8 O4
 R14 -> 87.17 - R14 P3 O4 Q6 P7 O5 R7
 P5 -> 87.44 - P5 R7 Q8 Q3 R8 R14 S4 Q5 Q6
 C8 -> 87.7 - C8 P3 O4 Q6 O7 P7 P8
 C3 -> 87.78999999999999 - C3 D3 D2 E2 C2 E3 B5 P3 O4 Q6
]LB[eo:A][qm:B][qc:C][pn:D][pr:E][qf:F][oo:G][cl:H][cq:J]W[cl]WL[878.751];B[iq]BL[838.024]C[Winrate Black:  88.11%
|############################____|


 Leela's Suggestions: P3 O4 Q6 E5 D5 D2 C3 E8 F7 J4 P7 F8


 Alternatives: 
 P3 -> 89.26 - P3 O4 Q6 E5 D5 D2 C3 E8 F7 J4 P7 F8
 Q6 -> 87.89 - Q6 D2 C3 F5 E7 D10 G4 F4 G3
 E3 -> 87.99 - E3 F4 D8 D9 E8 C7 C6 K4 D11 E9 F9 F10 E10
 E2 -> 87.11 - E2 R7 Q6 P7 P3 O4 O5 K3 O6
 D13 -> 87.56 - D13 C13 D11 E8 C12 F16 G16 F15 G15
 H3 -> 86.98 - H3 F5 E7 J4 H4 H5 J5 J3 J2 K2
 C12 -> 86.99 - C12 E8 E12 F16 G16 F15
 R7 -> 86.84 - R7 D2 C3 H4 K3
 G4 -> 85.93 - G4 F4 F5 G5 H4 E5
 J3 -> 85.57 - J3 D2 C3 F5 E7
]LB[oq:A][pn:B][eq:C][er:D][dg:E][hq:F][ch:G][qm:H][gp:J][iq:K];C[Winrate Black:  87.72%
|############################____|


 Leela's Suggestions: E5 D5 D2 C3 G5 M3 C2 G3 G2 F4 G4


 Alternatives: 
 E5 -> 87.77 - E5 D5 D2 C3 G5 M3 C2 G3 G2 F4 G4
 D2 -> 88.26 - D2 C3 F5 E7 D10 G4 F4 H6 F7 C7
 F5 -> 87.8 - F5 E7 D2 M3 D10 C3 C2 G4 F4
 Q2 -> 87.51 - Q2 M3 R7 Q6 P7 O4 N3 N4 M2
 D3 -> 87.84 - D3 C3 C2 E3 D2 E4 E2 B3 F4 G2 F2 M3 B6 B5 C6
 Q6 -> 88.05 - Q6 R7 Q8 Q5 R8 O4 N4 O5 Q2
 R7 -> 88.08 - R7 Q6 P7 P3 O4 O5 P4 Q3 P5
 R17 -> 87.92 - R17 Q17 R16 Q15 R15 Q14 R14 R13
 L3 -> 88.6 - L3 P3 O4 Q6 E5 D5 D2 C3
 H4 -> 87.95 - H4 J4 J5 K5 H3 L4 D2 C3 C2
 E7 -> 88.44 - E7 G4 F4 F5 G5 F6 H4 G3
]LB[eo:A][dr:B][fo:C][pr:D][dq:E][pn:F][qm:G][qc:H][kq:J][hp:K][em:L]W[fo]WL[876.342];B[em]BL[835]C[Winrate Black:  89.51%
|############################____|


 Leela's Suggestions: E7 D2 C3 D10 G4 F4 H6 F7 C7


 Alternatives: 
 E7 -> 89.13 - E7 D2 C3 D10 G4 F4 H6 F7 C7
 E3 -> 88.49 - E3 F2 E7 J5 M3 O5 M5 Q6 R7 R5 Q5
 M3 -> 88.79 - M3 E7 C7 B8 D2 E6 G4 E3 D3 D7
 D8 -> 87.31 - D8 D9 E8 C7 C6 D2 C3 C2 M3 C10 B2 B4 B3
 G4 -> 87.13 - G4 F4 D8 D9 E8 C7 C6 D2 C3 C2 M3 D7 E6
 E2 -> 87.89 - E2 E7 F2 H3 H2 J4 K3
]LB[em:A][eq:B][lq:C][dl:D][gp:E][er:F];C[Winrate Black:  88.87%
|############################____|


 Leela's Suggestions: D2 C3 D10 G4 F4 M3 C2 B7 C5


 Alternatives: 
 D2 -> 89.36 - D2 C3 D10 G4 F4 M3 C2 B7 C5 B5
 C5 -> 89.31 - C5 D5 C3 D3 D2 C4 B2 B3 C2 D9 C10 P3 O4 Q6 O7 P7
 J5 -> 89.53999999999999 - J5 M3 O5 Q6 P7 M5 R7 Q2 M7 D9 C10
 L3 -> 89.64 - L3 J5 F7 D9 C10 P3 O4 Q6
 D10 -> 89.45 - D10 M3 D2 C3 C2 G4 F4 B7 C5
 K4 -> 89.91 - K4 J4 J5 H5 K3 G4 H6 F4 E4 E5 E3 G6 J2 J6
 R17 -> 89.03999999999999 - R17 Q17 R16 R14 R15 Q15 S14 M3 D2 C3 C2 D9
 Q6 -> 89.52 - Q6 R7 R5 Q5 S5 R8 R3 Q3
 R7 -> 89.24 - R7 Q6 P7 P3 O4 O5 M4 O6 K4 J4
 F7 -> 89.84 - F7 F8 G7 M3 O5 Q6 P7 S8 K4 K3
 D3 -> 89.84 - D3 C3 C2 E3 D2 E4 E2 F4 G3 G4 D11 P3
]LB[dr:A][co:B][io:C][kq:D][dj:E][jp:F][qc:G][pn:H][qm:J][fm:K][dq:L]W[kq]WL[867.954];B[gp]BL[819.21]C[Winrate Black:  89.34%
|############################____|


 Leela's Suggestions: J5 F7 D9 C10 P3 O4 Q6 O7 E3 G2


 Alternatives: 
 J5 -> 89.99 - J5 F7 D9 C10 P3 O4 Q6 O7 E3 G2
 P3 -> 90.65 - P3 O4 Q6 D2 D9 C10 J5 O7 C3 F7 J7
 E3 -> 89.26 - E3 G2 E2 C5 C6 B6 B7 B4 A6 B5
 D9 -> 90.19 - D9 C10 J5 D2 C3 F7 P3 O4 Q6
 G4 -> 88.28 - G4 F4 D2 F7 D9 C5 D5 C3
 E2 -> 88.65 - E2 F2 J5 F7 F8 G7
 C12 -> 88.37 - C12 E8 F8 E9 F9 E11
 K4 -> 88.24 - K4 D2 C3 C2 L4
 G6 -> 87.83 - G6 H4 J4 H5 K5
]LB[io:A][oq:B][eq:C][dk:D][gp:E][er:F][ch:G][jp:H][gn:J];C[Winrate Black:  88.90%
|############################____|


 Leela's Suggestions: F4 D2 F7 D9 C10 J5 F8 D10 C11 D11


 Alternatives: 
 F4 -> 89.18 - F4 D2 F7 D9 C10 J5 F8 D10 C11 D11
 D3 -> 90.77 - D3 C3 C2 C4 E2 F4 D11 P3 O4
 R7 -> 89.14 - R7 Q6 F4 D2 C5 D5
 E5 -> 90.19 - E5 D5 E3 D3 G6 J5 H7
]LB[fp:A][dq:B][qm:C][eo:D]W[fp]WL[859.795];B[io]BL[817.601]C[Winrate Black:  89.62%
|############################____|


 Leela's Suggestions: D2 F7 D9 C10 J5 F8 D10 C11 H7 G9 D11


 Alternatives: 
 D2 -> 89.71 - D2 F7 D9 C10 J5 F8 D10 C11 H7 G9 D11
 H6 -> 89.61 - H6 F7 D9 F8 C9 B7 C5 B9 C11 B10 D12 E11 D11
 G6 -> 87.96 - G6 G5 H5 H6 J5 F6 D9 G7 C9 L6 N4 L4
 C3 -> 89.36 - C3 F7 F8 G7 L4 M4 L5 K3
 D9 -> 88.9 - D9 C5 D5 C3 D3 D2 C4 B2 B3 C2 C11
 J5 -> 88.38 - J5 F7 D9 F8 C9 J7 D2 L6
 L4 -> 88.21 - L4 M4 L5 K3 J4 K4 K5 J5 H5
 E2 -> 87.95 - E2 F2 H6 F7 D9 F8 C9
]LB[dr:A][hn:B][gn:C][cq:D][dk:E][io:F][kp:G][er:H];C[Winrate Black:  89.09%
|############################____|


 Leela's Suggestions: F7 D9 F8 C9 C5 D5 C3 D3 C4 C6 D2 E2


 Alternatives: 
 F7 -> 89.45 - F7 D9 F8 C9 C5 D5 C3 D3 C4 C6 D2 E2
 D2 -> 89.28 - D2 C3 C2 D9 C5 D5 B3 B4 C4 D3 B5
 C5 -> 89.5 - C5 D5 G6 D9 J7 L4 M3 L6 K4
 G6 -> 89.9 - G6 D9 C5 D5 H7 K6 K7 L7
 H6 -> 90.28999999999999 - H6 J6 H8 D9 C10
]LB[fm:A][dr:B][co:C][gn:D][hn:E]W[gn]WL[856.13];B[im]BL[807.737]C[Winrate Black:  90.36%
|############################____|


 Leela's Suggestions: D9 C5 D5 J7 L4 M3 L6 K4 K3


 Alternatives: 
 D9 -> 90.58 - D9 C5 D5 J7 L4 M3 L6 K4 K3
 D2 -> 89.9 - D2 H7 K6 K7 L7 K8 M4 M3 N4 O4 O5
 J7 -> 90.12 - J7 G8 D9 C5 D5 C3 D3 C2 C4 D2 C11 L5
 H7 -> 90.07 - H7 F8 D9 C5 D5 C3 D3 D2 C4 B2 B3 C2 C11
 E2 -> 89.21 - E2 F2 J7 G8 D9 C10 D3 C2
 M4 -> 87.56 - M4 L4 L5 M5 L6 N5 D2 J6
 P3 -> 89.27 - P3 O4 Q6 O7 J7 G8 D9 C5
 N4 -> 87.06 - N4 O4 L4 K4
 L5 -> 88.08 - L5 C5 D5 D2 C3
]LB[dk:A][dr:B][im:C][hm:D][er:E][lp:F][oq:G][mp:H][ko:J];C[Winrate Black:  89.84%
|############################____|


 Leela's Suggestions: G8 D9 C5 D5 C3 D3 C2 C4 D2 C11 L5 P3 O4 Q6


 Alternatives: 
 G8 -> 90.38 - G8 D9 C5 D5 C3 D3 C2 C4 D2 C11 L5 P3 O4 Q6 P7
 C5 -> 89.72 - C5 D5 G8 D9 C3 D3 C2 C4 D2 C11 L5
 D2 -> 89.74 - D2 C3 G8 D9 C10 C2 C5 C6 B6
 H8 -> 90.58 - H8 D9 C10 D2 F8 J8 H9
 F8 -> 90.63 - F8 D9 C5 D5 C3 D3 D2 C4 B2 B3 C2 C11 B10
 K6 -> 89.99 - K6 J6 G8 D9 C10 D2 H9 J9
]LB[gl:A][co:B][dr:C][hl:D][fl:E][jn:F]W[gl]WL[853.077];B[ek]BL[805.05]C[Winrate Black:  90.71%
|#############################___|


 Leela's Suggestions: D9 C5 D5 C3 D3 C2 C4 D2 C11 L5 P3 O4 Q6 P7


 Alternatives: 
 D9 -> 90.63 - D9 C5 D5 C3 D3 C2 C4 D2 C11 L5 P3 O4 Q6 P7
 D2 -> 89.84 - D2 C5 D5 C3 D3 B6 C4 B4 B3 B2 C2 A3 E9 C10 D11
 E9 -> 90.48 - E9 C5 D5 C3 D3 D2 C4 B2 B3 C2 C10 C11 B11
 P3 -> 89.4 - P3 O4 Q6 C5 D5 D2 D9 C4 C6
 E2 -> 89.11 - E2 F2 D9 C10 D3 C2 D2 C5
 C3 -> 89.12 - C3 C5 D5 C6 D9 C9 D10
 D8 -> 89.04 - D8 C7 C6 C10 D2
]LB[dk:A][dr:B][ek:C][oq:D][er:E][cq:F][dl:G];C[Winrate Black:  89.96%
|############################____|


 Leela's Suggestions: C5 D5 C3 D3 D2 C4 B2 B3 C2 C10 C11 B11 D10 D9 B10 C9


 Alternatives: 
 C5 -> 90.48 - C5 D5 C3 D3 D2 C4 B2 B3 C2 C10 C11 B11 D10 D9 B10 C9
 C11 -> 91.26 - C11 D2 H9 J9 J10 K9 C5 D5 C6 C4 E2
 D10 -> 90.8 - D10 D2 C5 D5 C6 C4 H9 J9 J10
 D2 -> 90.06 - D2 C10 C5 D5 C4 C6 D3 C12 L5 P3 O4 Q6
 L5 -> 89.97 - L5 J9 G10 C10 C5 D5 C3 D3
 H9 -> 90.12 - H9 C10 C5 D5 C4 C3 B3 D2 C2 D3
 K6 -> 90.28999999999999 - K6 J6 C5 D5 C3 D3 D2 C4
 C10 -> 90.81 - C10 D2 C5 D5 C6 C4
]LB[co:A][ci:B][dj:C][dr:D][ko:E][hk:F][jn:G][cj:H]W[dj]WL[848.67];B[ej]BL[801.466]C[Winrate Black:  91.22%
|#############################___|


 Leela's Suggestions: D2 C5 D5 C3 D3 B6 E10 H9 D11 C2 K9 H11 D13


 Alternatives: 
 D2 -> 91.27 - D2 C5 D5 C3 D3 B6 E10 H9 D11 C2 K9 H11 D13
 E10 -> 91.11 - E10 D11 D2 H9 B7 L5 J9 J10 K9 K10 L9
 P3 -> 90.1 - P3 O4 Q6 O7 D2 C5 D5 C6 C4 H9
 J9 -> 88.25 - J9 C5 D5 D2 C3 C2 B2
 E2 -> 88.5 - E2 F2 D3 C2 D2 C5
 C3 -> 89.68 - C3 C5 D5 C6 E10
 D9 -> 88.95 - D9 C9 D2 C5 D5 C6 C4
 M4 -> 88.51 - M4 L4 L5 M5 N4 K5 L6
]LB[dr:A][ej:B][oq:C][ik:D][er:E][cq:F][dk:G][lp:H];C[Winrate Black:  90.96%
|#############################___|


 Leela's Suggestions: D11 D2 H9 B7 L5 J9 J10 K9 K10 L9 L10 M9 M10 N9 O11 P10


 Alternatives: 
 D11 -> 91.16 - D11 D2 H9 B7 L5 J9 J10 K9 K10 L9 L10 M9 M10 N9 O11 P10
 C5 -> 90.92 - C5 D5 D11 D2 C6 C4 H9 K9
]LB[di:A][co:B]W[di]WL[846.364];B[gj]BL[785.548]C[Winrate Black:  89.66%
|############################____|


 Leela's Suggestions: D2 H9 B7 L5 J9 J10 K9 K10 L9 L10 M9 M10 N9 Q2 O4 N4


 Alternatives: 
 D2 -> 91.97 - D2 H9 B7 L5 J9 J10 K9 K10 L9 L10 M9 M10 N9 Q2 O4 N4
 H9 -> 90.66 - H9 G9 G10 H10 J9 F10 G11 F11 E11 F12 E12 H12
 E11 -> 89.92 - E11 D2 C3 C2 P3 O4 Q6 O7 P7
 P3 -> 90.33 - P3 O4 Q6 C5 D5 D2 C3 C2 B2 B4 B3 C7
 E2 -> 89.91 - E2 F2 D3 C2 D2 C5 D5 H9
 J9 -> 89.02 - J9 G10 E11 C5 D5
 C3 -> 90.29 - C3 C5 D5 C6 H9 G9
 D3 -> 89.89 - D3 H9 J9 J10 K9 C5
 M4 -> 89.31 - M4 L4 L5 M5 N4 K5
]LB[dr:A][hk:B][ei:C][oq:D][er:E][ik:F][cq:G][dq:H][lp:J];C[Winrate Black:  90.22%
|############################____|


 Leela's Suggestions: H9 D2 C5 D5 C6 C4 H10 M6 Q2 M4 M3


 Alternatives: 
 H9 -> 89.39 - H9 D2 C5 D5 C6 C4 H10 K9 L5 L6 M6 L7
 D2 -> 89.75 - D2 C3 C2 P3 O4 Q6 O7 J9 C5 D5 B3 B4
 C5 -> 89.88 - C5 D5 D2 C3 C2 B2 H9 B7 L5 L6 M6 L7 K5
 H10 -> 89.84 - H10 H11 H9 J11 K9 M6
]LB[hk:A][dr:B][co:C][hj:D]W[dq]WL[842.529];B[cq]BL[781.533]C[Winrate Black:  91.32%
|#############################___|


 Leela's Suggestions: C3 D2 C5 C2 P3 O4 Q6 O7 P7 P8 P6 O6 O8 P9 O9 P10 O10


 Alternatives: 
 C3 -> 91.47 - C3 D2 C5 C2 P3 O4 Q6 O7 P7 P8 P6 O6 O8 P9 O9 P10 O10
 P3 -> 89.41 - P3 O4 Q6 C3 O6 L5 J9 L7 M6
 E13 -> 84.97 - E13 C3 C13 D13
]LB[cq:A][oq:B][eg:C];C[Winrate Black:  92.87%
|#############################___|


 Leela's Suggestions: D2 C5 C2 P3 O4 Q6 O7 P7 P8 P6 O6 O8 P9 N8 M7 O10 P10 O11


 Alternatives: 
 D2 -> 90.63 - D2 C5 C2 P3 O4 Q6 O7 P7 P8 P6 O6 O8 P9 N8 M7 O10 P10 O11
 C4 -> 94.2 - C4 C5 B4 D2 E3 B3 H9 K9 H10 P3 O4 Q6 O7 P7 P8 P6
 C5 -> 90.8 - C5 D5 C4 B3 C6 E3 D2 E2 F2 D1
 C2 -> 93.39 - C2 D2 E3 B2 C4 B3 D5 C5 E4 B5 E2 C1 H9 K9 H10 P3 O4
]LB[dr:A][cp:B][co:C][cr:D]W[cr]WL[841.389];B[cp]BL[778.865]C[Winrate Black:  87.56%
|############################____|


 Leela's Suggestions: D2 E3 B2 C4 B3 D5 C5 E4 B5 H9 K9 H10 P3 O4 Q6 O7 M6 P6


 Alternatives: 
 D2 -> 94.34 - D2 E3 B2 C4 B3 D5 C5 E4 B5 E2 C1 H9 K9 H10 P3 O4 Q6 O7 M6 P6
 B2 -> 88.98 - B2 D2 B4 C5 C6 C4 B3 D5 B5 E5
 P3 -> 90.66 - P3 O4 Q6 O7 D2 E3 B2 C4
 B3 -> 85.87 - B3 E2 P3
 C4 -> 86.01 - C4 E2 P3


 
--- Top-16 mistake (most impact) ---
move 30, lost -5.310000000000002% winrate. winrate: 87.56
 play black C4
 Alternatives: 
  D2 E3 B2 C4 B3 D5 C5 E4 B5 E2 C1 H9 K9 H10 P3 O4 Q6 O7 M6 P6 -> 94.34 (for black)
  B2 D2 B4 C5 C6 C4 B3 D5 B5 E5 -> 88.98 (for black)
  P3 O4 Q6 O7 D2 E3 B2 C4 -> 90.66 (for black)
  B3 E2 P3 -> 85.87 (for black)
  C4 E2 P3 -> 86.01 (for black)]LB[dr:A][br:B][oq:C][bq:D][cp:E];C[Winrate Black:  87.12%
|###########################_____|


 Leela's Suggestions: E2 P3 O4 Q6 O7 J9 R17 Q17 R16 R15 S15 S14 R14 Q15 S13 S16 T14


 Alternatives: 
 E2 -> 87.63 - E2 P3 O4 Q6 O7 J9 R17 Q17 R16 R15 S15 S14 R14 Q15 S13 S16 T14
 B2 -> 87.11 - B2 P3 O4 Q6 O7 J9 P6 R7 Q8 R9 R17 Q17 R16 R15
]LB[er:A][br:B]W[er]WL[831.373];B[cm]BL[768.863]C[Winrate Black:  82.38%
|##########################______|


 Leela's Suggestions: P3 O4 Q6 O7 J9 R17 Q17 R16 R15 S15 S14 R14 Q15 S13 S16 T14 S17 R18 S18 Q14 P7 P8 P6


 Alternatives: 
 P3 -> 88.21 - P3 O4 Q6 O7 J9 R17 Q17 R16 R15 S15 S14 R14 Q15 S13 S16 T14 S17 R18 S18 Q14 P7 P8 P6
 M4 -> 85.56 - M4 L4 M3 M2 N2 L2 N3 K6
 J9 -> 85.89 - J9 Q2 R7 Q9 Q8 P8 R8
 E13 -> 85.98 - E13 D12 P3 O4 Q6 O7 J9 P6 R7 Q8
 B2 -> 86.33 - B2 B1 P3 O4 Q6 O7 J9 R17 Q17
 P2 -> 86.56 - P2 L5 J9 O2 P3 P5 Q6
 M6 -> 85.52 - M6 Q2 O4 N3 R2
 L5 -> 84.11 - L5 Q2 R7 R17 Q17


 
--- Top-18 mistake (most impact) ---
move 32, lost -4.740000000000009% winrate. winrate: 82.38
 play black C7
 Alternatives: 
  P3 O4 Q6 O7 J9 R17 Q17 R16 R15 S15 S14 R14 Q15 S13 S16 T14 S17 R18 S18 Q14 P7 P8 P6 -> 88.21 (for black)
  M4 L4 M3 M2 N2 L2 N3 K6 -> 85.56 (for black)
  J9 Q2 R7 Q9 Q8 P8 R8 -> 85.89 (for black)
  E13 D12 P3 O4 Q6 O7 J9 P6 R7 Q8 -> 85.98 (for black)
  B2 B1 P3 O4 Q6 O7 J9 R17 Q17 -> 86.33 (for black)
  P2 L5 J9 O2 P3 P5 Q6 -> 86.56 (for black)
  M6 Q2 O4 N3 R2 -> 85.52 (for black)
  L5 Q2 R7 R17 Q17 -> 84.11 (for black)]LB[oq:A][lp:B][ik:C][eg:D][br:E][or:F][ln:G][ko:H];C[Winrate Black:  82.35%
|##########################______|


 Leela's Suggestions: D8 F7 D7 B7 E6 B8 B9 B10 C9 A9 C6 B6 D5 B2 B1


 Alternatives: 
 D8 -> 82.01 - D8 F7 D7 B7 E6 B8 B9 B10 C9 A9 C6 B6 D5 B2 B1
 Q2 -> 82.83 - Q2 R7 D8 E8 Q9 M4
 R7 -> 83.65 - R7 Q6 P7 P3 O4 O5 P5 P6
 R17 -> 83.33 - R17 Q17 R16 R14 R15 Q15 S14 P3
 L5 -> 84.15 - L5 P3 O4 Q6 P7 S8 D8
 Q6 -> 83.6 - Q6 R7 R8 Q5 Q8
]LB[dl:A][pr:B][qm:C][qc:D][ko:E][pn:F]W[qm]WL[820.299];B[pn]BL[766.007]C[Winrate Black:  84.11%
|##########################______|


 Leela's Suggestions: Q6 P7 P3 O4 O5 P5 P6 O6 N5 P4 Q3 L5 M6 O7


 Alternatives: 
 Q6 -> 83.6 - Q6 P7 P3 O4 O5 P5 P6 O6 N5 P4 Q3 L5 M6 O7
 P3 -> 82.95 - P3 O4 Q6 P6 P7 O6 P8 S7 S6 R10 O2 N2 P2 N8 J9 D8 F7
 C9 -> 81.27 - C9 Q2 Q6 P7 O4 N3 R3
]LB[pn:A][oq:B][ck:C];C[Winrate Black:  83.30%
|##########################______|


 Leela's Suggestions: P7 P3 O4 O5 P5 P6 O6 N5 P4 Q3 O7 M4 M3


 Alternatives: 
 P7 -> 83.7 - P7 P3 O4 O5 P5 P6 O6 N5 P4 Q3 O7 M4 M3
 Q2 -> 84.86 - Q2 P7 P8 O7 Q9 N3 N4 M3 M4 L2 O2 L4 O5
 D8 -> 83.67 - D8 F7 Q2 P7 P8 Q8 S7 R8 S8 R10 S6
 Q3 -> 83.0 - Q3 R3 R2 P3 Q2 P4 P2 P7 P8 Q8 S7 R8 S8 R10 Q10 R9 R11
 P6 -> 84.41 - P6 P5 O5 O6 P7 O4 N5 N4 M5 M4 L4 L5
 L5 -> 85.83 - L5 P3 O4 P7 P6
]LB[om:A][pr:B][dl:C][pq:D][on:E][ko:F]W[om]WL[817.041];B[no]BL[755.45]C[Winrate Black:  83.27%
|##########################______|


 Leela's Suggestions: P3 O4 O5 P5 P6 O6 N5 P4 Q3 L5 M6 O7 L6 O2 S7 S8 S6 R2


 Alternatives: 
 P3 -> 84.0 - P3 O4 O5 P5 P6 O6 N5 P4 Q3 L5 M6 O7 L6 O2 S7 S8 S6 R2
 P2 -> 84.13 - P2 P6 O2 D8 F7 G7 B8 B9
 Q2 -> 83.78 - Q2 D8 F7 G7 O5 L5 J9 L7
 N4 -> 83.24 - N4 O4 O5 N5 O6 M5 M7 Q2 R11 N8 N6 L5 M8
 O4 -> 83.11 - O4 N4 O5 Q3 R3 P3 R2 P4
 C9 -> 81.2 - C9 Q2 O4 N4 O5 N5
 M4 -> 83.33 - M4 L4 O4 P3 Q3 P4 P5
]LB[oq:A][or:B][pr:C][mp:D][np:E][ck:F][lp:G];C[Winrate Black:  83.97%
|##########################______|


 Leela's Suggestions: Q2 N3 N2 O2 N4 P3 O4 P2 P5 P6 O6 N5


 Alternatives: 
 Q2 -> 82.94 - Q2 N3 N2 O2 N4 P3 O4 P2 P5 P6 O6 N5
 L5 -> 84.22 - L5 P2 L7 J9 R14 Q14 Q13
 D8 -> 81.93 - D8 P2 L5 F7 G7 J9 L7 G9 R14 Q14 Q13
 Q3 -> 84.14 - Q3 R3 R2 P3 Q2 P2 R4 P4 S4 M6 O2
 K6 -> 83.2 - K6 L4 M4 L5 M5 L6
 R14 -> 86.0 - R14 P2 L5 H7 D8 G7 R17
]LB[pr:A][ko:B][dl:C][pq:D][jn:E][qf:F]W[lo]WL[811.929];B[ik]BL[742.905]C[Winrate Black:  81.74%
|##########################______|


 Leela's Suggestions: P2 D8 E8 M7 J9 R14 Q14 Q13 P14 R16 R17 R15


 Alternatives: 
 P2 -> 85.28 - P2 D8 E8 M7 J9 R14 Q14 Q13 P14 R16 R17 R15
 P3 -> 85.15 - P3 O4 O6 M7 N8 M8 J9 N9 O8 O7 N7 N6 O9
 N4 -> 84.69 - N4 P2 Q2 R2 Q3 Q1 M4 L4 N2 M2
 N6 -> 84.41 - N6 M6 N7 M7 N8 M8 J9 N9 O9 O10 P9 R10 P10
 Q2 -> 83.91 - Q2 D8 E8 M7 J9 R14
 J9 -> 80.61 - J9 Q2 R3 R2 N6 R11
 N7 -> 86.55 - N7 


 
--- Top-28 mistake (most impact) ---
move 38, lost -2.230000000000004% winrate. winrate: 81.74
 play black J9
 Alternatives: 
  P2 D8 E8 M7 J9 R14 Q14 Q13 P14 R16 R17 R15 -> 85.28 (for black)
  P3 O4 O6 M7 N8 M8 J9 N9 O8 O7 N7 N6 O9 -> 85.15 (for black)
  N4 P2 Q2 R2 Q3 Q1 M4 L4 N2 M2 -> 84.69 (for black)
  N6 M6 N7 M7 N8 M8 J9 N9 O9 O10 P9 R10 P10 -> 84.41 (for black)
  Q2 D8 E8 M7 J9 R14 -> 83.91 (for black)
  J9 Q2 R3 R2 N6 R11 -> 80.61 (for black)
  N7  -> 86.55 (for black)]LB[or:A][oq:B][mp:C][mn:D][pr:E][ik:F][mm:G];C[Winrate Black:  89.48%
|############################____|


 Leela's Suggestions: Q2 R3 R2 N6 K6 J6 K8 J8 N8 M6 L6 M8 M9 L8


 Alternatives: 
 Q2 -> 81.43 - Q2 R3 R2 N6 R11 R13 P11 P17 D8 F7 R15
 K6 -> 80.92 - K6 J6 Q2 R3 R2 N6 K8 J8 N8 M6 L6 M8
 K8 -> 82.82 - K8 H7 Q2 R3 R2 N6 N8 M6 R14 Q11
 D8 -> 81.59 - D8 F7 Q2 R3 R2 N6 R11 R13
 Q3 -> 83.4 - Q3 R3 R2 Q2 P3 S2


 
--- Top-12 mistake (most impact) ---
move 39, lost 7.740000000000009% winrate. winrate: 89.48
 play white B2
 Alternatives: 
  Q2 R3 R2 N6 R11 R13 P11 P17 D8 F7 R15 -> 81.43 (for white)
  K6 J6 Q2 R3 R2 N6 K8 J8 N8 M6 L6 M8 -> 80.92 (for white)
  K8 H7 Q2 R3 R2 N6 N8 M6 R14 Q11 -> 82.82 (for white)
  D8 F7 Q2 R3 R2 N6 R11 R13 -> 81.59 (for white)
  Q3 R3 R2 Q2 P3 S2 -> 83.4 (for white)]LB[pr:A][jn:B][jl:C][dl:D][pq:E]W[br]WL[804.546];B[ep]BL[731.432]C[Winrate Black:  77.52%
|########################________|


 Leela's Suggestions: P2 D8 E8 O2 P3 R14 Q14 Q13 P14 R17 R15


 Alternatives: 
 P2 -> 90.62 - P2 D8 E8 O2 P3 R14 Q14 Q13 P14 R17 R15
 P3 -> 90.37 - P3 O4 O6 K6 J6 K8 J8 N8 M6 L6 M7
 C9 -> 88.77 - C9 Q2 R3 R2 N6 R11 R13 P11 P17 M6 N7
 Q2 -> 90.19 - Q2 D8 E8 R14 Q14 Q13 P14 R16 R17
 N6 -> 87.47 - N6 Q2 R10 P10 Q12
 N4 -> 88.15 - N4 P2 Q2 R2 Q3 Q1


 
--- Top-9 mistake (most impact) ---
move 40, lost -11.960000000000008% winrate. winrate: 77.52
 play black E4
 Alternatives: 
  P2 D8 E8 O2 P3 R14 Q14 Q13 P14 R17 R15 -> 90.62 (for black)
  P3 O4 O6 K6 J6 K8 J8 N8 M6 L6 M7 -> 90.37 (for black)
  C9 Q2 R3 R2 N6 R11 R13 P11 P17 M6 N7 -> 88.77 (for black)
  Q2 D8 E8 R14 Q14 Q13 P14 R16 R17 -> 90.19 (for black)
  N6 Q2 R10 P10 Q12 -> 87.47 (for black)
  N4 P2 Q2 R2 Q3 Q1 -> 88.15 (for black)]LB[or:A][oq:B][ck:C][pr:D][mn:E][mp:F];C[Winrate Black:  84.87%
|###########################_____|


 Leela's Suggestions: D8 E8 Q2 R3 R2 N6 R11 R13 P11 P17 R15 R16 P13


 Alternatives: 
 D8 -> 76.32 - D8 E8 Q2 R3 R2 N6 R11 R13 P11 P17 R15 R16 P13
 Q2 -> 78.12 - Q2 N6 K6 J6 K8 J8 N8 R3 R2 M6 R14 Q11
 K6 -> 78.37 - K6 J6 Q2 R3 R2 N6 K8 J8 N8
 Q3 -> 81.51 - Q3 R3 R2 Q2 P3 S2 R4 S3 P5
 G2 -> 85.13 - G2 P2 D8 E8 R14 Q14 Q13
 K8 -> 80.56 - K8 H7 D8 G7
 R14 -> 81.36 - R14 P2 D8 E8


 
--- Top-13 mistake (most impact) ---
move 41, lost 7.3500000000000085% winrate. winrate: 84.87
 play white H2
 Alternatives: 
  D8 E8 Q2 R3 R2 N6 R11 R13 P11 P17 R15 R16 P13 -> 76.32 (for white)
  Q2 N6 K6 J6 K8 J8 N8 R3 R2 M6 R14 Q11 -> 78.12 (for white)
  K6 J6 Q2 R3 R2 N6 K8 J8 N8 -> 78.37 (for white)
  Q3 R3 R2 Q2 P3 S2 R4 S3 P5 -> 81.51 (for white)
  G2 P2 D8 E8 R14 Q14 Q13 -> 85.13 (for white)
  K8 H7 D8 G7 -> 80.56 (for white)
  R14 P2 D8 E8 -> 81.36 (for white)]LB[dl:A][pr:B][jn:C][pq:D][gr:E][jl:F][qf:G]W[hr]WL[796.373];B[ir]BL[722.157]C[Winrate Black:  82.09%
|##########################______|


 Leela's Suggestions: P2 D8 E8 R14 Q14 Q13 P14 R16 R17 R15 Q17 K16 Q11 P13 O13 O12


 Alternatives: 
 P2 -> 86.45 - P2 D8 E8 R14 Q14 Q13 P14 R16 R17 R15 Q17 K16 Q11 P13 O13 O12
 P3 -> 86.14 - P3 D8 E8 R14 Q14 Q13 P14 S15 R17 P13 O13 O14 N13 N14
 E3 -> 85.77 - E3 D2 P2 D8 E8 R14 Q14 Q13 P14 S15 R17 P13 O13 O14
 C9 -> 85.96 - C9 Q2 R3 R2 N4 N3 M4 L4 L5
 N6 -> 86.07 - N6 R11 P2 D8 E8 O2
 R11 -> 83.85 - R11 D8 E8 Q2 N6 P11 Q13
 J2 -> 82.46 - J2 Q2 R3 R2 N6 R11 R13 P11
 Q2 -> 84.37 - Q2 D8 F7 G7
 R12 -> 84.13 - R12 D8 E8 Q2 R3 N7
 N4 -> 83.57 - N4 D8 E8 R14 N3 P2
 R13 -> 84.09 - R13 Q2 R3 R11 C9
 R14 -> 84.08 - R14 D8 E8 Q2


 
--- Top-26 mistake (most impact) ---
move 42, lost -2.780000000000001% winrate. winrate: 82.09
 play black J2
 Alternatives: 
  P2 D8 E8 R14 Q14 Q13 P14 R16 R17 R15 Q17 K16 Q11 P13 O13 O12 -> 86.45 (for black)
  P3 D8 E8 R14 Q14 Q13 P14 S15 R17 P13 O13 O14 N13 N14 -> 86.14 (for black)
  E3 D2 P2 D8 E8 R14 Q14 Q13 P14 S15 R17 P13 O13 O14 -> 85.77 (for black)
  C9 Q2 R3 R2 N4 N3 M4 L4 L5 -> 85.96 (for black)
  N6 R11 P2 D8 E8 O2 -> 86.07 (for black)
  R11 D8 E8 Q2 N6 P11 Q13 -> 83.85 (for black)
  J2 Q2 R3 R2 N6 R11 R13 P11 -> 82.46 (for black)
  Q2 D8 F7 G7 -> 84.37 (for black)
  R12 D8 E8 Q2 R3 N7 -> 84.13 (for black)
  N4 D8 E8 R14 N3 P2 -> 83.57 (for black)
  R13 Q2 R3 R11 C9 -> 84.09 (for black)
  R14 D8 E8 Q2 -> 84.08 (for black)]LB[or:A][oq:B][eq:C][ck:D][mn:E][qi:F][ir:G][pr:H][qh:J][mp:K][qg:L][qf:M];C[Winrate Black:  81.32%
|##########################______|


 Leela's Suggestions: Q2 R3 R2 N6 K6 J6 K8 J8 N8 M6 L6


 Alternatives: 
 Q2 -> 81.93 - Q2 R3 R2 N6 K6 J6 K8 J8 N8 M6 L6
 D8 -> 80.41 - D8 E8 Q2 R3 R2 N6 R11 R13 P11 P17
 K6 -> 82.15 - K6 J6 Q2 R3 R2 N6 K8 J8 N8 M6 L6
 H3 -> 84.9 - H3 P2 D8 E8 K6 J6 K8 J8
 K8 -> 84.67 - K8 H7 Q2 R3 R2 N6 N8
 Q3 -> 83.94 - Q3 R3 R2 Q2 P3 S2 R4 S3
]LB[pr:A][dl:B][jn:C][hq:D][jl:E][pq:F]W[pr]WL[794.541];B[qq]BL[711.707]C[Winrate Black:  82.09%
|##########################______|


 Leela's Suggestions: R3 R2 N6 K6 J6 K8 J8 N8 M6 L6


 Alternatives: 
 R3 -> 82.22 - R3 R2 N6 K6 J6 K8 J8 N8 M6 L6
 N4 -> 81.3 - N4 M2 N3 N2 P3 P2 O4 K4 J4 R3 O2 O1 N6 K6 J6 K8
 G2 -> 81.96 - G2 R3 N6 K6 J6 K8 N8 J8 K7 L7
 N6 -> 81.7 - N6 R3 M6 R11 R13 P11 P17 D8
 E3 -> 82.28 - E3 D2 G2 G3 H3 F2 N4 M2 N3 N2 P3 P2 O4
 N3 -> 81.68 - N3 N4 O4 O2 N6 M6 M7 L7 M8 K6 J6
 R2 -> 76.86 - R2 R3 Q3 S2 P2
]LB[qq:A][mp:B][gr:C][mn:D][eq:E][mq:F][qr:G];C[Winrate Black:  84.59%
|###########################_____|


 Leela's Suggestions: R2 N6 K6 J6 K8 J8 N8 M6 L6 M8 M9


 Alternatives: 
 R2 -> 82.65 - R2 N6 K6 J6 K8 J8 N8 M6 L6 M8 M9
 D8 -> 80.53999999999999 - D8 E8 R2 N6 R11 R13 P11 P17 R15 R16 P13 Q15
 K6 -> 82.49 - K6 J6 R2 N6 K8 J8 N8 M6 L6
 K8 -> 83.92 - K8 H7 R2 N6 N8 M6 R14 Q11
 R14 -> 84.76 - R14 Q14 Q13 P14 R16 R17 R15 Q17
 N7 -> 84.53999999999999 - N7 R2 R14 Q14 Q13 P14


 
--- Top-19 mistake (most impact) ---
move 45, lost 2.5% winrate. winrate: 84.59
 play white N6
 Alternatives: 
  R2 N6 K6 J6 K8 J8 N8 M6 L6 M8 M9 -> 82.65 (for white)
  D8 E8 R2 N6 R11 R13 P11 P17 R15 R16 P13 Q15 -> 80.53999999999999 (for white)
  K6 J6 R2 N6 K8 J8 N8 M6 L6 -> 82.49 (for white)
  K8 H7 R2 N6 N8 M6 R14 Q11 -> 83.92 (for white)
  R14 Q14 Q13 P14 R16 R17 R15 Q17 -> 84.76 (for white)
  N7 R2 R14 Q14 Q13 P14 -> 84.53999999999999 (for white)]LB[qr:A][dl:B][jn:C][jl:D][qf:E][mm:F]W[mn]WL[790.245];B[rn]BL[705.058]C[Winrate Black:  81.09%
|#########################_______|


 Leela's Suggestions: R2 D8 E8 R14 Q14 Q13 P14 S15 R17 P13 O13 O14 N13 N14


 Alternatives: 
 R2 -> 86.17 - R2 D8 E8 R14 Q14 Q13 P14 S15 R17 P13 O13 O14 N13 N14
 G2 -> 85.72 - G2 R2 S2 S4 S5 S3 T2 P5 R4 D8
 E3 -> 86.09 - E3 D2 G2 F2 C9 R2 S2 S4 S5 S3 T2 P5 R4 R14
 N4 -> 84.13 - N4 M2 N3 N2 P3 P2 O4 O2 R2 D8 E8 R14
 C9 -> 85.37 - C9 R2 S2 S4 S5 S3 T2 R4 Q3 P3
 O6 -> 84.82 - O6 O7 R2 R14 Q14 Q13 P14 R16 R17
 N3 -> 83.24 - N3 N4 M3 L2 O2 P3 O4
 R14 -> 82.69 - R14 R2 S2 S4 S5 S3 T2 D8 E8
 M2 -> 83.85 - M2 M3 L2 R2
 R13 -> 83.2 - R13 R2 S2 S4 S5 S3


 
--- Top-22 mistake (most impact) ---
move 46, lost -3.5% winrate. winrate: 81.09
 play black S6
 Alternatives: 
  R2 D8 E8 R14 Q14 Q13 P14 S15 R17 P13 O13 O14 N13 N14 -> 86.17 (for black)
  G2 R2 S2 S4 S5 S3 T2 P5 R4 D8 -> 85.72 (for black)
  E3 D2 G2 F2 C9 R2 S2 S4 S5 S3 T2 P5 R4 R14 -> 86.09 (for black)
  N4 M2 N3 N2 P3 P2 O4 O2 R2 D8 E8 R14 -> 84.13 (for black)
  C9 R2 S2 S4 S5 S3 T2 R4 Q3 P3 -> 85.37 (for black)
  O6 O7 R2 R14 Q14 Q13 P14 R16 R17 -> 84.82 (for black)
  N3 N4 M3 L2 O2 P3 O4 -> 83.24 (for black)
  R14 R2 S2 S4 S5 S3 T2 D8 E8 -> 82.69 (for black)
  M2 M3 L2 R2 -> 83.85 (for black)
  R13 R2 S2 S4 S5 S3 -> 83.2 (for black)]LB[qr:A][gr:B][eq:C][mp:D][ck:E][nn:F][mq:G][qf:H][lr:J][qg:K];C[Winrate Black:  81.42%
|##########################______|


 Leela's Suggestions: D8 E8 R2 S2 Q3 S4 R14 Q14 Q13 P14 S15 R17 K16 K17 M16


 Alternatives: 
 D8 -> 80.13 - D8 E8 R2 S2 Q3 S4 R14 Q14 Q13 P14 S15 R17 K16 K17 M16
 R2 -> 82.61 - R2 S2 Q3 S4 D8 E8 R14 Q14
 R14 -> 83.22 - R14 Q14 Q13 P14 R17 R15 Q17 O17 P17 O16
 K6 -> 80.5 - K6 J6 D8 F7 G7 G9 D7
 R17 -> 83.91 - R17 Q17 R16 Q15 S14 O6 O7
 K8 -> 83.61 - K8 H7 D8 G7 R14 Q14
]LB[dl:A][qr:B][qf:C][jn:D][qc:E][jl:F]W[qf]WL[787.603];B[nd]BL[691.145]C[Winrate Black:  80.30%
|#########################_______|


 Leela's Suggestions: Q14 Q13 P14 R17 R15 Q17 O17 O18 N18 P18 N17 D8 E8


 Alternatives: 
 Q14 -> 82.24 - Q14 Q13 P14 R17 R15 Q17 O17 O18 N18 P18 N17 D8 E8
 G2 -> 83.54 - G2 D8 E8 G3 H3 F2 O6 O7 N7 K6 J6 K8
 O6 -> 80.74 - O6 O7 N7 K6 J6 K8 N8 L8 J8 N9
 C9 -> 83.93 - C9 R17 Q17 R16 Q15 R18 O6 O7 N7 K6 J6 K8 J8
 E3 -> 82.75 - E3 D2 G2 F2 Q14 Q13 P14 R17
 N4 -> 80.67 - N4 M2 N3 N2 P3 P2 O4 O2 Q14
 R15 -> 82.08 - R15 Q14 O16 P18 Q17 M17 Q11
 N3 -> 79.76 - N3 N4 M3 L2
 S15 -> 79.79 - S15 D8 E8 O17
 R12 -> 80.23 - R12 P14 O16 P12
 O16 -> 79.94 - O16 R2 S2
]LB[pf:A][gr:B][nn:C][ck:D][eq:E][mp:F][qe:G][mq:H][re:J][qh:K][nd:L];C[Winrate Black:  83.19%
|##########################______|


 Leela's Suggestions: D8 E8 R2 S2 R17 R16 S16 Q17 S18 R18 S17 O6 O7 N7 K6


 Alternatives: 
 D8 -> 78.86 - D8 E8 R2 S2 R17 R16 S16 Q17 S18 R18 S17 O6 O7 N7 K6
 R2 -> 81.68 - R2 S2 Q3 S4 D8 E8 R17 R16 S16 Q17 S18
 R17 -> 81.9 - R17 R16 S16 Q17 S18 R18 S17 C9 P14 N14 K16 K14 J16
 P15 -> 82.41 - P15 P16 S16 O6 O7 N7 K6 J6 K8 K7 L7
 K6 -> 80.72 - K6 H7 D8 E8 R17
 R16 -> 82.32 - R16 R17 S17 R15 S16 Q15 S15 R18 Q14 O14
 S16 -> 83.28 - S16 R17 Q12 C9 R2
 K8 -> 82.7 - K8 H7 D8 G7 R17 R16


 
--- Top-18 mistake (most impact) ---
move 49, lost 2.8900000000000006% winrate. winrate: 83.19
 play white S7
 Alternatives: 
  D8 E8 R2 S2 R17 R16 S16 Q17 S18 R18 S17 O6 O7 N7 K6 -> 78.86 (for white)
  R2 S2 Q3 S4 D8 E8 R17 R16 S16 Q17 S18 -> 81.68 (for white)
  R17 R16 S16 Q17 S18 R18 S17 C9 P14 N14 K16 K14 J16 -> 81.9 (for white)
  P15 P16 S16 O6 O7 N7 K6 J6 K8 K7 L7 -> 82.41 (for white)
  K6 H7 D8 E8 R17 -> 80.72 (for white)
  R16 R17 S17 R15 S16 Q15 S15 R18 Q14 O14 -> 82.32 (for white)
  S16 R17 Q12 C9 R2 -> 83.28 (for white)
  K8 H7 D8 G7 R17 R16 -> 82.7 (for white)]LB[dl:A][qr:B][qc:C][oe:D][jn:E][qd:F][rd:G][jl:H]W[rm]WL[786.154];B[qr]BL[686.899]C[Winrate Black:  82.19%
|##########################______|


 Leela's Suggestions: R2 D8 E8 P15 P16 S16 P13 Q12 P12 Q11 P11 J16 K16 H17


 Alternatives: 
 C9 -> 86.87 - C9 R2 S2 S1 T2 S4 S3 P5 P6 O6 O4
 R2 -> 82.49 - R2 D8 E8 P15 P16 S16 P13 Q12 P12 Q11 P11 J16 K16 H17
 G2 -> 85.58 - G2 R2 S2 D8 E8 F2 R12 P15 P16
 S15 -> 84.28 - S15 R2 S2 S1 T2 S14 R15 P14 N14 O12
 O6 -> 82.4 - O6 O7 N4 M2 R2 D8 E8 P15
 R15 -> 83.35 - R15 Q14 R2 D8 E8 P18 Q17
 R12 -> 82.86 - R12 R2 S2 S1 T2 P5 P6 O6
 N4 -> 82.4 - N4 M2 N3 N2 P3 P2 O4 O2
 N3 -> 80.42 - N3 N4 M3 L2 O4 M4
 Q13 -> 81.9 - Q13 R2 S2 S1 T2
]LB[ck:A][qr:B][gr:C][re:D][nn:E][qe:F][qh:G][mp:H][mq:J][pg:K];C[Winrate Black:  86.07%
|###########################_____|


 Leela's Suggestions: D8 E8 P15 P16 S16 P13 Q12 P12 Q11 P11 J16 H17 L16 Q10 P10


 Alternatives: 
 D8 -> 81.22 - D8 E8 P15 P16 S16 P13 Q12 P12 Q11 P11 J16 H17 L16 Q10 P10
 P15 -> 83.55 - P15 P16 S16 P13 D8 E8 Q12 P12 Q11 P11 K16 Q10
 P14 -> 84.47 - P14 S16 N14 M10 K8
 K8 -> 83.53 - K8 J8 K6 J6 D8 F7 P15 P16 S16
 R17 -> 85.15 - R17 R16 S16 Q17 S18 R18 S17 O6 O7 N7
 S16 -> 84.26 - S16 O6 O7 N7 K6
 K6 -> 83.64 - K6 J6 K8 J8 D8
 R16 -> 86.49 - R16 R17 S17 R15 S16 Q14 S15
 O13 -> 84.81 - O13 S16 D8 E8
 P13 -> 86.15 - P13 R15 S14 S15 D8


 
--- Top-15 mistake (most impact) ---
move 51, lost 3.8799999999999955% winrate. winrate: 86.07
 play white M17
 Alternatives: 
  D8 E8 P15 P16 S16 P13 Q12 P12 Q11 P11 J16 H17 L16 Q10 P10 -> 81.22 (for white)
  P15 P16 S16 P13 D8 E8 Q12 P12 Q11 P11 K16 Q10 -> 83.55 (for white)
  P14 S16 N14 M10 K8 -> 84.47 (for white)
  K8 J8 K6 J6 D8 F7 P15 P16 S16 -> 83.53 (for white)
  R17 R16 S16 Q17 S18 R18 S17 O6 O7 N7 -> 85.15 (for white)
  S16 O6 O7 N7 K6 -> 84.26 (for white)
  K6 J6 K8 J8 D8 -> 83.64 (for white)
  R16 R17 S17 R15 S16 Q14 S15 -> 86.49 (for white)
  O13 S16 D8 E8 -> 84.81 (for white)
  P13 R15 S14 S15 D8 -> 86.15 (for white)]LB[dl:A][oe:B][of:C][jl:D][qc:E][rd:F][jn:G][qd:H][ng:J][og:K]W[lc]WL[773.25];B[mc]BL[662.169]C[Winrate Black:  82.86%
|##########################______|


 Leela's Suggestions: C9 P14 N15 P17 P16 Q18 Q17 O18 R18


 Alternatives: 
 C9 -> 88.5 - C9 P14 N15 P17 P16 Q18 Q17 O18 R18
 O6 -> 86.3 - O6 O7 N7 K6 J6 K8 N8 M7 J8 M9 N9
 G2 -> 88.59 - G2 D8 E8 F2 O6 O7 N7 K6 J6 K8 N8 L8
 R12 -> 86.07 - R12 P14 P12 N15 N16 M16 M15 N14
 S15 -> 85.86 - S15 S14 R15 P14 N15 P17 O17 O18
 N4 -> 84.5 - N4 K6 J6 K8 K7 L8 L7
 R15 -> 85.23 - R15 Q14 O6 O7 N7 K6 J6
 Q14 -> 85.32 - Q14 Q13 R13 S15 P14 R12
 Q13 -> 83.74 - Q13 Q14 P13 P14 O14 O13 N14
 P12 -> 86.85 - P12 R12 O6 O7 N7
 M15 -> 86.21 - M15 D8 E8 P18
 Q11 -> 84.17 - Q11 P14 O11 N15


 
--- Top-23 mistake (most impact) ---
move 52, lost -3.2099999999999937% winrate. winrate: 82.86
 play black N17
 Alternatives: 
  C9 P14 N15 P17 P16 Q18 Q17 O18 R18 -> 88.5 (for black)
  O6 O7 N7 K6 J6 K8 N8 M7 J8 M9 N9 -> 86.3 (for black)
  G2 D8 E8 F2 O6 O7 N7 K6 J6 K8 N8 L8 -> 88.59 (for black)
  R12 P14 P12 N15 N16 M16 M15 N14 -> 86.07 (for black)
  S15 S14 R15 P14 N15 P17 O17 O18 -> 85.86 (for black)
  N4 K6 J6 K8 K7 L8 L7 -> 84.5 (for black)
  R15 Q14 O6 O7 N7 K6 J6 -> 85.23 (for black)
  Q14 Q13 R13 S15 P14 R12 -> 85.32 (for black)
  Q13 Q14 P13 P14 O14 O13 N14 -> 83.74 (for black)
  P12 R12 O6 O7 N7 -> 86.85 (for black)
  M15 D8 E8 P18 -> 86.21 (for black)
  Q11 P14 O11 N15 -> 84.17 (for black)]LB[ck:A][nn:B][gr:C][qh:D][re:E][mp:F][qe:G][pf:H][pg:J][oh:K][le:L][pi:M];C[Winrate Black:  85.00%
|###########################_____|


 Leela's Suggestions: D8 E8 S16 O6 O7 N7 K6 J6 K8 M7 L6 J8 M9


 Alternatives: 
 D8 -> 81.76 - D8 E8 S16 O6 O7 N7 K6 J6 K8 M7 L6 J8 M9
 S16 -> 83.49 - S16 Q13 Q14 P13 P14 O13 N15 R13
 R16 -> 85.43 - R16 R17 S17 R15 S16 Q15 S15 P13 D8 E8 J16 H17 L16
 P14 -> 83.61 - P14 R15 S14 N14 P17 P16 N18 Q17
 J16 -> 84.77 - J16 K17 D8 E8 H16
 K8 -> 84.6 - K8 H7 D8 G7 S16 Q13
 P17 -> 84.59 - P17 P16 N18 Q17 Q12 M16
 N15 -> 85.56 - N15 O15 S16 Q13
 P13 -> 87.17 - P13 R15 S14 C9 P15 M16
 P15 -> 87.13 - P15 R15 S14


 
--- Top-20 mistake (most impact) ---
move 53, lost 2.1400000000000006% winrate. winrate: 85.0
 play white M16
 Alternatives: 
  D8 E8 S16 O6 O7 N7 K6 J6 K8 M7 L6 J8 M9 -> 81.76 (for white)
  S16 Q13 Q14 P13 P14 O13 N15 R13 -> 83.49 (for white)
  R16 R17 S17 R15 S16 Q15 S15 P13 D8 E8 J16 H17 L16 -> 85.43 (for white)
  P14 R15 S14 N14 P17 P16 N18 Q17 -> 83.61 (for white)
  J16 K17 D8 E8 H16 -> 84.77 (for white)
  K8 H7 D8 G7 S16 Q13 -> 84.6 (for white)
  P17 P16 N18 Q17 Q12 M16 -> 84.59 (for white)
  N15 O15 S16 Q13 -> 85.56 (for white)
  P13 R15 S14 C9 P15 M16 -> 87.17 (for white)
  P15 R15 S14 -> 87.13 (for white)]LB[dl:A][rd:B][qd:C][of:D][id:E][jl:F][oc:G][me:H][og:J][oe:K]W[ld]WL[770.825];B[of]BL[660.434]C[Winrate Black:  83.05%
|##########################______|


 Leela's Suggestions: O14 P17 Q17 N18 O18 O17 P18


 Alternatives: 
 O14 -> 85.77 - O14 P17 Q17 N18 O18 O17 P18 N16
 C9 -> 87.77 - C9 S16 R17 P14 O14 O13 N14 P15 O15 J16 H17
 G2 -> 87.49 - G2 D8 E8 F2 O6 O7 N7 K6 H7 L8
 O6 -> 85.82 - O6 O7 N7 K6 J6 K8 N8 M7 J8 L10 N10
 S15 -> 84.46 - S15 S14 R15 P14 O14 O13 N14 N13 M13
 R15 -> 84.72 - R15 Q14 O14 P17 P16 N18 O18 O17 P18 N16 Q17 D8
 S16 -> 85.67 - S16 D8 E8 P17 N18 P16
 Q14 -> 83.83 - Q14 Q13 P14 R16 R17 R15 S17
 N14 -> 84.85 - N14 P14 R15 S14 O14 P15
 Q13 -> 84.55 - Q13 Q14 P14 P13 O14 Q12
 N4 -> 83.17 - N4 K6 J6 K8 J8
]LB[nf:A][ck:B][gr:C][nn:D][re:E][qe:F][rd:G][pf:H][mf:J][pg:K][mp:L];C[Winrate Black:  84.31%
|##########################______|


 Leela's Suggestions: D8 E8 S16 R17 Q12 P12 P11 O11 P10 K16 H16


 Alternatives: 
 D8 -> 81.53999999999999 - D8 E8 S16 R17 Q12 P12 P11 O11 P10 K16 H16
 Q12 -> 85.43 - Q12 S15 D8 E8 O13 O14 N13 N14 M13 M14
 S16 -> 85.53 - S16 R17 Q12 C9 C17 O6 O7 N7
 R16 -> 84.86 - R16 R17 S17 R18 Q15 S16 R15
 P17 -> 85.17 - P17 Q17 N18 O18 O17
 J16 -> 85.62 - J16 K16 K17 K18 L17
 K6 -> 84.0 - K6 J6 D8 E8 Q12
 M13 -> 86.91 - M13 Q12 R12 R11
 K8 -> 86.23 - K8 J8 K6 J6
 P18 -> 85.51 - P18 O18 P17 P16
 R17 -> 87.01 - R17 R16 S16 S15 S17
]LB[dl:A][ph:B][rd:C][qd:D][oc:E][id:F][jn:G][lg:H][jl:J][ob:K][qc:L]W[ph]WL[768.889];B[lf]BL[656.994]C[Winrate Black:  81.85%
|##########################______|


 Leela's Suggestions: S15 D8 E8 O13 O14 N13 N14 M13 M14 J16 H17 K17


 Alternatives: 
 S15 -> 84.34 - S15 D8 E8 P17 N18 P16 P15 Q17 R16 S17 R17 R18 S18 S19 T18
 C9 -> 86.91 - C9 S16 P12 P11 O12 Q13 O11 N14 O14 J16 K16 K15
 P12 -> 84.93 - P12 P11 O12 D8 E8 J16 K16 K17 K18 L17
 G2 -> 86.82 - G2 D8 E8 F2 S15 S14 P12 P11
 R15 -> 83.77 - R15 Q14 P13 D8 E8 Q15 R16 P15 O15
 O6 -> 84.39 - O6 O7 S15 D8 E8 P17 N18
 N4 -> 83.27 - N4 K6 J6 M2 S15
 M14 -> 81.72 - M14 D8 E8 S16 K14
 E13 -> 82.4 - E13 D8 E8


 
--- Top-27 mistake (most impact) ---
move 56, lost -2.460000000000008% winrate. winrate: 81.85
 play black M14
 Alternatives: 
  S15 D8 E8 P17 N18 P16 P15 Q17 R16 S17 R17 R18 S18 S19 T18 -> 84.34 (for black)
  C9 S16 P12 P11 O12 Q13 O11 N14 O14 J16 K16 K15 -> 86.91 (for black)
  P12 P11 O12 D8 E8 J16 K16 K17 K18 L17 -> 84.93 (for black)
  G2 D8 E8 F2 S15 S14 P12 P11 -> 86.82 (for black)
  R15 Q14 P13 D8 E8 Q15 R16 P15 O15 -> 83.77 (for black)
  O6 O7 S15 D8 E8 P17 N18 -> 84.39 (for black)
  N4 K6 J6 M2 S15 -> 83.27 (for black)
  M14 D8 E8 S16 K14 -> 81.72 (for black)
  E13 D8 E8 -> 82.4 (for black)]LB[re:A][ck:B][oh:C][gr:D][qe:E][nn:F][mp:G][lf:H][eg:J];C[Winrate Black:  85.35%
|###########################_____|


 Leela's Suggestions: D8 E8 S16 G2 F2 O6 O7 N7 K6 J6


 Alternatives: 
 D8 -> 80.7 - D8 E8 S16 G2 F2 O6 O7 N7 K6 J6
 P17 -> 82.24 - P17 Q17 N18 O18 O17 P18 N16 P16 K17 K16 J16 K18
 S16 -> 83.38 - S16 G2 F2 C9 O13
 J16 -> 84.46000000000001 - J16 H17 K17 S15 D8 E8 K15 G2
 K15 -> 86.14 - K15 S15 D8 E8 L13 G2 F2 M13 L12
 K16 -> 84.91 - K16 K14 J16 H17 J14 J13 H14
 O13 -> 83.32 - O13 R15 D8 E8 K15 R13
 R16 -> 84.47 - R16 R17 S17 Q17 S15


 
--- Top-16 mistake (most impact) ---
move 57, lost 3.5% winrate. winrate: 85.35
 play white N15
 Alternatives: 
  D8 E8 S16 G2 F2 O6 O7 N7 K6 J6 -> 80.7 (for white)
  P17 Q17 N18 O18 O17 P18 N16 P16 K17 K16 J16 K18 -> 82.24 (for white)
  S16 G2 F2 C9 O13 -> 83.38 (for white)
  J16 H17 K17 S15 D8 E8 K15 G2 -> 84.46000000000001 (for white)
  K15 S15 D8 E8 L13 G2 F2 M13 L12 -> 86.14 (for white)
  K16 K14 J16 H17 J14 J13 H14 -> 84.91 (for white)
  O13 R15 D8 E8 K15 R13 -> 83.32 (for white)
  R16 R17 S17 Q17 S15 -> 84.47 (for white)]LB[dl:A][oc:B][rd:C][id:D][je:E][jd:F][ng:G][qd:H]W[me]WL[749.806];B[oh]BL[649.404]C[Winrate Black:  86.98%
|###########################_____|


 Leela's Suggestions: O13 P17 P16 N18 Q17 K17 K16 K18 O18 J16 H17 K15 C9


 Alternatives: 
 O13 -> 86.07 - O13 P17 P16 N18 Q17 K17 K16 K18 O18 J16 H17 K15 C9
 P12 -> 87.29 - P12 P11 O12 Q13 R15 P17 N18 P16 P15
 R15 -> 86.67 - R15 Q14 P13 N14 Q15 D8 E8
 N14 -> 84.85 - N14 O15 P15 P17 P16 N18 Q17 K17 K16
 S15 -> 86.29 - S15 O13 O14 N14 N13
 C9 -> 88.46 - C9 P17 P16 N18 Q17 O13
 N13 -> 84.07 - N13 P17 N18 P16 P15
]LB[ng:A][oh:B][qe:C][mf:D][re:E][ck:F][mg:G];C[Winrate Black:  86.12%
|###########################_____|


 Leela's Suggestions: P11 O12 Q13 R15 P17 N18 P16 P15 Q17 O15 R16 Q15


 Alternatives: 
 P11 -> 87.01 - P11 O12 Q13 R15 P17 N18 P16 P15 Q17 O15 R16 Q15
 D8 -> 85.28999999999999 - D8 E8 P11 O12 Q13 R15 N14 Q14 M13
 P17 -> 87.3 - P17 P16 N18 Q17 P11 O12 L18 O18
 Q11 -> 87.85 - Q11 R15 Q14 N14 P17 P16 N18 O18
 N14 -> 89.44 - N14 Q11 R12 O11 R11 M13 N13
]LB[oi:A][dl:B][oc:C][pi:D][mf:E]W[oi]WL[744.831];B[pg]BL[646.65]C[Winrate Black:  85.49%
|###########################_____|


 Leela's Suggestions: O12 D8 E8 P17 P16 N18 Q17 L18 O18 K17 J18 J16


 Alternatives: 
 O12 -> 86.81 - O12 D8 E8 P17 P16 N18 Q17 L18 O18 K17 J18 J16
 Q13 -> 86.48 - Q13 O12 P13 R13 O11 Q11 N12 N14 N13 O10 N11
 O11 -> 85.88 - O11 P13 O12 O13 O14 N13 N14 Q13 S15 P17 N18
 R15 -> 85.79 - R15 D8 E8 P17 N18 P16 P15
]LB[nh:A][pg:B][ni:C][qe:D];C[Winrate Black:  86.45%
|###########################_____|


 Leela's Suggestions: O12 R13 P13 Q14 D8 E8 R17 Q17 O14 R12 Q18 P18 S18 S16


 Alternatives: 
 O12 -> 84.86 - O12 R13 P13 Q14 D8 E8 R17 Q17 O14 R12 Q18 P18 S18 S16
 R13 -> 87.78 - R13 O12 P17 P16 N18 Q11 R12 P10 R11 O11 L18
 R12 -> 90.44 - R12 O12 P17
]LB[nh:A][qg:B][qh:C]W[qg]WL[743.193];B[pi]BL[644.687]C[Winrate Black:  86.72%
|###########################_____|


 Leela's Suggestions: O12 D8 E8 Q11 K15 P17 P16 N18 Q17 K17 J18


 Alternatives: 
 O12 -> 87.46 - O12 D8 E8 Q11 K15 P17 P16 N18 Q17 K17 J18
 Q11 -> 86.74 - Q11 R12 O12 P10 K15 P17 P16 N18 Q17 K17 J18
 O11 -> 85.84 - O11 Q11 N12 O13 O14 P17
]LB[nh:A][pi:B][ni:C];C[Winrate Black:  86.02%
|###########################_____|


 Leela's Suggestions: R12 O12 P10 K15 N13 N14 O15 P15 P17 P16 N18 Q17 K17


 Alternatives: 
 R12 -> 86.61 - R12 O12 P10 K15 N13 N14 O15 P15 P17 P16 N18 Q17 K17 J18
 pass -> 100.0 - pass 
]LB[qh:A][None:B]W[qh]WL[742.251];B[ni]BL[642.316]C[Winrate Black:  81.97%
|##########################______|


 Leela's Suggestions: O12 P10 K15 N13 N14 O15 P15 P17 P16 N18 Q17 K17 J18 K16


 Alternatives: 
 O12 -> 86.6 - O12 P10 K15 N13 N14 O15 P15 P17 P16 N18 Q17 K17 J18 K16
 O11 -> 83.94 - O11 P10 O12 D8 E8 K16 J16 L14 J14


 
--- Top-21 mistake (most impact) ---
move 64, lost -4.049999999999997% winrate. winrate: 81.97
 play black O11
 Alternatives: 
  O12 P10 K15 N13 N14 O15 P15 P17 P16 N18 Q17 K17 J18 K16 -> 86.6 (for black)
  O11 P10 O12 D8 E8 K16 J16 L14 J14 -> 83.94 (for black)]LB[nh:A][ni:B];C[Winrate Black:  80.75%
|#########################_______|


 Leela's Suggestions: P10 O12 D8 E8 P17 P16 N18 O18 O17 P18 N16 Q17 K16 K17 L14


 Alternatives: 
 P10 -> 81.76 - P10 O12 D8 E8 P17 P16 N18 O18 O17 P18 N16 Q17 K16 K17 L14
 D8 -> 100.0 - D8 
]LB[oj:A][dl:B]W[oj]WL[740.304];B[nh]BL[639.973]C[Winrate Black:  80.37%
|#########################_______|


 Leela's Suggestions: O12 D8 E8 P17 P16 N18 O18 K17 K16 J16 K18 L17 H17 K15 E13


 Alternatives: 
 O12 -> 80.96 - O12 D8 E8 P17 P16 N18 O18 K17 K16 J16 K18 L17 H17 K15 E13
 N12 -> 82.76 - N12 P17 P16 N18 Q17 K17 K18 J16 K16
 O10 -> 80.79 - O10 O12 P13 N14 N13 M13 N12 L14 S15
 O13 -> 81.46 - O13 P17 N18 P16 P15
 E13 -> 81.87 - E13 D13 O12 P17 P16 N18
]LB[nh:A][mh:B][nj:C][ng:D][eg:E];C[Winrate Black:  79.88%
|#########################_______|


 Leela's Suggestions: D8 E8 P17 P16 N18 O18 K17 K16 J16 K18 L17 H17 K15 O6 O7 N7


 Alternatives: 
 D8 -> 79.33 - D8 E8 P17 P16 N18 O18 K17 K16 J16 K18 L17 H17 K15 O6 O7 N7
 K16 -> 84.46000000000001 - K16 J16 L14 J14 M13 N14 O15 P15
 P17 -> 81.85 - P17 P16 N18 Q17 L18 O18 K17 J18 J16
 K15 -> 84.68 - K15 C9 P17 P16 N18 Q17 K17
 J16 -> 85.94 - J16 K16 K17 K18 L17 H17 K15 C9 P17 P16 N18 L18
 L14 -> 85.69 - L14 L13 K14 K16 M13 N14 H16 H17 F16
 K17 -> 86.13 - K17 K16 J16 K18 L17 H17 K15 C9 P17 P16
 P15 -> 87.19 - P15 O15 N14 M13 Q15
 K8 -> 87.59 - K8 H7 D8
]LB[dl:A][jd:B][oc:C][je:D][id:E][kf:F][jc:G][oe:H][jl:J]W[oc]WL[726.351];B[od]BL[635.062]C[Winrate Black:  80.40%
|#########################_______|


 Leela's Suggestions: P16 N18 Q17 L18 O18 K17 J18 J16 H16 J15 H15 L15 C9


 Alternatives: 
 P16 -> 80.86 - P16 N18 Q17 L18 O18 K17 J18 J16 H16 J15 H15 L15 C9
 Q17 -> 82.49 - Q17 N18 O18 O17 P18 N16 P16 K17 K16 J16 K18 K15 L17 L16 K17 L14
 N18 -> 77.83 - N18 P16 P15 Q17 R17 R18 R16 S18 Q15 O15 M18 L18
 O17 -> 81.85 - O17 D8 E8 K15 E13
 O18 -> 78.42 - O18 P16 P15 Q17 R17 R16 Q15 R18 S17 S18 O17 S16
]LB[od:A][pc:B][mb:C][nc:D][nb:E];C[Winrate Black:  81.32%
|##########################______|


 Leela's Suggestions: D8 E8 N18 O18 K17 K16 J16 K18 L17 H17 K15 O6 O7 N7 K6


 Alternatives: 
 D8 -> 78.45 - D8 E8 N18 O18 K17 K16 J16 K18 L17 H17 K15 O6 O7 N7 K6
 N18 -> 82.8 - N18 Q17 L18 O18 K17 J18 J16 H16 J15 H15 L15 C9 C17
 K17 -> 83.86 - K17 K16 J16 K18 L17 H17 N18
 K16 -> 83.58 - K16 J16 N18 O18 O17
 J16 -> 88.32 - J16 K16 N18 Q17
]LB[dl:A][mb:B][jc:C][jd:D][id:E]W[mb]WL[718.501];B[pc]BL[618.216]C[Winrate Black:  78.20%
|#########################_______|


 Leela's Suggestions: O18 D8 E8 K17 K16 J16 K18 L17 H17 K15 O6 O7 N7 K6


 Alternatives: 
 O18 -> 82.46 - O18 D8 E8 K17 K16 J16 K18 L17 H17 K15 O6 O7 N7 K6
 Q17 -> 79.91 - Q17 D8 E8 K17 K18 J16 K16 L17 H17 L18 O18 K15
 L18 -> 83.42 - L18 M18 Q17 K18 L17 K17 L16 K16 L15 L19 H15 H17 H16 G17 G16 J18
 O10 -> 79.39 - O10 L18 P9 Q10 Q9 R10 R9 S10
 G2 -> 81.8 - G2 F2 L18 M18 Q17
 O17 -> 74.03 - O17 O18 Q17


 
--- Top-24 mistake (most impact) ---
move 70, lost -3.1199999999999903% winrate. winrate: 78.2
 play black Q17
 Alternatives: 
  O18 D8 E8 K17 K16 J16 K18 L17 H17 K15 O6 O7 N7 K6 -> 82.46 (for black)
  Q17 D8 E8 K17 K18 J16 K16 L17 H17 L18 O18 K15 -> 79.91 (for black)
  L18 M18 Q17 K18 L17 K17 L16 K16 L15 L19 H15 H17 H16 G17 G16 J18 -> 83.42 (for black)
  O10 L18 P9 Q10 Q9 R10 R9 S10 -> 79.39 (for black)
  G2 F2 L18 M18 Q17 -> 81.8 (for black)
  O17 O18 Q17 -> 74.03 (for black)]LB[nb:A][pc:B][kb:C][nj:D][gr:E][nc:F];C[Winrate Black:  83.64%
|##########################______|


 Leela's Suggestions: D8 E8 K17 K18 J16 K16 L17 H17 L18 O18 K15 G2 F2 C17 C16 O6


 Alternatives: 
 D8 -> 76.05 - D8 E8 K17 K18 J16 K16 L17 H17 L18 O18 K15 G2 F2 C17 C16 O6
 L18 -> 82.19 - L18 O18 K17 J18 J16 H16 J15 H15 L15 C9 C17 B11
 K17 -> 83.5 - K17 K18 J16 K16 L17 H17 L18 C9 C17 B11 C12
 O17 -> 84.74 - O17 L18 M18 C9 C17 G2 F2 N4
 P18 -> 84.27 - P18 L18 M18 Q18 K18 L17
 K18 -> 84.16 - K18 O18 N16
 K16 -> 84.92 - K16 L18 M18 L17
 O18 -> 84.94 - O18 L18 M18


 
--- Top-14 mistake (most impact) ---
move 71, lost 5.439999999999998% winrate. winrate: 83.64
 play white K16
 Alternatives: 
  D8 E8 K17 K18 J16 K16 L17 H17 L18 O18 K15 G2 F2 C17 C16 O6 -> 76.05 (for white)
  L18 O18 K17 J18 J16 H16 J15 H15 L15 C9 C17 B11 -> 82.19 (for white)
  K17 K18 J16 K16 L17 H17 L18 C9 C17 B11 C12 -> 83.5 (for white)
  O17 L18 M18 C9 C17 G2 F2 N4 -> 84.74 (for white)
  P18 L18 M18 Q18 K18 L17 -> 84.27 (for white)
  K18 O18 N16 -> 84.16 (for white)
  K16 L18 M18 L17 -> 84.92 (for white)
  O18 L18 M18 -> 84.94 (for white)]LB[dl:A][kb:B][jc:C][nc:D][ob:E][jb:F][jd:G][nb:H]W[jd]WL[689.502];B[ob]BL[575.742]C[Winrate Black:  62.71%
|####################____________|


 Leela's Suggestions: L18 M18 L17 L16 K14 J14 J16 L14 K15 L13


 Alternatives: 
 L18 -> 82.71 - L18 M18 L17 L16 K14 J14 J16 L14 K15 L13
 C9 -> 87.32 - C9 K17 C17 C16 J18 O18 B11 B10 C10 C11
 K17 -> 85.18 - K17 L14 C9 L13 G2 F2 C17 C16 B11
 G2 -> 84.2 - G2 D8 E8 F2 L18 M18 K17 L14 L15 K15 K14
 J16 -> 77.23 - J16 K17 O18 J15 J18 K14
 E13 -> 82.33 - E13 D13 L18 M18 L17
 O6 -> 82.53 - O6 D8 E8 K17 J18
 O10 -> 81.21 - O10 K17 J18 D8


 
--- Top-6 mistake (most impact) ---
move 72, lost -20.93% winrate. winrate: 62.71
 play black P18
 Alternatives: 
  L18 M18 L17 L16 K14 J14 J16 L14 K15 L13 -> 82.71 (for black)
  C9 K17 C17 C16 J18 O18 B11 B10 C10 C11 -> 87.32 (for black)
  K17 L14 C9 L13 G2 F2 C17 C16 B11 -> 85.18 (for black)
  G2 D8 E8 F2 L18 M18 K17 L14 L15 K15 K14 -> 84.2 (for black)
  J16 K17 O18 J15 J18 K14 -> 77.23 (for black)
  E13 D13 L18 M18 L17 -> 82.33 (for black)
  O6 D8 E8 K17 J18 -> 82.53 (for black)
  O10 K17 J18 D8 -> 81.21 (for black)]LB[kb:A][ck:B][jc:C][gr:D][id:E][eg:F][nn:G][nj:H];C[Winrate Black:  64.22%
|####################____________|


 Leela's Suggestions: D8 E8 K17 J18 J16 G2 F2 C17 E17 E18 G17


 Alternatives: 
 D8 -> 60.45 - D8 E8 K17 J18 J16 G2 F2 C17 E17 E18 G17
 K17 -> 66.43 - K17 J18 D8 E8 J16 G2 F2 O6 O7 N7
 J16 -> 67.59 - J16 H17 D8 E8 G16 H16 H15 J15 K17
 K14 -> 76.48 - K14 C9 C17 K17 J16
 G16 -> 69.58 - G16 G17 J16
 L14 -> 77.47 - L14 C9 C17
]LB[dl:A][jc:B][id:C][jf:D][gd:E][kf:F]W[id]WL[684.332];B[hc]BL[569.343]C[Winrate Black:  64.88%
|####################____________|


 Leela's Suggestions: H17 D8 E8 G16 H16 H15 G15 F16 G17 J14 E16 F15 E15 F14 E14 F13 E13 D17


 Alternatives: 
 H17 -> 64.99 - H17 D8 E8 G16 H16 H15 G15 F16 G17 J14 G14 K17 E16 D17 C18 E17
 H16 -> 64.34 - H16 H15 H17 J14 C9
 K17 -> 57.92 - K17 H17
]LB[hc:A][hd:B][jc:C];C[Winrate Black:  73.63%
|#######################_________|


 Leela's Suggestions: D8 E8 G16 H16 H15 G15 F16 G17 J14 G14 K17 E16 D17 C18 E17 F15 E18 B16 B15 L18


 Alternatives: 
 D8 -> 63.74 - D8 E8 G16 H16 H15 G15 F16 G17 J14 G14 K17 E16 D17 C18 E17 F15 E18 B16 B15 L18
 K17 -> 73.24 - K17 C9 C17 C18 G16 F16 G17
 G16 -> 68.01 - G16 H16 H15 G15 F16 G17 J14 G14 K17 E16 D8
 G15 -> 77.19 - G15 C9 C17 L18 M18 L17
 J14 -> 77.0 - J14 C9 C17 L18 G16 F16
 K14 -> 80.12 - K14 C9 C17 L18 M18 L17
 L13 -> 77.85 - L13 C9


 
--- Top-11 mistake (most impact) ---
move 75, lost 8.75% winrate. winrate: 73.63
 play white C17
 Alternatives: 
  D8 E8 G16 H16 H15 G15 F16 G17 J14 G14 K17 E16 D17 C18 E17 F15 E18 B16 B15 L18 -> 63.74 (for white)
  K17 C9 C17 C18 G16 F16 G17 -> 73.24 (for white)
  G16 H16 H15 G15 F16 G17 J14 G14 K17 E16 D8 -> 68.01 (for white)
  G15 C9 C17 L18 M18 L17 -> 77.19 (for white)
  J14 C9 C17 L18 G16 F16 -> 77.0 (for white)
  K14 C9 C17 L18 M18 L17 -> 80.12 (for white)
  L13 C9 -> 77.85 (for white)]LB[dl:A][jc:B][gd:C][ge:D][if:E][jf:F][kg:G]W[cc]WL[674.814];B[cb]BL[565.972]C[Winrate Black:  60.04%
|###################_____________|


 Leela's Suggestions: L18 D8 E8 G15 G2 F2 E13 F16 E17


 Alternatives: 
 L18 -> 74.23 - L18 D8 E8 G15 G2 F2 E13 F16 E17
 G2 -> 75.75 - G2 D8 E8 F2 E13 D12 D15 C15 L18
 C9 -> 75.55 - C9 K17 C18 G16 F16 H16 G17 B10
 E13 -> 72.27 - E13 D8 E8 K17 C13 C12 B13 D13
 K17 -> 73.99 - K17 J14 C9 G16 F16
 O6 -> 72.4 - O6 O7 N4 M2 G2
 N4 -> 69.48 - N4 K6 J6 M2 L18
 H15 -> 70.64 - H15 K14 L18 K12 C9
 G15 -> 70.6 - G15 K17 L18 K18
 O10 -> 71.99 - O10 K17 P9 Q10
 E3 -> 74.11 - E3 D2


 
--- Top-8 mistake (most impact) ---
move 76, lost -13.589999999999996% winrate. winrate: 60.04
 play black C18
 Alternatives: 
  L18 D8 E8 G15 G2 F2 E13 F16 E17 -> 74.23 (for black)
  G2 D8 E8 F2 E13 D12 D15 C15 L18 -> 75.75 (for black)
  C9 K17 C18 G16 F16 H16 G17 B10 -> 75.55 (for black)
  E13 D8 E8 K17 C13 C12 B13 D13 -> 72.27 (for black)
  K17 J14 C9 G16 F16 -> 73.99 (for black)
  O6 O7 N4 M2 G2 -> 72.4 (for black)
  N4 K6 J6 M2 L18 -> 69.48 (for black)
  H15 K14 L18 K12 C9 -> 70.64 (for black)
  G15 K17 L18 K18 -> 70.6 (for black)
  O10 K17 P9 Q10 -> 71.99 (for black)
  E3 D2 -> 74.11 (for black)]LB[kb:A][gr:B][ck:C][eg:D][jc:E][nn:F][mp:G][he:H][ge:J][nj:K][eq:L];C[Winrate Black:  72.94%
|#######################_________|


 Leela's Suggestions: D8 E8 K17 B10 C10 B8 B11 B9 H3 H4 K4 J4 G16


 Alternatives: 
 D8 -> 58.05 - D8 E8 K17 B10 C10 B8 B11 B9 H3 H4 K4 J4 G16
 G16 -> 66.19 - G16 H16 H15 G15 F16 G17 J14 E16 F15 E15
 K17 -> 73.48 - K17 C9 B10 B9 D9 D8
 J14 -> 74.98 - J14 C9 D9 D8 B8
 K14 -> 76.69 - K14 C9 D9 D8 B8 B9
 L13 -> 77.28999999999999 - L13 C9 D9 D8 B8 B9 B10
 J13 -> 75.39 - J13 C9 D9
 K13 -> 73.91 - K13 C9


 
--- Top-6 mistake (most impact) ---
move 77, lost 12.899999999999999% winrate. winrate: 72.94
 play white G15
 Alternatives: 
  D8 E8 K17 B10 C10 B8 B11 B9 H3 H4 K4 J4 G16 -> 58.05 (for white)
  G16 H16 H15 G15 F16 G17 J14 E16 F15 E15 -> 66.19 (for white)
  K17 C9 B10 B9 D9 D8 -> 73.48 (for white)
  J14 C9 D9 D8 B8 -> 74.98 (for white)
  K14 C9 D9 D8 B8 B9 -> 76.69 (for white)
  L13 C9 D9 D8 B8 B9 B10 -> 77.28999999999999 (for white)
  J13 C9 D9 -> 75.39 (for white)
  K13 C9 -> 73.91 (for white)]LB[dl:A][gd:B][jc:C][if:D][jf:E][kg:F][ig:G][jg:H]W[ge]WL[645.653];B[nj]BL[558.372]C[Winrate Black:  64.07%
|####################____________|


 Leela's Suggestions: C9 H3 H4 K4 J4 F16 E17 S16 N4 M2


 Alternatives: 
 C9 -> 75.17 - C9 H3 H4 K4 J4 F16 E17 S16 N4 M2
 G2 -> 71.11 - G2 D8 E8 F2 O6 O7 N7 K6 J6
 E13 -> 62.79 - E13 F16 E17 D8 E8 D12
 O6 -> 67.98 - O6 O7 N4 M2 N7
 K14 -> 70.2 - K14 H16 C9 H3 H4 K4 J4
 B8 -> 72.04 - B8 D8 B9 B10 B11 C10 A10
 F15 -> 62.88 - F15 D8 F7 G16
 N4 -> 66.71 - N4 D8 E8 M2
 J14 -> 67.62 - J14 H16 C9 H3 H4 K4
 H16 -> 66.47 - H16 H15 J15 K17
 L18 -> 62.08 - L18 D8


 
--- Top-11 mistake (most impact) ---
move 78, lost -8.870000000000005% winrate. winrate: 64.07
 play black O10
 Alternatives: 
  C9 H3 H4 K4 J4 F16 E17 S16 N4 M2 -> 75.17 (for black)
  G2 D8 E8 F2 O6 O7 N7 K6 J6 -> 71.11 (for black)
  E13 F16 E17 D8 E8 D12 -> 62.79 (for black)
  O6 O7 N4 M2 N7 -> 67.98 (for black)
  K14 H16 C9 H3 H4 K4 J4 -> 70.2 (for black)
  B8 D8 B9 B10 B11 C10 A10 -> 72.04 (for black)
  F15 D8 F7 G16 -> 62.88 (for black)
  N4 D8 E8 M2 -> 66.71 (for black)
  J14 H16 C9 H3 H4 K4 -> 67.62 (for black)
  H16 H15 J15 K17 -> 66.47 (for black)
  L18 D8 -> 62.08 (for black)]LB[ck:A][gr:B][eg:C][nn:D][jf:E][bl:F][fe:G][mp:H][if:J][hd:K][kb:L];C[Winrate Black:  78.15%
|#########################_______|


 Leela's Suggestions: D8 P9 Q10 Q9 R10 R9 S10 O6 O7 N7 K6 J6 K8 N8 J8 K7 L7 L8


 Alternatives: 
 D8 -> 62.32 - D8 P9 Q10 Q9 R10 R9 S10 O6 O7 N7 K6 J6 K8 N8 J8 K7 L7 L8
 P9 -> 74.16 - P9 C9 B9 B8 B10 G2 G3 H3
 K6 -> 63.62 - K6 J6 D8 F7 G7 G9 D7 E6 B7
 F16 -> 71.23 - F16 P9 Q10 Q9 R10 R9 S10
 E17 -> 71.69 - E17 


 
--- Top-5 mistake (most impact) ---
move 79, lost 14.080000000000013% winrate. winrate: 78.15
 play white O9
 Alternatives: 
  D8 P9 Q10 Q9 R10 R9 S10 O6 O7 N7 K6 J6 K8 N8 J8 K7 L7 L8 -> 62.32 (for white)
  P9 C9 B9 B8 B10 G2 G3 H3 -> 74.16 (for white)
  K6 J6 D8 F7 G7 G9 D7 E6 B7 -> 63.62 (for white)
  F16 P9 Q10 Q9 R10 R9 S10 -> 71.23 (for white)
  E17  -> 71.69 (for white)]LB[dl:A][ok:B][jn:C][fd:D][ec:E]W[nk]WL[641.848];B[mk]BL[533.617]C[Winrate Black:  69.63%
|######################__________|


 Leela's Suggestions: C9 N9 G2 F2 T7 T8 T6 S9 B11 D9 D8


 Alternatives: 
 C9 -> 80.83 - C9 N9 G2 F2 T7 T8 T6 S9 B11 D9 D8
 N9 -> 75.46 - N9 O8 C9 F16 E17 S16 T7
 G2 -> 74.55 - G2 D8 E8 F2 G3 N9 B3
 N4 -> 73.5 - N4 M2 C9 N9 G2
 O6 -> 70.61 - O6 D8 E8 N9 O7 M8
 L18 -> 67.03 - L18 D8 E8 F16 G16 H16
 F15 -> 68.95 - F15 G16 F16 K17 C9
 P9 -> 67.69 - P9 Q10 O8 N9 N8 M9 M8
 H16 -> 70.19 - H16 H15 J15 K17
 E13 -> 65.88 - E13 F16 C13


 
--- Top-12 mistake (most impact) ---
move 80, lost -8.52000000000001% winrate. winrate: 69.63
 play black N9
 Alternatives: 
  C9 N9 G2 F2 T7 T8 T6 S9 B11 D9 D8 -> 80.83 (for black)
  N9 O8 C9 F16 E17 S16 T7 -> 75.46 (for black)
  G2 D8 E8 F2 G3 N9 B3 -> 74.55 (for black)
  N4 M2 C9 N9 G2 -> 73.5 (for black)
  O6 D8 E8 N9 O7 M8 -> 70.61 (for black)
  L18 D8 E8 F16 G16 H16 -> 67.03 (for black)
  F15 G16 F16 K17 C9 -> 68.95 (for black)
  P9 Q10 O8 N9 N8 M9 M8 -> 67.69 (for black)
  H16 H15 J15 K17 -> 70.19 (for black)
  E13 F16 C13 -> 65.88 (for black)]LB[ck:A][mk:B][gr:C][mp:D][nn:E][kb:F][fe:G][ok:H][hd:J][eg:K];C[Winrate Black:  79.47%
|#########################_______|


 Leela's Suggestions: D8 P9 Q10 Q9 R10 O8 E8 B8 B9 A8 B6 B7 A5 B5 B4 C5 A6


 Alternatives: 
 D8 -> 67.33 - D8 P9 Q10 Q9 R10 O8 E8 B8 B9 A8 B6 B7 A5 B5 B4 C5 A6
 O8 -> 79.24 - O8 C9 F16 E17 B10 B9 S16
 P9 -> 83.28 - P9 C9 D9 D8 B8 B9 B10 B7 C10 A8 S16 G2 F2


 
--- Top-9 mistake (most impact) ---
move 81, lost 9.840000000000003% winrate. winrate: 79.47
 play white O8
 Alternatives: 
  D8 P9 Q10 Q9 R10 O8 E8 B8 B9 A8 B6 B7 A5 B5 B4 C5 A6 -> 67.33 (for white)
  O8 C9 F16 E17 B10 B9 S16 -> 79.24 (for white)
  P9 C9 D9 D8 B8 B9 B10 B7 C10 A8 S16 G2 F2 -> 83.28 (for white)]LB[dl:A][nl:B][ok:C]W[nl]WL[618.082];B[if]BL[519.367]C[Winrate Black:  75.18%
|########################________|


 Leela's Suggestions: C9 B9 B8 B10 G2 F2 S15 R15 S16 F16


 Alternatives: 
 C9 -> 81.61 - C9 B9 B8 B10 G2 F2 S15 R15 S16 F16
 G2 -> 75.13 - G2 D8 E8 F2 B10 C10 B8
 B8 -> 77.32 - B8 F16 E17 S16 T7 T8
 E13 -> 68.79 - E13 F16 C13 E17 E18
 T7 -> 72.25 - T7 T8 T6 S9 C9 B9
 H16 -> 68.21 - H16 H15 J15 K17 L18 K18
 N4 -> 72.34 - N4 M2 G2 F2 C9
 L18 -> 66.92 - L18 D8 E8 J13 T7
 F15 -> 69.73 - F15 G16 F16 K14 L18
 S15 -> 64.02 - S15 D8 E8 R15
 E15 -> 68.42 - E15 E16 F16 F15
 N8 -> 68.37 - N8 N7 C9
 J14 -> 71.06 - J14 K14


 
--- Top-19 mistake (most impact) ---
move 82, lost -4.289999999999992% winrate. winrate: 75.18
 play black J14
 Alternatives: 
  C9 B9 B8 B10 G2 F2 S15 R15 S16 F16 -> 81.61 (for black)
  G2 D8 E8 F2 B10 C10 B8 -> 75.13 (for black)
  B8 F16 E17 S16 T7 T8 -> 77.32 (for black)
  E13 F16 C13 E17 E18 -> 68.79 (for black)
  T7 T8 T6 S9 C9 B9 -> 72.25 (for black)
  H16 H15 J15 K17 L18 K18 -> 68.21 (for black)
  N4 M2 G2 F2 C9 -> 72.34 (for black)
  L18 D8 E8 J13 T7 -> 66.92 (for black)
  F15 G16 F16 K14 L18 -> 69.73 (for black)
  S15 D8 E8 R15 -> 64.02 (for black)
  E15 E16 F16 F15 -> 68.42 (for black)
  N8 N7 C9 -> 68.37 (for black)
  J14 K14 -> 71.06 (for black)]LB[ck:A][gr:B][bl:C][eg:D][sm:E][hd:F][mp:G][kb:H][fe:J][re:K][ee:L][ml:M][if:N];C[Winrate Black:  75.53%
|########################________|


 Leela's Suggestions: K14 H16 K17 L18 K18 M18 J13 H15 K12 H13


 Alternatives: 
 K14 -> 74.52 - K14 H16 K17 L18 K18 M18 J13 H15 K12 H13
 H16 -> 75.47 - H16 C9 H3 B11 D9 D8 B10 C10
 L14 -> 74.18 - L14 C9 M13 B11 D9 D8
 K17 -> 75.84 - K17 C9 D9 D8 B8 B9 B10 B7 C10 A8
 F16 -> 76.61 - F16 H16
]LB[jf:A][hd:B][kf:C][jc:D][fd:E]W[jf]WL[532.786];B[jg]BL[508.15]C[Winrate Black:  70.52%
|######################__________|


 Leela's Suggestions: C9 J13 G2 F2 S15 R15 S16 D9 D8


 Alternatives: 
 C9 -> 77.74 - C9 J13 G2 F2 S15 R15 S16 D9 D8
 H16 -> 76.65 - H16 K17 L18 K18 M18 H15 J15 J13 H14 F16 G14
 J13 -> 72.48 - J13 H16 C9 B9 B8 B10 S15 D8
 K13 -> 63.87 - K13 L14 L13 J13 H14 M13 M12 N13 C9
 E13 -> 66.16 - E13 D8 C13
 G2 -> 70.43 - G2 F2 H16 K17
 L18 -> 48.19 - L18 


 
--- Top-17 mistake (most impact) ---
move 84, lost -5.010000000000005% winrate. winrate: 70.52
 play black K13
 Alternatives: 
  C9 J13 G2 F2 S15 R15 S16 D9 D8 -> 77.74 (for black)
  H16 K17 L18 K18 M18 H15 J15 J13 H14 F16 G14 -> 76.65 (for black)
  J13 H16 C9 B9 B8 B10 S15 D8 -> 72.48 (for black)
  K13 L14 L13 J13 H14 M13 M12 N13 C9 -> 63.87 (for black)
  E13 D8 C13 -> 66.16 (for black)
  G2 F2 H16 K17 -> 70.43 (for black)
  L18  -> 48.19 (for black)]LB[ck:A][hd:B][ig:C][jg:D][eg:E][gr:F][kb:G];C[Winrate Black:  70.16%
|######################__________|


 Leela's Suggestions: L14 L13 M13 C9 J13 G2 F2 T7 T8 T6


 Alternatives: 
 L14 -> 70.11 - L14 L13 M13 C9 J13 G2 F2 T7 T8 T6 S9
 J13 -> 69.53999999999999 - J13 C9 H14 J12 H13 S15 R15 S16 T6 T5 T7
 D8 -> 72.3 - D8 H16 L14 J15 L13
 H16 -> 78.9 - H16 C9 D9 D8 B8 B9
 J15 -> 76.01 - J15 C9 D9 D8
 F16 -> 73.97 - F16 H16 H15 J15
 K17 -> 77.13 - K17 C9 L14 L13 B9 B8
]LB[kf:A][ig:B][dl:C][hd:D][ie:E][fd:F][jc:G]W[kf]WL[529.73];B[kg]BL[503.157]C[Winrate Black:  69.32%
|######################__________|


 Leela's Suggestions: C9 L13 G2 F2 T7 T8 T6 S9 B11 B10 C10 C11


 Alternatives: 
 C9 -> 72.56 - C9 L13 G2 F2 T7 T8 T6 S9 B11 B10 C10 C11
 L13 -> 68.77 - L13 M13 C9 J13 G2 F2 T7 T8 T6 S9 B11
 G2 -> 65.66 - G2 D8 E8
 H16 -> 56.51 - H16 L13 J15
]LB[ck:A][kg:B][gr:C][hd:D];C[Winrate Black:  69.27%
|######################__________|


 Leela's Suggestions: J13 C9 J12 G2 F2 S15 R15 S16 D9 D8


 Alternatives: 
 J13 -> 68.77 - J13 C9 J12 G2 F2 S15 R15 S16 D9 D8 B8
 M13 -> 68.63 - M13 C9 J13 G2 F2 T7 T8 T6 S9 B11 B10 C10 C11 B9
 K17 -> 74.02 - K17 C9 B10 B9 D9 D8
 D8 -> 69.62 - D8 H16 J15 H15 L15 L17 K17 L18 K18 M18 M13
 H16 -> 81.17 - H16 C9 B9 B8 B10
 F16 -> 74.42 - F16 H16 H15 J15
]LB[ig:A][lg:B][jc:C][dl:D][hd:E][fd:F]W[ig]WL[528.681];B[ih]BL[486.766]C[Winrate Black:  59.48%
|###################_____________|


 Leela's Suggestions: C9 J12 G2 F2 S15 R15 S16 B9 B8 B10 G3


 Alternatives: 
 C9 -> 71.28 - C9 J12 G2 F2 S15 R15 S16 B9 B8 B10 G3
 H14 -> 64.05 - H14 M13 J12 N13 C9 B9 B8 C10 D9 S16 S17
 G2 -> 66.93 - G2 D8 E8 F2 H14 M13 N14
 H13 -> 53.07 - H13 J12 H14 M13 K11 D8 E8 N13 L18
 E3 -> 67.46 - E3 D2 G2 F2 C9 J12 N4
 T7 -> 62.61 - T7 T8 T6 S9
 L15 -> 61.92 - L15 K15 H13
 N4 -> 56.01 - N4 


 
--- Top-10 mistake (most impact) ---
move 88, lost -9.79% winrate. winrate: 59.48
 play black J12
 Alternatives: 
  C9 J12 G2 F2 S15 R15 S16 B9 B8 B10 G3 -> 71.28 (for black)
  H14 M13 J12 N13 C9 B9 B8 C10 D9 S16 S17 -> 64.05 (for black)
  G2 D8 E8 F2 H14 M13 N14 -> 66.93 (for black)
  H13 J12 H14 M13 K11 D8 E8 N13 L18 -> 53.07 (for black)
  E3 D2 G2 F2 C9 J12 N4 -> 67.46 (for black)
  T7 T8 T6 S9 -> 62.61 (for black)
  L15 K15 H13 -> 61.92 (for black)
  N4  -> 56.01 (for black)]LB[ck:A][hf:B][gr:C][hg:D][eq:E][sm:F][ke:G][mp:H];C[Winrate Black:  57.31%
|##################______________|


 Leela's Suggestions: H13 C9 H3 H4 H12 B11 J11 S15 R15 S16 M13


 Alternatives: 
 H13 -> 58.89 - H13 C9 H3 B11 B10 C10 C11 B9 B12 A10 S16 T7
 E17 -> 100.0 - E17 
]LB[hg:A][ec:B]W[hg]WL[526.932];B[hh]BL[484.81]C[Winrate Black:  57.80%
|##################______________|


 Leela's Suggestions: C9 H3 H12 G13 S15 R15 S16 T6 B11 S5 P2 P3 Q3 O2


 Alternatives: 
 C9 -> 58.25 - C9 H3 H12 G13 S15 R15 S16 T6 B11 S5 P2 P3 Q3 O2
 G2 -> 58.81 - G2 G3 H3 F2 C9 D9 D8 B10
 H12 -> 51.76 - H12 D8 H14 G13 G14 F16 F13
 T7 -> 49.37 - T7 T8 T6 S9 C9 D9 D8 B8
 L15 -> 45.75 - L15 K15 K17 M15 C9
 B8 -> 53.64 - B8 H12 B10 S16 S17 R16
 H14 -> 49.85 - H14 G13 G14 F14 F13 H15
 S15 -> 35.76 - S15 D8 F7 H12
 K17 -> 47.4 - K17 M15 C9 D9
 E3 -> 43.81 - E3 D2 G2
 N4 -> 36.82 - N4 M2
 M15 -> 36.73 - M15 
]LB[ck:A][gr:B][hh:C][sm:D][ke:E][bl:F][hf:G][re:H][jc:J][eq:K][mp:L][le:M];C[Winrate Black:  75.20%
|########################________|


 Leela's Suggestions: D8 H14 K17 G13 B7 L18 K18 M18 H16 G16


 Alternatives: 
 D8 -> 56.2 - D8 H14 K17 G13 B7 L18 K18 M18 H16 G16
 G13 -> 60.48 - G13 C9 B9 B8 B10 G2 G3 H3
 M13 -> 69.52 - M13 C9 G13 S15 R15 S16 T6 T5
 S16 -> 67.65 - S16 H14 K17 C9 B10
 T6 -> 62.39 - T6 C9
 H14 -> 69.07 - H14 


 
--- Top-4 mistake (most impact) ---
move 91, lost 17.400000000000006% winrate. winrate: 75.2
 play white M9
 Alternatives: 
  D8 H14 K17 G13 B7 L18 K18 M18 H16 G16 -> 56.2 (for white)
  G13 C9 B9 B8 B10 G2 G3 H3 -> 60.48 (for white)
  M13 C9 G13 S15 R15 S16 T6 T5 -> 69.52 (for white)
  S16 H14 K17 C9 B10 -> 67.65 (for white)
  T6 C9 -> 62.39 (for white)
  H14  -> 69.07 (for white)]LB[dl:A][gg:B][lg:C][rd:D][sn:E][hf:F]W[lk]WL[510.465];B[lj]BL[470.244]C[Winrate Black:  52.44%
|################________________|


 Leela's Suggestions: H14 F16 G13 E17 H16 K17 E18 G17 F18 H15 G16 J18


 Alternatives: 
 H14 -> 78.71 - H14 F16 G13 E17 H16 K17 E18 G17 F18 H15 G16 J18
 C9 -> 76.04 - C9 G13 N8 M8 N7 M7 O6 O7 N10 K6 J6
 N8 -> 71.22 - N8 N7 C9 D9 D8 B8 B9 B10
 G2 -> 74.59 - G2 D8 E3 F2 D2 D1 G3 B3 F7 B4
 G13 -> 71.41 - G13 H14 C9 B9 B8 B10 S15
 L15 -> 67.96 - L15 K15 G13 H14 C9 B10 B9
 T7 -> 67.85 - T7 T8 T6 S9 C9 D9 D8
 E13 -> 64.09 - E13 G13 C13 B13 C12
 B8 -> 70.46 - B8 G13 S15 R15 S16
 S15 -> 49.36 - S15 D8 E8
 N4 -> 61.0 - N4 


 
--- Top-5 mistake (most impact) ---
move 92, lost -22.760000000000005% winrate. winrate: 52.44
 play black M10
 Alternatives: 
  H14 F16 G13 E17 H16 K17 E18 G17 F18 H15 G16 J18 -> 78.71 (for black)
  C9 G13 N8 M8 N7 M7 O6 O7 N10 K6 J6 -> 76.04 (for black)
  N8 N7 C9 D9 D8 B8 B9 B10 -> 71.22 (for black)
  G2 D8 E3 F2 D2 D1 G3 B3 F7 B4 -> 74.59 (for black)
  G13 H14 C9 B9 B8 B10 S15 -> 71.41 (for black)
  L15 K15 G13 H14 C9 B10 B9 -> 67.96 (for black)
  T7 T8 T6 S9 C9 D9 D8 -> 67.85 (for black)
  E13 G13 C13 B13 C12 -> 64.09 (for black)
  B8 G13 S15 R15 S16 -> 70.46 (for black)
  S15 D8 E8 -> 49.36 (for black)
  N4  -> 61.0 (for black)]LB[hf:A][ck:B][ml:C][gr:D][gg:E][ke:F][sm:G][eg:H][bl:J][re:K][mp:L];C[Winrate Black:  63.86%
|####################____________|


 Leela's Suggestions: D8 H14 K17 B8 B9 B7 F16 G16 H16 G17 G13 G14 F13 F15 F14


 Alternatives: 
 D8 -> 50.52 - D8 H14 K17 B8 B9 B7 F16 G16 H16 G17 G13 G14 F13 F15 F14
 N8 -> 62.98 - N8 H14 K17 G13 L18 C9 D9 D8 B10
 G13 -> 56.0 - G13 C9 N8 T7 T8 T6
 S16 -> 72.22 - S16 


 
--- Top-8 mistake (most impact) ---
move 93, lost 11.420000000000002% winrate. winrate: 63.86
 play white N8
 Alternatives: 
  D8 H14 K17 B8 B9 B7 F16 G16 H16 G17 G13 G14 F13 F15 F14 -> 50.52 (for white)
  N8 H14 K17 G13 L18 C9 D9 D8 B10 -> 62.98 (for white)
  G13 C9 N8 T7 T8 T6 -> 56.0 (for white)
  S16  -> 72.22 (for white)]LB[dl:A][ml:B][gg:C][rd:D]W[ml]WL[501.367];B[mj]BL[466.251]C[Winrate Black:  32.06%
|##########______________________|


 Leela's Suggestions: H14 K17 G13 L18 C9 D9 D8 B10 B9 C10


 Alternatives: 
 H14 -> 66.36 - H14 K17 G13 L18 C9 D9 D8 B10 B9 C10
 C9 -> 60.38 - C9 D9 D8 B10 B9 C10 H14 F16 G16 H16 G17
 T7 -> 51.25 - T7 T8 T6 S9 C9 D9
 G2 -> 53.4 - G2 F2 C9 D9 D8
 E13 -> 44.88 - E13 G13 C13 B13
 S15 -> 32.48 - S15 D8 E8 G13
 L15 -> 42.61 - L15 K15 H14
 G13 -> 46.24 - G13 H14
 K17 -> 44.0 - K17 M15


 
--- Top-2 mistake (most impact) ---
move 94, lost -31.799999999999997% winrate. winrate: 32.06
 play black N10
 Alternatives: 
  H14 K17 G13 L18 C9 D9 D8 B10 B9 C10 -> 66.36 (for black)
  C9 D9 D8 B10 B9 C10 H14 F16 G16 H16 G17 -> 60.38 (for black)
  T7 T8 T6 S9 C9 D9 -> 51.25 (for black)
  G2 F2 C9 D9 D8 -> 53.4 (for black)
  E13 G13 C13 B13 -> 44.88 (for black)
  S15 D8 E8 G13 -> 32.48 (for black)
  L15 K15 H14 -> 42.61 (for black)
  G13 H14 -> 46.24 (for black)
  K17 M15 -> 44.0 (for black)]LB[hf:A][ck:B][sm:C][gr:D][eg:E][re:F][ke:G][gg:H][jc:J];C[Winrate Black:  62.38%
|###################_____________|


 Leela's Suggestions: D8 H14 K17 G13 L18 B8 B9 B7 S16 S17 R16


 Alternatives: 
 D8 -> 30.650000000000006 - D8 H14 K17 G13 L18 B8 B9 B7 S16 S17 R16
 G13 -> 31.0 - G13 C9 S16 T7 T8 T6 S9 B11 D9
 S16 -> 35.09 - S16 T7 T8 T6 S9 C9 B10 B9 D9
 T6 -> 38.93 - T6 C9 G13 S15 R15
 S15 -> 34.379999999999995 - S15 H14 K17 E13
 H3 -> 32.53 - H3 C9 B9
 B7 -> 34.72 - B7 C9 D9 D8 B8 B6
 K17 -> 35.45 - K17 T7 T8
 B8 -> 40.02 - B8 


 
--- Top-2 mistake (most impact) ---
move 95, lost 30.32% winrate. winrate: 62.38
 play white H9
 Alternatives: 
  D8 H14 K17 G13 L18 B8 B9 B7 S16 S17 R16 -> 30.650000000000006 (for white)
  G13 C9 S16 T7 T8 T6 S9 B11 D9 -> 31.0 (for white)
  S16 T7 T8 T6 S9 C9 B10 B9 D9 -> 35.09 (for white)
  T6 C9 G13 S15 R15 -> 38.93 (for white)
  S15 H14 K17 E13 -> 34.379999999999995 (for white)
  H3 C9 B9 -> 32.53 (for white)
  B7 C9 D9 D8 B8 B6 -> 34.72 (for white)
  K17 T7 T8 -> 35.45 (for white)
  B8  -> 40.02 (for white)]LB[dl:A][gg:B][rd:C][sn:D][re:E][hq:F][bm:G][jc:H][bl:J]W[hk]WL[482.207];B[hj]BL[458.101]C[Winrate Black:  32.65%
|##########______________________|


 Leela's Suggestions: H14 D8 G13 K17 L18 K18 M18 H16 G16 F16 G17 H15 F15 F14 E16 E15


 Alternatives: 
 H14 -> 65.22 - H14 D8 G13 K17 L18 K18 M18 H16 G16 F16 G17 H15 F15 F14 E16 E15
 C9 -> 59.69 - C9 G13 G2 F2 T7 T8 T6
 G2 -> 55.37 - G2 D8 F7 F2 G7
 B8 -> 53.4 - B8 G13 T7 T8
 L15 -> 50.23 - L15 K15 G13 H14
 G13 -> 47.96 - G13 H14 C9
 E13 -> 40.51 - E13 G13 C13
 E3 -> 47.88 - E3 D2
 S15 -> 40.01 - S15 D8
 H7 -> 45.14 - H7 
 T7 -> 44.96 - T7 
 H10 -> 30.67 - H10 


 
--- Top-3 mistake (most impact) ---
move 96, lost -29.729999999999997% winrate. winrate: 32.650000000000006
 play black H10
 Alternatives: 
  H14 D8 G13 K17 L18 K18 M18 H16 G16 F16 G17 H15 F15 F14 E16 E15 -> 65.22 (for black)
  C9 G13 G2 F2 T7 T8 T6 -> 59.69 (for black)
  G2 D8 F7 F2 G7 -> 55.37 (for black)
  B8 G13 T7 T8 -> 53.4 (for black)
  L15 K15 G13 H14 -> 50.23 (for black)
  G13 H14 C9 -> 47.96 (for black)
  E13 G13 C13 -> 40.51 (for black)
  E3 D2 -> 47.88 (for black)
  S15 D8 -> 40.01 (for black)
  H7  -> 45.14 (for black)
  T7  -> 44.96 (for black)
  H10  -> 30.67 (for black)]LB[hf:A][ck:B][gr:C][bl:D][ke:E][gg:F][eg:G][eq:H][re:J][hm:K][sm:L][hj:M];C[Winrate Black:  52.47%
|################________________|


 Leela's Suggestions: D8 H14 K17 B8 B9 B7 S16 B10 B11 C9 D9 A9 F16 G16 F15


 Alternatives: 
 D8 -> 31.069999999999993 - D8 H14 K17 B8 B9 B7 S16 B10 B11 C9 D9 A9 F16 G16 F15
 S16 -> 36.41 - S16 T7 T8 T6 S9 G2 G3 H3
 G13 -> 37.92 - G13 C9 S16 T7 T8 T6
 J8 -> 41.18 - J8 K8 H8 K7 D8 E8
 H3 -> 33.97 - H3 C9 D9 D8 B10
 B7 -> 46.03 - B7 C9 D9
 T6 -> 50.85 - T6 
 J6 -> 63.98 - J6 


 
--- Top-3 mistake (most impact) ---
move 97, lost 19.819999999999993% winrate. winrate: 52.47
 play white L9
 Alternatives: 
  D8 H14 K17 B8 B9 B7 S16 B10 B11 C9 D9 A9 F16 G16 F15 -> 31.069999999999993 (for white)
  S16 T7 T8 T6 S9 G2 G3 H3 -> 36.41 (for white)
  G13 C9 S16 T7 T8 T6 -> 37.92 (for white)
  J8 K8 H8 K7 D8 E8 -> 41.18 (for white)
  H3 C9 D9 D8 B10 -> 33.97 (for white)
  B7 C9 D9 -> 46.03 (for white)
  T6  -> 50.85 (for white)
  J6  -> 63.98 (for white)]LB[dl:A][rd:B][gg:C][il:D][hq:E][bm:F][sn:G][in:H]W[kk]WL[474.576];B[hl]BL[449.334]C[Winrate Black:  27.73%
|########________________________|


 Leela's Suggestions: C9 B9 B8 B10 H14 K17 E13 D13 S15


 Alternatives: 
 C9 -> 54.33 - C9 B9 B8 B10 H14 K17 E13 D13 S15
 H14 -> 54.7 - H14 K17 C9 B9 B8 C10 D8 S16 T7
 G2 -> 53.36 - G2 G3 H3 F2 C9 B9 B8 C10 D8 S16 T7
 T7 -> 44.92 - T7 T8 T6 S9 C9 B10 B9 G13
 L7 -> 30.74 - L7 K6 J6 D8 F7 H3
 E13 -> 46.65 - E13 G13 C13 B13 C12
 S15 -> 37.21 - S15 D8 E8 B7
 L15 -> 40.81 - L15 K15 H15 H16 G13
 B10 -> 43.71 - B10 C9
 B8 -> 39.64 - B8 
 L18 -> 34.31 - L18 


 
--- Top-4 mistake (most impact) ---
move 98, lost -24.739999999999995% winrate. winrate: 27.730000000000004
 play black H8
 Alternatives: 
  C9 B9 B8 B10 H14 K17 E13 D13 S15 -> 54.33 (for black)
  H14 K17 C9 B9 B8 C10 D8 S16 T7 -> 54.7 (for black)
  G2 G3 H3 F2 C9 B9 B8 C10 D8 S16 T7 -> 53.36 (for black)
  T7 T8 T6 S9 C9 B10 B9 G13 -> 44.92 (for black)
  L7 K6 J6 D8 F7 H3 -> 30.74 (for black)
  E13 G13 C13 B13 C12 -> 46.65 (for black)
  S15 D8 E8 B7 -> 37.21 (for black)
  L15 K15 H15 H16 G13 -> 40.81 (for black)
  B10 C9 -> 43.71 (for black)
  B8  -> 39.64 (for black)
  L18  -> 34.31 (for black)]LB[ck:A][hf:B][gr:C][sm:D][km:E][eg:F][re:G][ke:H][bj:J][bl:K][kb:L];C[Winrate Black:  60.20%
|###################_____________|


 Leela's Suggestions: D8 H14 K17 E13 D13 L18 K18 M18 F16 E17


 Alternatives: 
 D8 -> 25.650000000000006 - D8 H14 K17 G13 L18 B8 B9 B7 S16 S17
 G13 -> 26.090000000000003 - G13 C9 D9 D8 B10 B9 C10 B8 S16 S17
 S16 -> 30.439999999999998 - S16 H14 F16 G16 H16 G17 K17
 B8 -> 29.120000000000005 - B8 E13 D13 H14 K17 L18
 H7 -> 29.47 - H7 G9 D8 B7
 T6 -> 37.35 - T6 H14 K17 E13 D13
 H3 -> 29.739999999999995 - H3 H14 F16 G16
 S15 -> 33.239999999999995 - S15 T7 T8 T6 S9 C9
 K17 -> 33.75 - K17 C9 B9
 B7 -> 39.69 - B7 C9 B9 D8


 
--- Top-1 mistake (most impact) ---
move 99, lost 32.47% winrate. winrate: 60.2
 play white L10
 Alternatives: 
  D8 H14 K17 G13 L18 B8 B9 B7 S16 S17 -> 25.650000000000006 (for white)
  G13 C9 D9 D8 B10 B9 C10 B8 S16 S17 -> 26.090000000000003 (for white)
  S16 H14 F16 G16 H16 G17 K17 -> 30.439999999999998 (for white)
  B8 E13 D13 H14 K17 L18 -> 29.120000000000005 (for white)
  H7 G9 D8 B7 -> 29.47 (for white)
  T6 H14 K17 E13 D13 -> 37.35 (for white)
  H3 H14 F16 G16 -> 29.739999999999995 (for white)
  S15 T7 T8 T6 S9 C9 -> 33.239999999999995 (for white)
  K17 C9 B9 -> 33.75 (for white)
  B7 C9 B9 D8 -> 39.69 (for white)]LB[dl:A][gg:B][rd:C][bl:D][hm:E][sn:F][hq:G][re:H][jc:J][bm:K]W[kj]WL[471.008];B[gk]BL[434.666]C[Winrate Black:  28.24%
|#########_______________________|


 Leela's Suggestions: H14 K17 G13 F16 G16 F15 C9 B9 B8


 Alternatives: 
 H14 -> 63.19 - H14 K17 G13 F16 G16 E17 E18 J18 H18 L18 T7 T8
 C9 -> 55.47 - C9 B9 C10 D9 D8 B8 C11 D12 C12 C13
 G2 -> 55.13 - G2 F2 C9 B9 C10
 T7 -> 51.8 - T7 T8 T6 S9 C9 B9 B8 C10 D8
 S15 -> 47.11 - S15 D8 B8 B9 B7 G13
 B8 -> 54.33 - B8 B10 T7 T8
 L18 -> 43.92 - L18 G13 C9
 L7 -> 41.91 - L7 K6 J6 D8
 L15 -> 49.38 - L15 K15 K17
 B10 -> 45.5 - B10 B11 C9
 R10 -> 40.92 - R10 
 L6 -> 34.83 - L6 


 
--- Top-1 mistake (most impact) ---
move 100, lost -31.960000000000008% winrate. winrate: 28.239999999999995
 play black G9
 Alternatives: 
  H14 K17 G13 F16 G16 E17 E18 J18 H18 L18 T7 T8 -> 63.19 (for black)
  C9 B9 C10 D9 D8 B8 C11 D12 C12 C13 -> 55.47 (for black)
  G2 F2 C9 B9 C10 -> 55.13 (for black)
  T7 T8 T6 S9 C9 B9 B8 C10 D8 -> 51.8 (for black)
  S15 D8 B8 B9 B7 G13 -> 47.11 (for black)
  B8 B10 T7 T8 -> 54.33 (for black)
  L18 G13 C9 -> 43.92 (for black)
  L7 K6 J6 D8 -> 41.91 (for black)
  L15 K15 K17 -> 49.38 (for black)
  B10 B11 C9 -> 45.5 (for black)
  R10  -> 40.92 (for black)
  L6  -> 34.83 (for black)]LB[hf:A][ck:B][gr:C][sm:D][re:E][bl:F][kb:G][km:H][ke:J][bj:K][qj:L][kn:M];C[Winrate Black:  29.01%
|#########_______________________|


 Leela's Suggestions: G13 C9 S16 B11 D9 D8 C10 B8 B10


 Alternatives: 
 G13 -> 25.180000000000007 - G13 C9 S16 B11 D9 D8 C10 B8 B10
 D8 -> 28.200000000000003 - D8 B8 B9 B7 S16 H14 K17 L18 K18
 S16 -> 34.16 - S16 T7 T8 T6 S9 H14 F16 G16 H16 G17
 B7 -> 32.400000000000006 - B7 C9 B9 D8 B8 H14 K17 L18 K18
 K6 -> 33.709999999999994 - K6 G2 F2 G3 S16
 B8 -> 35.519999999999996 - B8 H14 F16 G16 H16
 S15 -> 32.97 - S15 H14 K17 T7
 T6 -> 46.65 - T6 H14 K17 G13
 H3 -> 37.37 - H3 
 B18 -> 45.27 - B18 
]LB[gg:A][dl:B][rd:C][bm:D][jn:E][bl:F][re:G][sn:H][hq:J][bb:K]W[dl]WL[452.608];B[eq]BL[425.263]C[Winrate Black:  29.00%
|#########_______________________|


 Leela's Suggestions: H14 K17 L18 K18 M18 H16 E13 F16 G17 B18


 Alternatives: 
 H14 -> 31.67 - H14 K17 G13 L18 S15 R15 S16 B7
 B8 -> 29.88 - B8 B9 B7 G13 S15 R15 S16 H3 B10 C9
 G2 -> 26.54 - G2 G3 H3 F2 H14 K17 S15 R15
 B10 -> 26.19 - B10 B9 D9 C9 B11 C12 C10 B12
 B7 -> 24.38 - B7 G13 S15 R15 S16 T6 T5 T7
 S15 -> 22.65 - S15 B7 B6 D7 C6 B8 F6 F7 E6
 T7 -> 24.22 - T7 T8 T6 S9 H14 K17 G13 L18 B10 B9
 L15 -> 26.75 - L15 K15 H14 K17 G13 L18
 C15 -> 28.18 - C15 D15 C13 D13 B14 D14
 E13 -> 23.13 - E13 D13 H14 K17 L18
 L7 -> 21.21 - L7 K6 L6 K5 L5
 L18 -> 19.43 - L18 G13 S15 R15 S16
 G13 -> 22.9 - G13 H14 L15
 N4 -> 21.7 - N4 
]LB[hf:A][bl:B][gr:C][bj:D][bm:E][re:F][sm:G][ke:H][ce:J][eg:K][km:L][kb:M][gg:N][mp:O];C[Winrate Black:  29.52%
|#########_______________________|


 Leela's Suggestions: D2 G2 G3 H3 F2 B8 B9 B7 S16 H14 K17 B10 B11 C9 D9


 Alternatives: 
 D2 -> 27.989999999999995 - D2 G2 G3 H3 F2 B8 B9 B7 S16 H14 K17 B10 B11 C9 D9
 G2 -> 44.94 - G2 D2
]LB[dr:A][gr:B]W[dr]WL[448.597];B[el]BL[421.276]C[Winrate Black:  15.69%
|#####___________________________|


 Leela's Suggestions: G2 G3 H3 F2 H14 K17 G13 L18 B10 B9 B7 C10 S15 R15 S16


 Alternatives: 
 G2 -> 30.52 - G2 G3 H3 F2 H14 K17 G13 L18 B10 B9 B7 C10 S15 R15 S16 T6
 H14 -> 28.75 - H14 K17 G2 F2 G13 L18 S15 R15 S16
 B8 -> 24.45 - B8 B9 B7 S16 G2 F2 T7
 T7 -> 20.87 - T7 T8 T6 S9 G2 F2 H14 K17
 B10 -> 22.77 - B10 B9 D9 C9 G2 F2
 S15 -> 20.42 - S15 R15 S16 B7 B6
 B3 -> 21.91 - B3 G3 H3
 B7 -> 22.53 - B7 B8 G2 F2
 L15 -> 19.5 - L15 K15 H14 F16 G16
 E13 -> 20.16 - E13 D13 H14 K17 S15
 L7 -> 20.27 - L7 K6 L6
 L18 -> 16.25 - L18 G13


 
--- Top-7 mistake (most impact) ---
move 104, lost -13.830000000000002% winrate. winrate: 15.689999999999998
 play black E8
 Alternatives: 
  G2 G3 H3 F2 H14 K17 G13 L18 B10 B9 B7 C10 S15 R15 S16 T6 -> 30.52 (for black)
  H14 K17 G2 F2 G13 L18 S15 R15 S16 -> 28.75 (for black)
  B8 B9 B7 S16 G2 F2 T7 -> 24.45 (for black)
  T7 T8 T6 S9 G2 F2 H14 K17 -> 20.87 (for black)
  B10 B9 D9 C9 G2 F2 -> 22.77 (for black)
  S15 R15 S16 B7 B6 -> 20.42 (for black)
  B3 G3 H3 -> 21.91 (for black)
  B7 B8 G2 F2 -> 22.53 (for black)
  L15 K15 H14 F16 G16 -> 19.5 (for black)
  E13 D13 H14 K17 S15 -> 20.16 (for black)
  L7 K6 L6 -> 20.27 (for black)
  L18 G13 -> 16.25 (for black)]LB[gr:A][hf:B][bl:C][sm:D][bj:E][re:F][bq:G][bm:H][ke:J][eg:K][km:L][kb:M];C[Winrate Black:  18.79%
|######__________________________|


 Leela's Suggestions: G13 B10 C10 B8 B9 A9 C9 B6 B11 S15 R15 S16 T6 T5


 Alternatives: 
 G13 -> 12.510000000000005 - G13 B10 C10 B8 B9 A9 C9 B6 B11 S15 R15 S16 T6 T5
 S16 -> 17.189999999999998 - S16 H14 F16 G16 H16 G17 K17
 B7 -> 17.33 - B7 H14 K17 L18 K18 M18 F16 G13 E17
 S15 -> 16.17 - S15 G2 F2 G3 B3 T7 T8 T6
 T6 -> 18.75 - T6 G2 F2 G3 B3 B10 C10 B8
 H14 -> 14.459999999999994 - H14 S15 R15 S16 T6 B10 C10 B8
 H3 -> 15.25 - H3 H4 G13 S15 R15 S16
 K17 -> 15.069999999999993 - K17 S15 R15 S16 T6 T12
 B18 -> 19.379999999999995 - B18 G2 F2 G3
 D7 -> 19.14 - D7 B7 B8


 
--- Top-17 mistake (most impact) ---
move 105, lost 3.1000000000000014% winrate. winrate: 18.79
 play white S16
 Alternatives: 
  G13 B10 C10 B8 B9 A9 C9 B6 B11 S15 R15 S16 T6 T5 -> 12.510000000000005 (for white)
  S16 H14 F16 G16 H16 G17 K17 -> 17.189999999999998 (for white)
  B7 H14 K17 L18 K18 M18 F16 G13 E17 -> 17.33 (for white)
  S15 G2 F2 G3 B3 T7 T8 T6 -> 16.17 (for white)
  T6 G2 F2 G3 B3 B10 C10 B8 -> 18.75 (for white)
  H14 S15 R15 S16 T6 B10 C10 B8 -> 14.459999999999994 (for white)
  H3 H4 G13 S15 R15 S16 -> 15.25 (for white)
  K17 S15 R15 S16 T6 T12 -> 15.069999999999993 (for white)
  B18 G2 F2 G3 -> 19.379999999999995 (for white)
  D7 B7 B8 -> 19.14 (for white)]LB[gg:A][rd:B][bm:C][re:D][sn:E][hf:F][hq:G][jc:H][bb:J][dm:K]W[rd]WL[442.934];B[rc]BL[404.53]C[Winrate Black:  14.59%
|####____________________________|


 Leela's Suggestions: H14 K17 L18 K18 M18 F16 E17 H16 F14 E16 B18 E13


 Alternatives: 
 H14 -> 20.61 - H14 K17 L18 K18 M18 F16 E17 H16 F14 E16 B18 E13
 G2 -> 16.85 - G2 F2 H14 K17 L18 K18 M18 H16 E13 D13 B17
 T7 -> 17.02 - T7 T8 T6 S8 H14 K17 L18 K18 M18
 S17 -> 12.3 - S17 R16 G2 F2 G3 B3 T7
 B10 -> 15.04 - B10 C10 B8 B11 T7 T8 T6 S8
 B11 -> 11.8 - B11 B10 B9 C10 B8
 C15 -> 14.79 - C15 D15 C13 D13 B14
 C13 -> 14.43 - C13 D13 C12 D12
 B3 -> 11.02 - B3 G3 T7 T8
 L18 -> 12.16 - L18 H14 T7
 L15 -> 11.89 - L15 K15 H14 F16
 L7 -> 9.2 - L7 K6


 
--- Top-20 mistake (most impact) ---
move 106, lost -4.199999999999996% winrate. winrate: 14.590000000000003
 play black S17
 Alternatives: 
  H14 K17 L18 K18 M18 F16 E17 H16 F14 E16 B18 E13 -> 20.61 (for black)
  G2 F2 H14 K17 L18 K18 M18 H16 E13 D13 B17 -> 16.85 (for black)
  T7 T8 T6 S8 H14 K17 L18 K18 M18 -> 17.02 (for black)
  S17 R16 G2 F2 G3 B3 T7 -> 12.3 (for black)
  B10 C10 B8 B11 T7 T8 T6 S8 -> 15.04 (for black)
  B11 B10 B9 C10 B8 -> 11.8 (for black)
  C15 D15 C13 D13 B14 -> 14.79 (for black)
  C13 D13 C12 D12 -> 14.43 (for black)
  B3 G3 T7 T8 -> 11.02 (for black)
  L18 H14 T7 -> 12.16 (for black)
  L15 K15 H14 F16 -> 11.89 (for black)
  L7 K6 -> 9.2 (for black)]LB[hf:A][gr:B][sm:C][rc:D][bj:E][bi:F][ce:G][cg:H][bq:J][kb:K][ke:L][km:M];C[Winrate Black:  26.10%
|########________________________|


 Leela's Suggestions: G13 S15 R15 R16 S14 T7 T8 T6 S9 B10 C10 B8 B11 B9


 Alternatives: 
 G13 -> 10.700000000000003 - G13 S15 R15 R16 S14 T7 T8 T6 S9 B10 C10 B8 B11 B9
 R16 -> 17.39 - R16 H14 K17 T7 T8 T6 S9 B10 C10 B8 B11
 H3 -> 14.799999999999997 - H3 T7 T8 T6 S9 H14
 K17 -> 14.269999999999996 - K17 G2 F2 G3 B3
 T6 -> 20.33 - T6 H14 K17 B10
 B7 -> 16.980000000000004 - B7 B6 D7
 H14 -> 16.03 - H14 S15 R15


 
--- Top-7 mistake (most impact) ---
move 107, lost 11.509999999999998% winrate. winrate: 26.1
 play white S15
 Alternatives: 
  G13 S15 R15 R16 S14 T7 T8 T6 S9 B10 C10 B8 B11 B9 -> 10.700000000000003 (for white)
  R16 H14 K17 T7 T8 T6 S9 B10 C10 B8 B11 -> 17.39 (for white)
  H3 T7 T8 T6 S9 H14 -> 14.799999999999997 (for white)
  K17 G2 F2 G3 B3 -> 14.269999999999996 (for white)
  T6 H14 K17 B10 -> 20.33 (for white)
  B7 B6 D7 -> 16.980000000000004 (for white)
  H14 S15 R15 -> 16.03 (for white)]LB[gg:A][qd:B][hq:C][jc:D][sn:E][bm:F][hf:G]W[re]WL[427.866];B[fe]BL[396.235]C[Winrate Black:  17.99%
|#####___________________________|


 Leela's Suggestions: T7 T8 T6 S8 H14 K17 B10 C10 B8 B11 B9 F16 G16 F15 G13


 Alternatives: 
 T7 -> 27.6 - T7 T8 T6 S8 H14 K17 B10 C10 B8 B11 B9 F16 G16 F15 G13
 H14 -> 26.8 - H14 K17 G13 L18 T7 T8 T6 S9 B10
 B10 -> 22.46 - B10 C10 B8 B11 T7 T8 T6 S8 B9
 G2 -> 20.07 - G2 F2 T7 T8 T6 S8 B10
 L18 -> 16.01 - L18 G13 T7 T8 T6 S8
 L15 -> 20.83 - L15 K15 H14 K17 M15
 B11 -> 15.93 - B11 C12 D9 C9
 N4 -> 15.96 - N4 M2 T7


 
--- Top-15 mistake (most impact) ---
move 108, lost -8.110000000000007% winrate. winrate: 17.989999999999995
 play black F15
 Alternatives: 
  T7 T8 T6 S8 H14 K17 B10 C10 B8 B11 B9 F16 G16 F15 G13 -> 27.6 (for black)
  H14 K17 G13 L18 T7 T8 T6 S9 B10 -> 26.8 (for black)
  B10 C10 B8 B11 T7 T8 T6 S8 B9 -> 22.46 (for black)
  G2 F2 T7 T8 T6 S8 B10 -> 20.07 (for black)
  L18 G13 T7 T8 T6 S8 -> 16.01 (for black)
  L15 K15 H14 K17 M15 -> 20.83 (for black)
  B11 C12 D9 C9 -> 15.93 (for black)
  N4 M2 T7 -> 15.96 (for black)]LB[sm:A][hf:B][bj:C][gr:D][kb:E][ke:F][bi:G][mp:H];C[Winrate Black:  16.64%
|#####___________________________|


 Leela's Suggestions: H14 C15 D15 C13 D13 B14 D14 C12 D12 B16 B17 B11 B10 A13


 Alternatives: 
 H14 -> 17.42 - H14 C15 D15 C13 D13 B14 D14 C12 D12 B16 B17 B11 B10 A13
 G16 -> 16.340000000000003 - G16 F16 G13 F13 K17 C15 D15 C13 D13
 G13 -> 16.819999999999993 - G13 H15 H16 G16 G14 K17 L16 T7 T8 T6
 F14 -> 15.329999999999998 - F14 E15 G16 E17 D13
 K17 -> 22.400000000000006 - K17 H14 L18 T7 T8
 M13 -> 21.47 - M13 N14
]LB[hf:A][gd:B][gg:C][ff:D][jc:E][lg:F]W[ff]WL[425.164];B[gg]BL[384.871]C[Winrate Black:  14.92%
|####____________________________|


 Leela's Suggestions: L15 K15 G13 H14 G14 H15 E15 K17 B10 B11


 Alternatives: 
 L15 -> 18.74 - L15 K15 G13 H14 G14 H15 E15 K17 B10 B11
 E15 -> 15.75 - E15 G16 E17 D13 T7 T8 T6 S9 L18 G13
 T7 -> 16.73 - T7 T8 T6 S9 E15 H14 B10 C10 B8
 G13 -> 15.26 - G13 H14 E15 F13 T7 T8 T6 S9 B10
 H15 -> 15.62 - H15 H14 G16 G14 E15 D13 T7 T8 T6 S9 L18
 B10 -> 18.04 - B10 C10 B8 B9 A9 C9 B6 B11
 H14 -> 12.94 - H14 G13 G14 H15 F13 J15 E14 D13 T7
 E14 -> 17.53 - E14 F16 E15 G16 E16 G17 C15 B15 C13
 G2 -> 15.72 - G2 F2 E15 G16 E17
 G14 -> 17.01 - G14 G16 G13 F16 G17
 E13 -> 15.65 - E13 D13 T7 T8 T6
 G16 -> 15.87 - G16 H14 E15 D13
]LB[ke:A][ee:B][sm:C][gg:D][he:E][bj:F][hf:G][ef:H][gr:J][gf:K][eg:L][gd:M];C[Winrate Black:  13.08%
|####____________________________|


 Leela's Suggestions: H14 G14 H15 E15 K17 B10 B11 B12 C12 A11


 Alternatives: 
 H14 -> 13.260000000000005 - H14 G14 H15 E15 K17 B10 B11 B12 C12 A11
 K17 -> 21.659999999999997 - K17 E15 H14 B10 C10 C12
 F16 -> 30.430000000000007 - F16 G16 E15 H15 J15 G14 K17
 G16 -> 33.8 - G16 F16 G14 H14 G17
]LB[hf:A][jc:B][fd:C][gd:D]W[hf]WL[423.328];B[gf]BL[382.22]C[Winrate Black:  16.38%
|#####___________________________|


 Leela's Suggestions: G14 H15 E15 D13 L18 M15 L17 L16 T7 T8 T6 S8 M18 B7


 Alternatives: 
 G14 -> 13.74 - G14 H15 E15 D13 L18 M15 L17 L16 T7 T8 T6 S8 M18 B7
 E15 -> 12.46 - E15 F13 T7 T8 T6 S9 B10 C10 B8 B11 B9 B18 B12
 B10 -> 14.73 - B10 C10 B8 B11 B9 F16 T7 T8 T6 S8 L18 M18
 T7 -> 11.8 - T7 T8 T6 S8 E15 D13 L15 J15
 E14 -> 11.84 - E14 F13 E13 F12 E15 C12 C15
 L15 -> 12.22 - L15 J15 E15 M15 B10 C10 B11
 L18 -> 10.21 - L18 F16 T7 T8 T6 S9 M18 E17
 H15 -> 6.57 - H15 G14 H16 J15 E15 E14 D15 C15 T7
 B11 -> 12.05 - B11 C12 D9 C9 C10
]LB[gf:A][ee:B][bj:C][sm:D][ef:E][ke:F][kb:G][he:H][bi:J];C[Winrate Black:  16.32%
|#####___________________________|


 Leela's Suggestions: H15 E15 D13 T7 T8 T6 S9 L15 K15 M15 M13 N14 K17 L18 K18 M18 N19 O18 N16 O17 L19 O19


 Alternatives: 
 H15 -> 15.909999999999997 - H15 E15 D13 T7 T8 T6 S9 L15 K15 M15 M13 N14 K17 L18 K18 M18 N19 O18 N16 O17 L19 O19
 J15 -> 14.989999999999995 - J15 G16 H15 T7 T8 T6 S8 B10 C10 B8
]LB[he:A][ie:B]W[ie]WL[420.851];B[gd]BL[380.256]C[Winrate Black:  17.47%
|#####___________________________|


 Leela's Suggestions: G16 H15 B10 C10 B8 B11 B9 E15 T7 T8 T6 S8 F16


 Alternatives: 
 G16 -> 16.66 - G16 H15 B10 C10 B8 B11 B9 E15 T7 T8 T6 S8 F16
 T7 -> 11.63 - T7 T8 T6 S9
]LB[gd:A][sm:B];C[Winrate Black:  17.24%
|#####___________________________|


 Leela's Suggestions: H15 B10 C10 B8 B11 B9 T6 B12 C12 A11 B13 C11 E12 E15 B11 L7


 Alternatives: 
 H15 -> 17.010000000000005 - H15 B10 C10 B8 B11 B9 T6 B12 C12 A11 B13 C11 E12 E15 B11 L7
 L18 -> 100.0 - L18 
]LB[he:A][kb:B]W[he]WL[415.1];B[ee]BL[372.632]C[Winrate Black:  9.08%
|##______________________________|


 Leela's Suggestions: B10 C10 B8 B11 B9 T6 B12 C12 A11 B13 C11 E12 E15 B11 L7 K6


 Alternatives: 
 B10 -> 17.99 - B10 C10 B8 B11 B9 T6 B12 C12 A11 B13 C11 E12 E15 B11 L7 K6
 T7 -> 17.43 - T7 T8 T6 S9 B10 C10 B8 B11 B9 E15 B12 C12 A11 B13 C11 E12 B3
 C15 -> 16.9 - C15 B15 B14 B13 D14 C13 B16 D15 A15 B17 E14
 B11 -> 16.15 - B11 B10 B9 C10 B8 A10 T7 T8 T6 S9 C15
 L18 -> 11.82 - L18 M18 L17 L16 T7 T8 T6
 E14 -> 9.84 - E14 D13 T7 T8 T6 S9 B10
 B15 -> 15.56 - B15 B14 B17 T6 T5
 G2 -> 12.24 - G2 F2 T7 T8 T6
 L7 -> 12.32 - L7 K6 L6 L5 K5
 N4 -> 10.12 - N4 M2 T7 T8 T6
 M15 -> 9.81 - M15 L15 T7 T8 T6
 F13 -> 10.7 - F13 D13 T7
 E15 -> 5.62 - E15 D13 T7 T8


 
--- Top-13 mistake (most impact) ---
move 116, lost -8.16% winrate. winrate: 9.079999999999998
 play black E15
 Alternatives: 
  B10 C10 B8 B11 B9 T6 B12 C12 A11 B13 C11 E12 E15 B11 L7 K6 -> 17.99 (for black)
  T7 T8 T6 S9 B10 C10 B8 B11 B9 E15 B12 C12 A11 B13 C11 E12 B3 -> 17.43 (for black)
  C15 B15 B14 B13 D14 C13 B16 D15 A15 B17 E14 -> 16.9 (for black)
  B11 B10 B9 C10 B8 A10 T7 T8 T6 S9 C15 -> 16.15 (for black)
  L18 M18 L17 L16 T7 T8 T6 -> 11.82 (for black)
  E14 D13 T7 T8 T6 S9 B10 -> 9.84 (for black)
  B15 B14 B17 T6 T5 -> 15.56 (for black)
  G2 F2 T7 T8 T6 -> 12.24 (for black)
  L7 K6 L6 L5 K5 -> 12.32 (for black)
  N4 M2 T7 T8 T6 -> 10.12 (for black)
  M15 L15 T7 T8 T6 -> 9.81 (for black)
  F13 D13 T7 -> 10.7 (for black)
  E15 D13 T7 T8 -> 5.62 (for black)]LB[bj:A][sm:B][ce:C][bi:D][kb:E][ef:F][be:G][gr:H][km:J][mp:K][le:L][fg:M][ee:N];C[Winrate Black:  18.73%
|#####___________________________|


 Leela's Suggestions: D13 T7 T8 T6 S8 B10 B9 D9 C9 C10 B11 G2 F2


 Alternatives: 
 D13 -> 7.1299999999999955 - D13 T7 T8 T6 S8 B10 B9 D9 C9 C10 B11 G2 F2 G3
 D14 -> 10.189999999999998 - D14 B10 C10 B8 B9 A9
 B7 -> 12.469999999999999 - B7 C13 D13 C12 D12 B14
 E13 -> 10.870000000000005 - E13 B10 B9 C12
 T6 -> 19.569999999999993 - T6 B10 B11 B8 C10
 B18 -> 15.599999999999994 - B18 C12 D12 C13
 D15 -> 11.620000000000005 - D15 T7 T8 T6
 H3 -> 25.53 - H3 


 
--- Top-10 mistake (most impact) ---
move 117, lost 9.650000000000002% winrate. winrate: 18.73
 play white F13
 Alternatives: 
  D13 T7 T8 T6 S8 B10 B9 D9 C9 C10 B11 G2 F2 G3 -> 7.1299999999999955 (for white)
  D14 B10 C10 B8 B9 A9 -> 10.189999999999998 (for white)
  B7 C13 D13 C12 D12 B14 -> 12.469999999999999 (for white)
  E13 B10 B9 C12 -> 10.870000000000005 (for white)
  T6 B10 B11 B8 C10 -> 19.569999999999993 (for white)
  B18 C12 D12 C13 -> 15.599999999999994 (for white)
  D15 T7 T8 T6 -> 11.620000000000005 (for white)
  H3  -> 25.53 (for white)]LB[dg:A][df:B][bm:C][eg:D][sn:E][bb:F][de:G][hq:H]W[fg]WL[400.665];B[gh]BL[367.505]C[Winrate Black:  10.59%
|###_____________________________|


 Leela's Suggestions: C13 D13 C12 B14 B10 B11 D12 E12 D14 E13 C11


 Alternatives: 
 C13 -> 20.71 - C13 D13 C12 B14 B10 B11 D12 E12 D14 E13 C11
 T7 -> 18.55 - T7 T8 T6 S8 C13 D13 D14 B14 D12 E13 C12
 B10 -> 19.01 - B10 C10 B11 B9 C12 D12 C13 D14 D13
 B16 -> 19.42 - B16 B17 C13 D13 C12 B14 D12 E12 D14 E13
 G12 -> 10.76 - G12 D13 T7 T8 T6 S8 B10 C9 C12
 G2 -> 15.28 - G2 F2 B10 C10
 B11 -> 12.86 - B11 C12 B10 C9 B8
 C12 -> 17.51 - C12 D12 B10 C10 C13 D14
 B15 -> 15.88 - B15 B14 B17 G12


 
--- Top-14 mistake (most impact) ---
move 118, lost -8.139999999999997% winrate. winrate: 10.590000000000003
 play black G12
 Alternatives: 
  C13 D13 C12 B14 B10 B11 D12 E12 D14 E13 C11 -> 20.71 (for black)
  T7 T8 T6 S8 C13 D13 D14 B14 D12 E13 C12 -> 18.55 (for black)
  B10 C10 B11 B9 C12 D12 C13 D14 D13 -> 19.01 (for black)
  B16 B17 C13 D13 C12 B14 D12 E12 D14 E13 -> 19.42 (for black)
  G12 D13 T7 T8 T6 S8 B10 C9 C12 -> 10.76 (for black)
  G2 F2 B10 C10 -> 15.28 (for black)
  B11 C12 B10 C9 B8 -> 12.86 (for black)
  C12 D12 B10 C10 C13 D14 -> 17.51 (for black)
  B15 B14 B17 G12 -> 15.88 (for black)]LB[cg:A][sm:B][bj:C][bd:D][gh:E][gr:F][bi:G][ch:H][be:J];C[Winrate Black:  11.57%
|###_____________________________|


 Leela's Suggestions: D13 T7 T8 T6 S8 B10 B9 D9 C9 C10 B11 G2 F2 G3


 Alternatives: 
 D13 -> 8.549999999999997 - D13 T7 T8 T6 S8 B10 B9 D9 C9 C10 B11 G2 F2 G3
 D14 -> 11.829999999999998 - D14 B10 C10 B8 B11 T7 T8 T6
 B7 -> 14.689999999999998 - B7 T7 T8 T6 S9 C13 D13 D14
 T6 -> 26.909999999999997 - T6 B10 B11 B8 C10
 B18 -> 22.959999999999994 - B18 B10 C10 B8
]LB[dg:A][df:B][bm:C][sn:D][bb:E]W[df]WL[397.043];B[bm]BL[360.183]C[

 Leela's Suggestions: B10 B9 A9 B8 D9 C10 B11 C9 C12 D12 C13 D13 B14


 Alternatives: 
 B10 -> 13.01 - B10 B9 A9 B8 D9 C10 B11 C9 C12 D12 C13 D13 B14
 T7 -> 10.04 - T7 T8 T6 S9 B10 B9 D9 C9 C10 C11 G2 F2 G3
 L18 -> 9.65 - L18 M18 B10 C9 C12 D12
 G2 -> 9.76 - G2 F2 G3 B3 T7 T8 T6 S8
 L7 -> 10.16 - L7 K6 L6 L5 K5
 N4 -> 7.85 - N4 M2 T7 T8 T6 S8 N3
 B8 -> 11.54 - B8 B9 B7 B18 B10 B11 T7 T8
 B18 -> 8.42 - B18 B7 B6 B8
 B17 -> 6.95 - B17 B16 D17 C16


 
--- Top-25 mistake (most impact) ---
move 120, lost -2.8000000000000043% winrate. winrate: 8.769999999999996
 play black B7
 Alternatives: 
  B10 B9 A9 B8 D9 C10 B11 C9 C12 D12 C13 D13 B14 -> 13.01 (for black)
  T7 T8 T6 S9 B10 B9 D9 C9 C10 C11 G2 F2 G3 -> 10.04 (for black)
  L18 M18 B10 C9 C12 D12 -> 9.65 (for black)
  G2 F2 G3 B3 T7 T8 T6 S8 -> 9.76 (for black)
  L7 K6 L6 L5 K5 -> 10.16 (for black)
  N4 M2 T7 T8 T6 S8 N3 -> 7.85 (for black)
  B8 B9 B7 B18 B10 B11 T7 T8 -> 11.54 (for black)
  B18 B7 B6 B8 -> 8.42 (for black)
  B17 B16 D17 C16 -> 6.95 (for black)]LB[bj:A][sm:B][kb:C][gr:D][km:E][mp:F][bl:G][bb:H][bc:J];C[

 Leela's Suggestions: B8 T7 T8 T6 S8 L18 M18 L17 L16 M15 L15 G2 G3 H3


 Alternatives: 
 B8 -> 7.030000000000001 - B8 T7 T8 T6 S8 L18 M18 L17 L16 M15 L15 G2 G3 H3
 B18 -> 8.810000000000002 - B18 T7 T8 T6 S8 D17 C16 B10 C10 B11
 B10 -> 7.280000000000001 - B10 T7 T8 T6 S9 B18 B17 A17 A16 A18
 T6 -> 11.269999999999996 - T6 B10 B11 B12 C12 A11 B13 C11
 B9 -> 8.879999999999995 - B9 T7 T8 T6 S8 G2 F2 G3
 H3 -> 10.079999999999998 - H3 H4 B8 T7 T8
]LB[bl:A][bb:B][bj:C][sn:D][bk:E][hq:F]W[bl]WL[382.055];B[dk]BL[355.89]C[];C[]W[ck]WL[370.553];B[al]BL[339.935]C[];C[]W[ak]WL[338.4];B[am]BL[335.007]C[];C[]W[sn]WL[326.745];B[so]BL[319.124]C[];C[]W[sm]WL[325.47];B[rp]BL[317.933]C[];C[]W[sc]WL[284.038];B[rb]BL[306.365]C[];C[]W[bb]WL[255.626];B[ba]BL[300.695]C[];C[]W[bc]WL[253.007];B[aj]BL[297.834]C[];C[]W[bj]WL[242.432];B[bk]BL[293.673]C[];C[]W[ai]WL[214.087];B[ak]BL[282.746]C[];C[]W[ci]WL[210.634];B[dm]BL[278.646]C[];C[]W[jb]WL[193.375];B[ib]BL[264.4]C[];C[]W[ec]WL[175.186];B[eb]BL[255.94]C[];C[]W[gb]WL[159.695];B[fb]BL[244.654]C[];C[]W[ca]WL[147.842];B[ga]BL[232.156]C[];C[]W[ha]WL[140.324];B[da]BL[218.209]C[];C[]W[fa]WL[135.213];B[ia]BL[215.607]C[];C[]W[hd]WL[105.241];B[gc]BL[202.977]C[];C[]W[ed]WL[33.676];B[fh]BL[191.605]C[];C[]W[dg]WL[26.249];B[cj]BL[188.51]C[];C[]W[ck]WL[22.034];B[mp]BL[185.001]C[];C[]W[lp]WL[16.191];B[mq]BL[182.807]C[];C[]OW[1]W[oo]WL[30];B[op]BL[169.89]C[];C[]OW[1]W[mr]WL[30];B[mo]BL[151.121]C[];C[]OW[1]W[nn]WL[30];B[on]BL[142.197]C[];C[]OW[1]W[lr]WL[30];B[np]BL[139.222]C[];C[]OW[1]W[or]WL[30];B[km]BL[129.775]C[];C[]OW[1]W[lm]WL[30];B[kn]BL[126.075]C[];C[]OW[1]W[ln]WL[30];B[kl]BL[124.211]C[];C[]OW[1]W[ll]WL[30];B[gr]BL[123.621]C[];C[]OW[1]W[gq]WL[30];B[hq]BL[116.892]C[];C[]OW[1]W[fr]WL[30];B[hs]BL[112.87]C[];C[]OW[1]W[bq]WL[30];B[bp]BL[108.55]C[];C[]OW[1]W[ki]WL[30];B[nb]BL[103.698]C[];C[]OW[1]W[lb]WL[30];B[md]BL[92.744]C[];C[]OW[1]W[le]WL[30])